%!PS-Adobe-3.0 EPSF-3.0
%%Creator: MATLAB, The MathWorks, Inc. Version 8.1.0.604 (R2013a). Operating System: Microsoft Windows 8.
%%Title: ..\..\Images\Pb_vs_EbNo.eps
%%CreationDate: 06/18/2015  19:40:40
%%DocumentNeededFonts: Helvetica
%%DocumentProcessColors: Cyan Magenta Yellow Black
%%LanguageLevel: 2
%%Pages: 1
%%BoundingBox:    88   264   505   577
%%EndComments

%%BeginProlog
% MathWorks dictionary
/MathWorks 160 dict begin
% definition operators
/bdef {bind def} bind def
/ldef {load def} bind def
/xdef {exch def} bdef
/xstore {exch store} bdef
% operator abbreviations
/c  /clip ldef
/cc /concat ldef
/cp /closepath ldef
/gr /grestore ldef
/gs /gsave ldef
/mt /moveto ldef
/np /newpath ldef
/cm /currentmatrix ldef
/sm /setmatrix ldef
/rm /rmoveto ldef
/rl /rlineto ldef
/s {show newpath} bdef
/sc {setcmykcolor} bdef
/sr /setrgbcolor ldef
/sg /setgray ldef
/w /setlinewidth ldef
/j /setlinejoin ldef
/cap /setlinecap ldef
/rc {rectclip} bdef
/rf {rectfill} bdef
% page state control
/pgsv () def
/bpage {/pgsv save def} bdef
/epage {pgsv restore} bdef
/bplot /gsave ldef
/eplot {stroke grestore} bdef
% orientation switch
/portraitMode 0 def /landscapeMode 1 def /rotateMode 2 def
% coordinate system mappings
/dpi2point 0 def
% font control
/FontSize 0 def
/FMS {/FontSize xstore findfont [FontSize 0 0 FontSize neg 0 0]
  makefont setfont} bdef
/ISOLatin1Encoding where {pop /WindowsLatin1Encoding 256 array bdef
ISOLatin1Encoding WindowsLatin1Encoding copy pop
/.notdef/.notdef/quotesinglbase/florin/quotedblbase/ellipsis/dagger
/daggerdbl/circumflex/perthousand/Scaron/guilsinglleft/OE/.notdef/.notdef
/.notdef/.notdef/quoteleft/quoteright/quotedblleft/quotedblright/bullet
/endash/emdash/tilde/trademark/scaron/guilsinglright/oe/.notdef/.notdef
/Ydieresis WindowsLatin1Encoding 128 32 getinterval astore pop}
{/WindowsLatin1Encoding StandardEncoding bdef} ifelse
/reencode {exch dup where {pop load} {pop StandardEncoding} ifelse
  exch dup 3 1 roll findfont dup length dict begin
  { 1 index /FID ne {def}{pop pop} ifelse } forall
  /Encoding exch def currentdict end definefont pop} bdef
/isroman {findfont /CharStrings get /Agrave known} bdef
/FMSR {3 1 roll 1 index dup isroman {reencode} {pop pop} ifelse
  exch FMS} bdef
/csm {1 dpi2point div -1 dpi2point div scale neg translate
 dup landscapeMode eq {pop -90 rotate}
  {rotateMode eq {90 rotate} if} ifelse} bdef
% line types: solid, dotted, dashed, dotdash
/SO { [] 0 setdash } bdef
/DO { [.5 dpi2point mul 4 dpi2point mul] 0 setdash } bdef
/DA { [6 dpi2point mul] 0 setdash } bdef
/DD { [.5 dpi2point mul 4 dpi2point mul 6 dpi2point mul 4
  dpi2point mul] 0 setdash } bdef
% macros for lines and objects
/L {lineto stroke} bdef
/MP {3 1 roll moveto 1 sub {rlineto} repeat} bdef
/AP {{rlineto} repeat} bdef
/PDlw -1 def
/W {/PDlw currentlinewidth def setlinewidth} def
/PP {closepath eofill} bdef
/DP {closepath stroke} bdef
/MR {4 -2 roll moveto dup  0 exch rlineto exch 0 rlineto
  neg 0 exch rlineto closepath} bdef
/FR {MR stroke} bdef
/PR {MR fill} bdef
/L1i {{currentfile picstr readhexstring pop} image} bdef
/tMatrix matrix def
/MakeOval {newpath tMatrix currentmatrix pop translate scale
0 0 1 0 360 arc tMatrix setmatrix} bdef
/FO {MakeOval stroke} bdef
/PO {MakeOval fill} bdef
/PD {currentlinewidth 2 div 0 360 arc fill
   PDlw -1 eq not {PDlw w /PDlw -1 def} if} def
/FA {newpath tMatrix currentmatrix pop translate scale
  0 0 1 5 -2 roll arc tMatrix setmatrix stroke} bdef
/PA {newpath tMatrix currentmatrix pop	translate 0 0 moveto scale
  0 0 1 5 -2 roll arc closepath tMatrix setmatrix fill} bdef
/FAn {newpath tMatrix currentmatrix pop translate scale
  0 0 1 5 -2 roll arcn tMatrix setmatrix stroke} bdef
/PAn {newpath tMatrix currentmatrix pop translate 0 0 moveto scale
  0 0 1 5 -2 roll arcn closepath tMatrix setmatrix fill} bdef
/vradius 0 def /hradius 0 def /lry 0 def
/lrx 0 def /uly 0 def /ulx 0 def /rad 0 def
/MRR {/vradius xdef /hradius xdef /lry xdef /lrx xdef /uly xdef
  /ulx xdef newpath tMatrix currentmatrix pop ulx hradius add uly
  vradius add translate hradius vradius scale 0 0 1 180 270 arc 
  tMatrix setmatrix lrx hradius sub uly vradius add translate
  hradius vradius scale 0 0 1 270 360 arc tMatrix setmatrix
  lrx hradius sub lry vradius sub translate hradius vradius scale
  0 0 1 0 90 arc tMatrix setmatrix ulx hradius add lry vradius sub
  translate hradius vradius scale 0 0 1 90 180 arc tMatrix setmatrix
  closepath} bdef
/FRR {MRR stroke } bdef
/PRR {MRR fill } bdef
/MlrRR {/lry xdef /lrx xdef /uly xdef /ulx xdef /rad lry uly sub 2 div def
  newpath tMatrix currentmatrix pop ulx rad add uly rad add translate
  rad rad scale 0 0 1 90 270 arc tMatrix setmatrix lrx rad sub lry rad
  sub translate rad rad scale 0 0 1 270 90 arc tMatrix setmatrix
  closepath} bdef
/FlrRR {MlrRR stroke } bdef
/PlrRR {MlrRR fill } bdef
/MtbRR {/lry xdef /lrx xdef /uly xdef /ulx xdef /rad lrx ulx sub 2 div def
  newpath tMatrix currentmatrix pop ulx rad add uly rad add translate
  rad rad scale 0 0 1 180 360 arc tMatrix setmatrix lrx rad sub lry rad
  sub translate rad rad scale 0 0 1 0 180 arc tMatrix setmatrix
  closepath} bdef
/FtbRR {MtbRR stroke } bdef
/PtbRR {MtbRR fill } bdef
/stri 6 array def /dtri 6 array def
/smat 6 array def /dmat 6 array def
/tmat1 6 array def /tmat2 6 array def /dif 3 array def
/asub {/ind2 exch def /ind1 exch def dup dup
  ind1 get exch ind2 get sub exch } bdef
/tri_to_matrix {
  2 0 asub 3 1 asub 4 0 asub 5 1 asub
  dup 0 get exch 1 get 7 -1 roll astore } bdef
/compute_transform {
  dmat dtri tri_to_matrix tmat1 invertmatrix 
  smat stri tri_to_matrix tmat2 concatmatrix } bdef
/ds {stri astore pop} bdef
/dt {dtri astore pop} bdef
/db {2 copy /cols xdef /rows xdef mul dup 3 mul string
  currentfile 
  3 index 0 eq {/ASCIIHexDecode filter}
  {/ASCII85Decode filter 3 index 2 eq {/RunLengthDecode filter} if }
  ifelse exch readstring pop
  dup 0 3 index getinterval /rbmap xdef
  dup 2 index dup getinterval /gbmap xdef
  1 index dup 2 mul exch getinterval /bbmap xdef pop pop}bdef
/it {gs np dtri aload pop moveto lineto lineto cp c
  cols rows 8 compute_transform 
  rbmap gbmap bbmap true 3 colorimage gr}bdef
/il {newpath moveto lineto stroke}bdef
currentdict end def
%%EndProlog

%%BeginSetup
MathWorks begin

0 cap

end
%%EndSetup

%%Page: 1 1
%%BeginPageSetup
%%PageBoundingBox:    88   264   505   577
MathWorks begin
bpage
%%EndPageSetup

%%BeginObject: obj1
bplot

/dpi2point 12 def
portraitMode 1056 6924 csm

    0     0  5005  3755 rc
85 dict begin %Colortable dictionary
/c0 { 0.000000 0.000000 0.000000 sr} bdef
/c1 { 1.000000 1.000000 1.000000 sr} bdef
/c2 { 0.900000 0.000000 0.000000 sr} bdef
/c3 { 0.000000 0.820000 0.000000 sr} bdef
/c4 { 0.000000 0.000000 0.800000 sr} bdef
/c5 { 0.910000 0.820000 0.320000 sr} bdef
/c6 { 1.000000 0.260000 0.820000 sr} bdef
/c7 { 0.000000 0.820000 0.820000 sr} bdef
c0
1 j
1 sg
   0    0 5006 3756 rf
6 w
0 3060 3880 0 0 -3060 650 3342 4 MP
PP
-3880 0 0 3060 3880 0 0 -3060 650 3342 5 MP stroke
4 w
DO
SO
6 w
0 sg
 650  282 mt 4530  282 L
 650 3342 mt 4530 3342 L
4530 3342 mt 4530  282 L
 650 3342 mt  650  282 L
 650 3342 mt 4530 3342 L
 650 3342 mt  650  282 L
 650 3342 mt  650 3303 L
 650  282 mt  650  320 L
%%IncludeResource: font Helvetica
/Helvetica /WindowsLatin1Encoding 120 FMSR

 514 3487 mt 
(-10) s
1426 3342 mt 1426 3303 L
1426  282 mt 1426  320 L
1323 3487 mt 
(-5) s
2202 3342 mt 2202 3303 L
2202  282 mt 2202  320 L
2169 3487 mt 
(0) s
2978 3342 mt 2978 3303 L
2978  282 mt 2978  320 L
2945 3487 mt 
(5) s
3754 3342 mt 3754 3303 L
3754  282 mt 3754  320 L
3688 3487 mt 
(10) s
4530 3342 mt 4530 3303 L
4530  282 mt 4530  320 L
4464 3487 mt 
(15) s
 650 3342 mt  670 3342 L
4530 3342 mt 4510 3342 L
 650 3342 mt  689 3342 L
4530 3342 mt 4491 3342 L
 392 3386 mt 
(10) s
%%IncludeResource: font Helvetica
/Helvetica /WindowsLatin1Encoding 80 FMSR

 525 3312 mt 
(-4) s
 650 3111 mt  670 3111 L
4530 3111 mt 4510 3111 L
 650 2977 mt  670 2977 L
4530 2977 mt 4510 2977 L
 650 2881 mt  670 2881 L
4530 2881 mt 4510 2881 L
 650 2807 mt  670 2807 L
4530 2807 mt 4510 2807 L
 650 2746 mt  670 2746 L
4530 2746 mt 4510 2746 L
 650 2695 mt  670 2695 L
4530 2695 mt 4510 2695 L
 650 2651 mt  670 2651 L
4530 2651 mt 4510 2651 L
 650 2612 mt  670 2612 L
4530 2612 mt 4510 2612 L
 650 2577 mt  670 2577 L
4530 2577 mt 4510 2577 L
 650 2577 mt  689 2577 L
4530 2577 mt 4491 2577 L
%%IncludeResource: font Helvetica
/Helvetica /WindowsLatin1Encoding 120 FMSR

 392 2621 mt 
(10) s
%%IncludeResource: font Helvetica
/Helvetica /WindowsLatin1Encoding 80 FMSR

 525 2547 mt 
(-3) s
 650 2346 mt  670 2346 L
4530 2346 mt 4510 2346 L
 650 2212 mt  670 2212 L
4530 2212 mt 4510 2212 L
 650 2116 mt  670 2116 L
4530 2116 mt 4510 2116 L
 650 2042 mt  670 2042 L
4530 2042 mt 4510 2042 L
 650 1981 mt  670 1981 L
4530 1981 mt 4510 1981 L
 650 1930 mt  670 1930 L
4530 1930 mt 4510 1930 L
 650 1886 mt  670 1886 L
4530 1886 mt 4510 1886 L
 650 1847 mt  670 1847 L
4530 1847 mt 4510 1847 L
 650 1812 mt  670 1812 L
4530 1812 mt 4510 1812 L
 650 1812 mt  689 1812 L
4530 1812 mt 4491 1812 L
%%IncludeResource: font Helvetica
/Helvetica /WindowsLatin1Encoding 120 FMSR

 392 1856 mt 
(10) s
%%IncludeResource: font Helvetica
/Helvetica /WindowsLatin1Encoding 80 FMSR

 525 1782 mt 
(-2) s
 650 1581 mt  670 1581 L
4530 1581 mt 4510 1581 L
 650 1447 mt  670 1447 L
4530 1447 mt 4510 1447 L
 650 1351 mt  670 1351 L
4530 1351 mt 4510 1351 L
 650 1277 mt  670 1277 L
4530 1277 mt 4510 1277 L
 650 1216 mt  670 1216 L
4530 1216 mt 4510 1216 L
 650 1165 mt  670 1165 L
4530 1165 mt 4510 1165 L
 650 1121 mt  670 1121 L
4530 1121 mt 4510 1121 L
 650 1082 mt  670 1082 L
4530 1082 mt 4510 1082 L
 650 1047 mt  670 1047 L
4530 1047 mt 4510 1047 L
 650 1047 mt  689 1047 L
4530 1047 mt 4491 1047 L
%%IncludeResource: font Helvetica
/Helvetica /WindowsLatin1Encoding 120 FMSR

 392 1091 mt 
(10) s
%%IncludeResource: font Helvetica
/Helvetica /WindowsLatin1Encoding 80 FMSR

 525 1017 mt 
(-1) s
 650  816 mt  670  816 L
4530  816 mt 4510  816 L
 650  682 mt  670  682 L
4530  682 mt 4510  682 L
 650  586 mt  670  586 L
4530  586 mt 4510  586 L
 650  512 mt  670  512 L
4530  512 mt 4510  512 L
 650  451 mt  670  451 L
4530  451 mt 4510  451 L
 650  400 mt  670  400 L
4530  400 mt 4510  400 L
 650  356 mt  670  356 L
4530  356 mt 4510  356 L
 650  317 mt  670  317 L
4530  317 mt 4510  317 L
 650  282 mt  670  282 L
4530  282 mt 4510  282 L
 650  282 mt  689  282 L
4530  282 mt 4491  282 L
%%IncludeResource: font Helvetica
/Helvetica /WindowsLatin1Encoding 120 FMSR

 392  326 mt 
(10) s
%%IncludeResource: font Helvetica
/Helvetica /WindowsLatin1Encoding 80 FMSR

 525  252 mt 
(0) s
 650  282 mt 4530  282 L
 650 3342 mt 4530 3342 L
4530 3342 mt 4530  282 L
 650 3342 mt  650  282 L
gs 651 282 3880 3061 rc
/c8 { 0.000000 0.000000 1.000000 sr} bdef
c8
4 9 3 9 3 9 4 9 3 9 4 9 3 9 4 9 
3 9 4 9 3 10 4 9 4 9 3 9 4 9 3 9 
4 9 4 9 3 9 4 9 4 9 4 9 4 9 3 10 
4 9 4 9 4 9 4 9 4 9 4 9 4 9 4 10 
4 9 4 9 4 9 4 9 4 9 4 9 4 10 5 9 
4 9 4 9 4 9 5 10 4 9 4 9 5 9 4 9 
5 10 4 9 5 9 4 9 5 9 4 10 5 9 5 9 
4 9 5 10 5 9 5 9 4 10 5 9 5 9 5 9 
5 10 5 9 5 9 5 10 5 9 6 9 5 10 5 9 
5 9 6 10 5 9 5 10 6 9 5 9 6 10 5 9 
6 10 6 9 6 9 5 10 6 9 6 10 6 9 6 10 
6 9 6 10 6 9 6 10 7 9 6 10 6 9 7 10 
6 9 7 10 7 10 6 9 7 10 7 9 7 10 7 10 
7 9 7 10 7 10 7 9 8 10 7 10 8 9 7 10 
8 10 8 10 8 10 8 9 8 10 8 10 8 10 9 10 
8 9 9 10 8 10 9 10 9 10 9 10 9 10 10 10 
9 10 10 10 9 10 10 10 10 10 10 10 11 10 10 11 
11 10 10 10 11 10 12 10 11 11 11 10 12 10 12 11 
12 10 13 10 12 11 13 10 13 11 13 10 14 11 14 10 
14 11 15 11 14 10 16 11 15 11 16 11 16 11 17 11 
17 11 17 11 18 11 19 11 19 11 19 11 20 12 21 11 
22 12 22 11 22 12 24 12 25 11 25 12 26 12 28 12 
29 12 30 13 31 12 33 13 34 13 37 13 38 13 41 13 
44 13 46 14 50 14 54 14 59 15 64 15 71 15 79 16 
90 17 104 17 123 19 150 19 194 22 273 24 467 31 651 576 200 MP stroke
gr

c8
0 sg
%%IncludeResource: font Helvetica
/Helvetica /WindowsLatin1Encoding 120 FMSR

2308 3630 mt 
(E) s
%%IncludeResource: font Helvetica
/Helvetica /WindowsLatin1Encoding 96 FMSR

2388 3690 mt 
(b) s
%%IncludeResource: font Helvetica
/Helvetica /WindowsLatin1Encoding 120 FMSR

2441 3630 mt 
(/N) s
%%IncludeResource: font Helvetica
/Helvetica /WindowsLatin1Encoding 96 FMSR

2561 3690 mt 
(0) s
%%IncludeResource: font Helvetica
/Helvetica /WindowsLatin1Encoding 120 FMSR

2614 3630 mt 
( \(dB\)) s
 256 1885 mt  -90 rotate
(P) s
90 rotate
%%IncludeResource: font Helvetica
/Helvetica /WindowsLatin1Encoding 96 FMSR

 316 1805 mt  -90 rotate
(B) s
90 rotate

end %%Color Dict

eplot
%%EndObject

epage
end

showpage

%%Trailer
%%EOF
