%!PS-Adobe-3.0 EPSF-3.0
%%Creator: MATLAB, The MathWorks, Inc. Version 8.1.0.604 (R2013a). Operating System: Microsoft Windows 8.
%%Title: ..\..\Images\T2Q3_2.eps
%%CreationDate: 04/23/2015  10:22:00
%%DocumentNeededFonts: Helvetica
%%DocumentProcessColors: Cyan Magenta Yellow Black
%%LanguageLevel: 2
%%Pages: 1
%%BoundingBox:    49   327   545   514
%%EndComments

%%BeginProlog
% MathWorks dictionary
/MathWorks 160 dict begin
% definition operators
/bdef {bind def} bind def
/ldef {load def} bind def
/xdef {exch def} bdef
/xstore {exch store} bdef
% operator abbreviations
/c  /clip ldef
/cc /concat ldef
/cp /closepath ldef
/gr /grestore ldef
/gs /gsave ldef
/mt /moveto ldef
/np /newpath ldef
/cm /currentmatrix ldef
/sm /setmatrix ldef
/rm /rmoveto ldef
/rl /rlineto ldef
/s {show newpath} bdef
/sc {setcmykcolor} bdef
/sr /setrgbcolor ldef
/sg /setgray ldef
/w /setlinewidth ldef
/j /setlinejoin ldef
/cap /setlinecap ldef
/rc {rectclip} bdef
/rf {rectfill} bdef
% page state control
/pgsv () def
/bpage {/pgsv save def} bdef
/epage {pgsv restore} bdef
/bplot /gsave ldef
/eplot {stroke grestore} bdef
% orientation switch
/portraitMode 0 def /landscapeMode 1 def /rotateMode 2 def
% coordinate system mappings
/dpi2point 0 def
% font control
/FontSize 0 def
/FMS {/FontSize xstore findfont [FontSize 0 0 FontSize neg 0 0]
  makefont setfont} bdef
/ISOLatin1Encoding where {pop /WindowsLatin1Encoding 256 array bdef
ISOLatin1Encoding WindowsLatin1Encoding copy pop
/.notdef/.notdef/quotesinglbase/florin/quotedblbase/ellipsis/dagger
/daggerdbl/circumflex/perthousand/Scaron/guilsinglleft/OE/.notdef/.notdef
/.notdef/.notdef/quoteleft/quoteright/quotedblleft/quotedblright/bullet
/endash/emdash/tilde/trademark/scaron/guilsinglright/oe/.notdef/.notdef
/Ydieresis WindowsLatin1Encoding 128 32 getinterval astore pop}
{/WindowsLatin1Encoding StandardEncoding bdef} ifelse
/reencode {exch dup where {pop load} {pop StandardEncoding} ifelse
  exch dup 3 1 roll findfont dup length dict begin
  { 1 index /FID ne {def}{pop pop} ifelse } forall
  /Encoding exch def currentdict end definefont pop} bdef
/isroman {findfont /CharStrings get /Agrave known} bdef
/FMSR {3 1 roll 1 index dup isroman {reencode} {pop pop} ifelse
  exch FMS} bdef
/csm {1 dpi2point div -1 dpi2point div scale neg translate
 dup landscapeMode eq {pop -90 rotate}
  {rotateMode eq {90 rotate} if} ifelse} bdef
% line types: solid, dotted, dashed, dotdash
/SO { [] 0 setdash } bdef
/DO { [.5 dpi2point mul 4 dpi2point mul] 0 setdash } bdef
/DA { [6 dpi2point mul] 0 setdash } bdef
/DD { [.5 dpi2point mul 4 dpi2point mul 6 dpi2point mul 4
  dpi2point mul] 0 setdash } bdef
% macros for lines and objects
/L {lineto stroke} bdef
/MP {3 1 roll moveto 1 sub {rlineto} repeat} bdef
/AP {{rlineto} repeat} bdef
/PDlw -1 def
/W {/PDlw currentlinewidth def setlinewidth} def
/PP {closepath eofill} bdef
/DP {closepath stroke} bdef
/MR {4 -2 roll moveto dup  0 exch rlineto exch 0 rlineto
  neg 0 exch rlineto closepath} bdef
/FR {MR stroke} bdef
/PR {MR fill} bdef
/L1i {{currentfile picstr readhexstring pop} image} bdef
/tMatrix matrix def
/MakeOval {newpath tMatrix currentmatrix pop translate scale
0 0 1 0 360 arc tMatrix setmatrix} bdef
/FO {MakeOval stroke} bdef
/PO {MakeOval fill} bdef
/PD {currentlinewidth 2 div 0 360 arc fill
   PDlw -1 eq not {PDlw w /PDlw -1 def} if} def
/FA {newpath tMatrix currentmatrix pop translate scale
  0 0 1 5 -2 roll arc tMatrix setmatrix stroke} bdef
/PA {newpath tMatrix currentmatrix pop	translate 0 0 moveto scale
  0 0 1 5 -2 roll arc closepath tMatrix setmatrix fill} bdef
/FAn {newpath tMatrix currentmatrix pop translate scale
  0 0 1 5 -2 roll arcn tMatrix setmatrix stroke} bdef
/PAn {newpath tMatrix currentmatrix pop translate 0 0 moveto scale
  0 0 1 5 -2 roll arcn closepath tMatrix setmatrix fill} bdef
/vradius 0 def /hradius 0 def /lry 0 def
/lrx 0 def /uly 0 def /ulx 0 def /rad 0 def
/MRR {/vradius xdef /hradius xdef /lry xdef /lrx xdef /uly xdef
  /ulx xdef newpath tMatrix currentmatrix pop ulx hradius add uly
  vradius add translate hradius vradius scale 0 0 1 180 270 arc 
  tMatrix setmatrix lrx hradius sub uly vradius add translate
  hradius vradius scale 0 0 1 270 360 arc tMatrix setmatrix
  lrx hradius sub lry vradius sub translate hradius vradius scale
  0 0 1 0 90 arc tMatrix setmatrix ulx hradius add lry vradius sub
  translate hradius vradius scale 0 0 1 90 180 arc tMatrix setmatrix
  closepath} bdef
/FRR {MRR stroke } bdef
/PRR {MRR fill } bdef
/MlrRR {/lry xdef /lrx xdef /uly xdef /ulx xdef /rad lry uly sub 2 div def
  newpath tMatrix currentmatrix pop ulx rad add uly rad add translate
  rad rad scale 0 0 1 90 270 arc tMatrix setmatrix lrx rad sub lry rad
  sub translate rad rad scale 0 0 1 270 90 arc tMatrix setmatrix
  closepath} bdef
/FlrRR {MlrRR stroke } bdef
/PlrRR {MlrRR fill } bdef
/MtbRR {/lry xdef /lrx xdef /uly xdef /ulx xdef /rad lrx ulx sub 2 div def
  newpath tMatrix currentmatrix pop ulx rad add uly rad add translate
  rad rad scale 0 0 1 180 360 arc tMatrix setmatrix lrx rad sub lry rad
  sub translate rad rad scale 0 0 1 0 180 arc tMatrix setmatrix
  closepath} bdef
/FtbRR {MtbRR stroke } bdef
/PtbRR {MtbRR fill } bdef
/stri 6 array def /dtri 6 array def
/smat 6 array def /dmat 6 array def
/tmat1 6 array def /tmat2 6 array def /dif 3 array def
/asub {/ind2 exch def /ind1 exch def dup dup
  ind1 get exch ind2 get sub exch } bdef
/tri_to_matrix {
  2 0 asub 3 1 asub 4 0 asub 5 1 asub
  dup 0 get exch 1 get 7 -1 roll astore } bdef
/compute_transform {
  dmat dtri tri_to_matrix tmat1 invertmatrix 
  smat stri tri_to_matrix tmat2 concatmatrix } bdef
/ds {stri astore pop} bdef
/dt {dtri astore pop} bdef
/db {2 copy /cols xdef /rows xdef mul dup 3 mul string
  currentfile 
  3 index 0 eq {/ASCIIHexDecode filter}
  {/ASCII85Decode filter 3 index 2 eq {/RunLengthDecode filter} if }
  ifelse exch readstring pop
  dup 0 3 index getinterval /rbmap xdef
  dup 2 index dup getinterval /gbmap xdef
  1 index dup 2 mul exch getinterval /bbmap xdef pop pop}bdef
/it {gs np dtri aload pop moveto lineto lineto cp c
  cols rows 8 compute_transform 
  rbmap gbmap bbmap true 3 colorimage gr}bdef
/il {newpath moveto lineto stroke}bdef
currentdict end def
%%EndProlog

%%BeginSetup
MathWorks begin

0 cap

end
%%EndSetup

%%Page: 1 1
%%BeginPageSetup
%%PageBoundingBox:    49   327   545   514
MathWorks begin
bpage
%%EndPageSetup

%%BeginObject: obj1
bplot

/dpi2point 12 def
portraitMode 0588 6168 csm

    0     0  5959  2235 rc
85 dict begin %Colortable dictionary
/c0 { 0.000000 0.000000 0.000000 sr} bdef
/c1 { 1.000000 1.000000 1.000000 sr} bdef
/c2 { 0.900000 0.000000 0.000000 sr} bdef
/c3 { 0.000000 0.820000 0.000000 sr} bdef
/c4 { 0.000000 0.000000 0.800000 sr} bdef
/c5 { 0.910000 0.820000 0.320000 sr} bdef
/c6 { 1.000000 0.260000 0.820000 sr} bdef
/c7 { 0.000000 0.820000 0.820000 sr} bdef
c0
1 j
1 sg
   0    0 5960 2236 rf
6 w
0 1685 4618 0 0 -1685 775 1887 4 MP
PP
-4618 0 0 1685 4618 0 0 -1685 775 1887 5 MP stroke
4 w
DO
SO
6 w
0 sg
 775 1887 mt 5393 1887 L
 775 1887 mt  775  202 L
 775 1887 mt  775 1840 L
%%IncludeResource: font Helvetica
/Helvetica /WindowsLatin1Encoding 120 FMSR

 659 2032 mt 
(0.97) s
1544 1887 mt 1544 1840 L
1428 2032 mt 
(0.98) s
2314 1887 mt 2314 1840 L
2198 2032 mt 
(0.99) s
3084 1887 mt 3084 1840 L
3051 2032 mt 
(1) s
3853 1887 mt 3853 1840 L
3737 2032 mt 
(1.01) s
4623 1887 mt 4623 1840 L
4507 2032 mt 
(1.02) s
5393 1887 mt 5393 1840 L
5277 2032 mt 
(1.03) s
5123 2234 mt 
(x 10) s
%%IncludeResource: font Helvetica
/Helvetica /WindowsLatin1Encoding 80 FMSR

5349 2160 mt 
(6) s
 775 1887 mt  821 1887 L
%%IncludeResource: font Helvetica
/Helvetica /WindowsLatin1Encoding 120 FMSR

 674 1931 mt 
(0) s
 775 1606 mt  821 1606 L
 574 1650 mt 
(0.2) s
 775 1325 mt  821 1325 L
 574 1369 mt 
(0.4) s
 775 1044 mt  821 1044 L
 574 1088 mt 
(0.6) s
 775  763 mt  821  763 L
 574  807 mt 
(0.8) s
 775  482 mt  821  482 L
 674  526 mt 
(1) s
 775  202 mt  821  202 L
 574  246 mt 
(1.2) s
 775  148 mt 
(x 10) s
%%IncludeResource: font Helvetica
/Helvetica /WindowsLatin1Encoding 80 FMSR

1001   74 mt 
(-4) s
gs 775 202 4619 1686 rc
1 1 1 0 1 0 1 0 1 0 1 0 1 0 1 0 
1 0 1 0 1 0 1 0 1 0 1 0 1 0 1 0 
1 0 1 0 1 0 1 0 1 0 1 0 1 0 1 0 
1 0 1 0 1 0 1 0 1 0 1 0 1 0 1 0 
1 0 1 0 1 0 1 0 1 0 1 0 1 0 1 0 
1 0 1 0 1 0 1 0 1 0 1 0 1 0 1 0 
1 0 1 0 1 0 1 0 1 0 1 0 1 0 1 0 
1 0 1 0 1 0 1 0 1 0 1 1 1 0 1 0 
1 0 1 0 1 0 1 0 1 0 1 0 1 0 1 0 
1 0 1 0 1 0 1 0 1 0 1 0 1 0 1 0 
1 0 1 0 1 0 1 0 1 0 1 0 1 1 1 0 
1 0 1 0 1 0 1 0 1 0 1 0 1 0 1 0 
1 0 1 0 1 0 1 0 1 0 1 0 1 0 1 0 
1 0 1 0 1 1 1 0 1 0 1 0 1 0 1 0 
1 0 1 0 1 0 1 0 1 0 1 0 1 0 1 0 
1 0 1 0 1 1 1 0 1 0 1 0 1 0 1 0 
1 0 1 0 1 0 1 0 1 0 1 0 1 0 1 0 
1 0 1 1 1 0 1 0 1 0 1 0 1 0 1 0 
1 0 1 0 1 0 1 0 1 0 1 0 1 0 1 1 
1 0 1 0 1 0 1 0 1 0 1 0 1 0 1 0 
1 0 1 0 1 0 1 0 1 1 1 0 1 0 1 0 
1 0 1 0 1 0 1 0 1 0 1 0 1 0 1 0 
1 1 1 0 1 0 1 0 1 0 1 0 1 0 1 0 
1 0 1 0 1 0 1 0 1 1 1 0 1 0 1 0 
1 0 1 0 1 0 1 0 1 0 1 0 1 0 1 0 
1 1 1 0 1 0 1 0 1 0 1 0 1 0 1 0 
1 0 1 0 1 0 1 1 1 0 1 0 1 0 1 0 
1 0 1 0 1 0 1 0 1 0 1 0 1 0 1 1 
1 0 1 0 1 0 1 0 1 0 1 0 1 0 1 0 
1 0 1 0 1 1 1 0 1 0 1 0 1 0 1 0 
1 0 1 0 1 0 1 0 1 0 1 1 1 0 1 0 
1 0 1 0 1 0 1 0 1 0 1 0 1 0 1 0 
1 0 1 1 1 0 1 0 1 0 1 0 1 0 1 0 
1 0 1 0 1 0 1 0 1 0 1 1 1 0 1 0 
1 0 1 0 1 0 1 0 1 0 1 0 1 0 1 0 
1 0 1 1 1 0 1 0 1 0 1 0 1 0 1 0 
1 0 1 0 1 0 1 0 1 0 1 0 1 1 1 0 
1 0 1 0 1 0 5094 1868 300 MP stroke
1 0 1 0 1 0 1 0 1 0 1 0 1 0 1 0 
1 0 1 1 1 0 1 0 1 0 1 0 1 0 1 0 
1 0 1 0 1 0 1 0 1 0 1 0 1 0 1 0 
1 1 1 0 1 0 1 0 1 0 1 0 1 0 1 0 
1 0 1 0 1 0 1 0 1 0 1 0 1 0 1 0 
1 0 1 1 1 0 1 0 1 0 1 0 1 0 1 0 
1 0 1 0 1 0 1 0 1 0 1 0 1 0 1 0 
1 0 1 0 1 0 1 0 1 0 1 0 1 1 1 0 
1 0 1 0 1 0 1 0 1 0 1 0 1 0 1 0 
1 0 1 0 1 0 1 0 1 0 1 0 1 0 1 0 
1 0 1 0 1 0 1 0 1 0 1 0 1 0 1 0 
1 0 1 0 1 0 1 0 1 0 1 0 1 0 1 0 
1 0 1 0 1 0 1 1 1 0 1 0 1 0 1 0 
1 0 1 0 1 0 1 0 1 0 1 0 1 0 1 0 
1 0 1 0 1 0 1 0 1 0 1 0 1 0 1 0 
1 0 1 0 1 0 1 0 1 0 1 0 1 0 1 0 
1 0 1 0 1 0 1 0 1 0 1 0 1 0 1 0 
1 0 1 -1 1 0 1 0 1 0 1 0 1 0 1 0 
1 0 1 0 1 0 1 0 1 0 1 0 1 0 1 0 
1 0 1 0 1 0 1 0 1 0 1 0 1 0 1 0 
1 0 1 0 1 0 1 0 1 0 1 0 1 0 1 0 
1 0 1 0 1 0 1 0 1 -1 1 0 1 0 1 0 
1 0 1 0 1 0 1 0 1 0 1 0 1 0 1 0 
1 0 1 0 1 0 1 0 1 0 1 0 1 0 1 0 
1 0 1 -1 1 0 1 0 1 0 1 0 1 0 1 0 
1 0 1 0 1 0 1 0 1 0 1 0 1 0 1 0 
1 0 1 -1 1 0 1 0 1 0 1 0 1 0 1 0 
1 0 1 0 1 0 1 0 1 0 1 0 1 0 1 -1 
1 0 1 0 1 0 1 0 1 0 1 0 1 0 1 0 
1 0 1 0 1 0 1 -1 1 0 1 0 1 0 1 0 
1 0 1 0 1 0 1 0 1 0 1 0 1 0 1 -1 
1 0 1 0 1 0 1 0 1 0 1 0 1 0 1 0 
1 0 1 0 1 -1 1 0 1 0 1 0 1 0 1 0 
1 0 1 0 1 0 1 0 1 0 1 -1 1 0 1 0 
1 0 1 0 1 0 1 0 1 0 1 0 1 0 1 -1 
1 0 1 0 1 0 1 0 1 0 1 0 1 0 1 0 
1 0 1 -1 1 0 1 0 1 0 1 0 1 0 1 0 
1 0 1 0 1 0 4795 1874 300 MP stroke
1 -1 1 0 1 0 1 0 1 0 1 0 1 0 1 0 
1 0 1 0 1 -1 1 0 1 0 1 0 1 0 1 0 
1 0 1 0 1 0 1 0 1 -1 1 0 1 0 1 0 
1 0 1 0 1 0 1 0 1 0 1 0 1 -1 1 0 
1 0 1 0 1 0 1 0 1 0 1 0 1 0 1 0 
1 -1 1 0 1 0 1 0 1 0 1 0 1 0 1 0 
1 0 1 0 1 -1 1 0 1 0 1 0 1 0 1 0 
1 0 1 0 1 0 1 0 1 -1 1 0 1 0 1 0 
1 0 1 0 1 0 1 0 1 0 1 0 1 0 1 -1 
1 0 1 0 1 0 1 0 1 0 1 0 1 0 1 0 
1 0 1 0 1 0 1 -1 1 0 1 0 1 0 1 0 
1 0 1 0 1 0 1 0 1 0 1 0 1 0 1 0 
1 -1 1 0 1 0 1 0 1 0 1 0 1 0 1 0 
1 0 1 0 1 0 1 0 1 0 1 0 1 0 1 -1 
1 0 1 0 1 0 1 0 1 0 1 0 1 0 1 0 
1 0 1 0 1 0 1 0 1 0 1 0 1 0 1 0 
1 0 1 0 1 -1 1 0 1 0 1 0 1 0 1 0 
1 0 1 0 1 0 1 0 1 0 1 0 1 0 1 0 
1 0 1 0 1 0 1 0 1 0 1 0 1 0 1 0 
1 0 1 0 1 0 1 0 1 0 1 0 1 0 1 0 
1 0 1 0 1 0 1 0 1 0 1 0 1 0 1 0 
1 0 1 0 1 0 1 0 -1 0 2 0 1 0 1 0 
1 0 1 0 1 0 1 0 1 0 1 0 1 0 1 0 
1 0 1 0 1 0 1 0 1 0 1 0 1 0 1 0 
1 0 1 0 1 0 1 0 1 0 1 0 1 0 1 0 
1 0 1 0 1 0 1 0 1 0 1 0 1 0 1 0 
1 0 1 0 1 0 1 0 1 0 1 1 1 0 1 0 
1 0 1 0 1 0 1 0 1 0 1 0 1 0 1 0 
1 0 1 0 1 0 1 0 1 0 1 0 1 1 1 0 
1 0 1 0 1 0 1 0 1 0 1 0 1 0 1 0 
1 0 1 0 1 1 1 0 1 0 1 0 1 0 1 0 
1 0 1 0 1 0 1 0 1 1 1 0 1 0 1 0 
1 0 1 0 1 0 1 0 1 0 1 0 1 1 1 0 
1 0 1 0 1 0 1 0 1 0 1 0 1 1 1 0 
1 0 1 0 1 0 1 0 1 0 1 0 1 1 1 0 
1 0 1 0 1 0 1 0 1 0 1 1 1 0 1 0 
1 0 1 0 1 0 1 1 1 0 1 0 1 0 1 0 
1 0 1 0 1 1 4497 1876 300 MP stroke
1 0 1 0 1 0 1 0 1 0 1 1 1 0 1 0 
1 0 1 0 1 0 1 1 1 0 1 0 1 0 1 0 
1 1 1 0 1 0 1 0 1 0 1 0 1 1 1 0 
1 0 1 0 1 0 1 1 1 0 1 0 1 0 1 0 
1 1 1 0 1 0 1 0 1 0 1 1 1 0 1 0 
1 0 1 0 1 1 1 0 1 0 1 0 1 0 1 1 
1 0 1 0 1 0 1 0 1 1 1 0 1 0 1 0 
1 1 1 0 1 0 1 0 1 0 1 1 1 0 1 0 
1 0 1 0 1 1 1 0 1 0 1 0 1 1 1 0 
1 0 1 0 1 1 1 0 1 0 1 0 1 0 1 1 
1 0 1 0 1 0 1 1 1 0 1 0 1 0 1 1 
1 0 1 0 1 0 1 0 1 1 1 0 1 0 1 0 
1 1 1 0 1 0 1 0 1 1 1 0 1 0 1 0 
1 1 1 0 1 0 1 0 1 1 1 0 1 0 1 0 
1 1 1 0 1 0 1 0 1 0 1 1 1 0 1 0 
1 0 1 1 1 0 1 0 1 0 1 1 1 0 1 0 
1 0 1 1 1 0 1 0 1 0 1 1 1 0 1 0 
1 0 1 1 1 0 1 0 1 0 1 1 1 0 1 0 
1 0 1 0 1 1 1 0 1 0 1 0 1 1 1 0 
1 0 1 0 1 1 1 0 1 0 1 0 1 1 1 0 
1 0 1 0 1 0 1 1 1 0 1 0 1 0 1 1 
1 0 1 0 1 0 1 0 1 1 1 0 1 0 1 0 
1 1 1 0 1 0 1 0 1 0 1 1 1 0 1 0 
1 0 1 1 1 0 1 0 1 0 1 0 1 1 1 0 
1 0 1 0 1 0 1 1 1 0 1 0 1 0 1 0 
1 1 1 0 1 0 1 0 1 0 1 1 1 0 1 0 
1 0 1 0 1 0 1 1 1 0 1 0 1 0 1 0 
1 1 1 0 1 0 1 0 1 0 1 0 1 1 1 0 
1 0 1 0 1 0 1 0 1 1 1 0 1 0 1 0 
1 0 1 0 1 1 1 0 1 0 1 0 1 0 1 0 
1 0 1 1 1 0 1 0 1 0 1 0 1 0 1 0 
1 0 1 1 1 0 1 0 1 0 1 0 1 0 1 0 
1 0 1 1 1 0 1 0 1 0 1 0 1 0 1 0 
1 0 1 0 1 1 1 0 1 0 1 0 1 0 1 0 
1 0 1 0 1 0 1 0 1 0 1 0 1 1 1 0 
1 0 1 0 1 0 1 0 1 0 1 0 1 0 1 0 
1 0 1 0 1 0 1 0 1 0 1 0 1 0 1 0 
1 0 1 1 1 0 4198 1820 300 MP stroke
1 0 1 0 1 0 1 0 1 0 1 0 1 0 1 0 
1 0 1 0 1 0 1 0 1 0 1 0 1 0 1 0 
1 0 1 0 1 0 1 0 1 0 1 0 1 0 1 0 
1 0 1 0 1 0 1 0 1 0 1 -1 1 0 1 0 
1 0 1 0 1 0 1 0 1 0 1 0 1 0 1 0 
1 0 1 0 1 0 1 0 1 0 1 0 1 0 1 -1 
1 0 1 0 1 0 1 0 1 0 1 0 1 0 1 0 
1 0 1 0 1 0 1 -1 1 0 1 0 1 0 1 0 
1 0 1 0 1 0 1 0 1 -1 1 0 1 0 1 0 
1 0 1 0 1 0 1 -1 1 0 1 0 1 0 1 0 
1 0 1 0 1 -1 1 0 1 0 1 0 1 0 1 0 
1 -1 1 0 1 0 1 0 1 0 1 0 1 -1 1 0 
1 0 1 0 1 0 1 0 1 -1 1 0 1 0 1 0 
1 0 1 -1 1 0 1 0 1 0 1 0 1 -1 1 0 
1 0 1 0 1 -1 1 0 1 0 1 0 1 0 1 -1 
1 0 1 0 1 0 1 -1 1 0 1 0 1 0 1 -1 
1 0 1 0 1 0 1 0 1 -1 1 0 1 0 1 0 
1 -1 1 0 1 0 1 -1 1 0 1 0 1 0 1 -1 
1 0 1 0 1 0 1 -1 1 0 1 0 1 0 1 -1 
1 0 1 0 1 -1 1 0 1 0 1 0 1 -1 1 0 
1 0 1 -1 1 0 1 0 1 0 1 -1 1 0 1 0 
1 -1 1 0 1 0 1 0 1 -1 1 0 1 0 1 -1 
1 0 1 0 1 -1 1 0 1 0 1 0 1 -1 1 0 
1 0 1 -1 1 0 1 0 1 -1 1 0 1 0 1 -1 
1 0 1 0 1 0 1 -1 1 0 1 0 1 -1 1 0 
1 0 1 -1 1 0 1 0 1 -1 1 0 1 0 1 -1 
1 0 1 0 1 0 1 -1 1 0 1 0 1 -1 1 0 
1 0 1 -1 1 0 1 0 1 -1 1 0 1 0 1 -1 
1 0 1 0 1 0 1 -1 1 0 1 0 1 -1 1 0 
1 0 1 -1 1 0 1 0 1 0 1 -1 1 0 1 0 
1 -1 1 0 1 0 1 -1 1 0 1 0 1 0 1 -1 
1 0 1 0 1 -1 1 0 1 0 1 0 1 -1 1 0 
1 0 1 -1 1 0 1 0 1 0 1 -1 1 0 1 0 
1 0 1 -1 1 0 1 0 1 0 1 -1 1 0 1 0 
1 0 1 -1 1 0 1 0 1 0 1 -1 1 0 1 0 
1 0 1 -1 1 0 1 0 1 0 1 0 1 -1 1 0 
1 0 1 0 1 -1 1 0 1 0 1 0 1 0 1 0 
1 -1 1 0 1 0 3899 1882 300 MP stroke
1 0 1 0 1 -1 1 0 1 0 1 0 1 0 1 0 
1 -1 1 0 1 0 1 0 1 0 1 0 1 0 1 0 
1 -1 1 0 1 0 1 0 1 0 1 0 1 0 1 0 
1 0 1 -1 1 0 1 0 1 0 1 0 1 0 1 0 
1 0 1 0 1 0 1 0 1 0 1 0 1 0 1 0 
1 0 1 0 1 0 1 0 1 0 1 0 -1 0 2 0 
1 0 1 0 1 0 1 0 1 0 1 0 1 0 1 0 
1 0 1 0 1 0 1 0 1 0 1 0 1 0 1 0 
1 0 1 0 1 0 1 1 1 0 1 0 1 0 1 0 
1 0 1 0 1 0 1 1 1 0 1 0 1 0 1 0 
1 0 1 1 1 0 1 0 1 0 1 0 1 1 1 0 
1 0 1 0 1 1 1 0 1 0 1 0 1 1 1 0 
1 0 1 0 1 1 1 0 1 0 1 1 1 0 1 0 
1 1 1 0 1 0 1 1 1 0 1 0 1 1 1 0 
1 0 1 1 1 0 1 1 1 0 1 0 1 1 1 0 
1 1 1 0 1 1 1 0 1 1 1 0 1 1 1 0 
1 1 1 0 1 1 1 0 1 1 1 0 1 1 1 0 
1 1 1 0 1 1 1 1 1 0 1 1 1 0 1 1 
1 1 1 0 1 1 1 1 1 0 1 1 1 1 1 0 
1 1 1 1 1 0 1 1 1 1 1 0 1 1 1 1 
1 1 1 0 1 1 1 1 1 1 1 1 1 0 1 1 
1 1 1 1 1 1 1 1 1 0 1 1 1 1 1 1 
1 1 1 1 1 1 1 1 1 1 1 1 1 1 1 0 
1 1 1 1 1 1 1 1 1 1 1 1 1 1 1 1 
1 1 0 1 2 2 1 1 1 1 1 1 1 1 1 1 
1 1 1 1 1 1 0 1 2 2 1 1 1 1 1 1 
1 1 0 1 2 2 1 1 1 1 1 1 0 1 2 2 
1 1 0 1 2 2 1 1 1 1 0 1 2 2 1 1 
0 1 2 2 1 1 0 1 2 2 0 1 2 2 1 1 
0 1 2 2 0 1 2 2 1 1 0 1 2 2 0 1 
2 2 0 1 2 2 0 1 2 2 1 1 0 2 2 2 
0 1 2 2 0 1 2 2 1 1 0 2 2 2 0 1 
2 2 1 1 0 2 2 2 0 1 2 2 0 2 2 2 
1 1 0 2 2 2 0 1 2 2 0 2 2 2 0 1 
2 2 0 2 2 2 1 1 0 2 2 2 0 2 2 2 
0 2 2 2 1 1 0 2 2 2 0 2 2 2 0 2 
2 2 0 2 2 2 0 2 2 2 0 1 1 1 0 1 
1 1 0 1 1 1 3604 1662 300 MP stroke
0 1 1 1 0 1 1 1 0 1 1 1 0 1 1 1 
0 2 2 2 0 2 2 2 0 2 2 2 0 2 2 2 
0 2 2 2 0 2 1 1 0 1 1 1 0 2 2 2 
0 2 2 2 0 2 1 1 0 2 2 2 0 2 2 2 
0 2 1 1 0 1 1 1 0 2 2 2 0 2 1 1 
0 1 1 1 0 2 2 2 0 2 1 1 0 2 2 2 
0 2 1 1 0 2 2 2 0 2 1 1 0 2 2 2 
0 2 1 1 0 2 2 2 0 3 2 2 0 2 1 1 
0 2 2 2 0 3 2 2 0 3 2 2 0 2 1 1 
0 1 1 1 0 2 1 1 0 1 1 1 0 2 1 1 
0 1 1 1 0 2 1 1 0 1 1 1 0 2 1 1 
0 1 1 1 0 2 1 1 0 1 1 1 0 3 2 2 
0 3 2 2 0 2 1 1 0 2 1 1 0 1 1 1 
0 3 2 2 0 2 1 1 0 3 2 2 0 2 1 1 
0 2 1 1 0 1 1 1 0 2 1 1 0 2 1 1 
0 1 1 1 0 2 1 1 0 2 1 1 0 1 1 1 
0 2 1 1 0 3 2 2 0 2 1 1 0 2 1 1 
0 2 1 1 0 1 1 1 0 2 1 1 0 2 1 1 
0 2 1 1 0 1 1 1 0 2 1 1 0 2 1 1 
0 2 1 1 0 1 1 1 0 2 1 1 0 2 1 1 
0 2 1 1 0 2 1 1 0 1 1 1 0 2 1 1 
0 2 1 1 0 2 1 1 0 2 1 1 0 2 1 1 
0 2 1 1 0 1 1 1 0 2 1 1 0 2 1 1 
0 2 1 1 0 2 1 1 0 1 1 1 0 2 1 1 
0 2 1 1 0 2 1 1 0 2 1 1 0 2 1 1 
0 2 1 1 0 2 1 1 0 2 1 1 0 2 1 1 
0 2 1 1 0 1 1 1 0 2 1 1 0 2 1 1 
0 2 1 1 0 2 1 1 0 2 1 1 0 2 1 1 
0 2 1 1 0 2 1 1 0 2 1 1 0 2 1 1 
0 2 1 1 0 2 1 1 0 2 1 1 0 2 1 1 
0 2 1 1 0 2 1 1 0 2 1 1 0 2 1 1 
0 2 1 1 0 2 1 1 0 2 1 1 0 2 1 1 
0 2 1 1 0 2 1 1 0 2 1 1 0 2 1 1 
0 2 1 1 0 2 1 1 0 2 1 1 0 2 1 1 
0 2 1 1 0 2 1 1 0 2 1 1 0 2 1 1 
0 2 1 1 0 2 1 1 0 3 1 1 0 2 1 1 
0 2 1 1 0 2 1 1 0 2 1 1 0 2 1 1 
0 2 1 1 0 2 3431 1204 300 MP stroke
1 1 0 2 1 1 0 2 1 1 0 2 1 1 0 2 
1 1 0 2 1 1 0 2 1 1 0 3 1 1 0 2 
1 1 0 2 1 1 0 2 1 1 0 2 1 1 0 2 
1 1 0 2 1 1 0 2 1 1 0 2 1 1 0 2 
1 1 0 2 1 1 0 3 1 1 0 2 1 1 0 2 
1 1 0 2 1 1 0 2 1 1 0 2 1 1 0 2 
1 1 0 2 1 1 0 2 1 1 0 2 1 1 0 2 
1 1 0 3 1 1 0 2 1 1 0 2 1 1 0 2 
1 1 0 2 1 1 0 2 1 1 0 2 1 1 0 2 
1 1 0 2 1 1 0 2 1 1 0 3 1 1 0 2 
1 1 0 2 1 1 0 2 1 1 0 2 1 1 0 2 
1 1 0 2 1 1 0 2 1 1 0 2 1 1 0 2 
1 1 0 2 1 1 0 3 1 1 0 2 1 1 0 2 
1 1 0 2 1 1 0 2 1 1 0 2 1 1 0 2 
1 1 0 2 1 1 0 2 1 1 0 2 1 1 0 2 
1 1 0 2 1 1 0 2 1 1 0 2 1 1 0 2 
1 1 0 3 1 1 0 2 1 1 0 2 1 1 0 2 
1 1 0 2 1 1 0 2 1 1 0 2 1 1 0 2 
1 1 0 2 1 1 0 2 1 1 0 2 1 1 0 2 
1 1 0 2 1 1 0 2 1 1 0 2 1 1 0 2 
1 1 0 2 1 1 0 2 1 1 0 2 1 1 0 2 
1 1 0 2 1 1 0 2 1 1 0 2 1 1 0 2 
1 1 0 2 1 1 0 2 1 1 0 2 1 1 0 1 
1 1 0 2 1 1 0 2 1 1 0 2 1 1 0 2 
1 1 0 2 1 1 0 2 1 1 0 2 1 1 0 2 
1 1 0 2 1 1 0 2 1 1 0 2 1 1 0 2 
1 1 0 1 1 1 0 2 1 1 0 2 1 1 0 2 
1 1 0 2 1 1 0 2 1 1 0 2 1 1 0 2 
1 1 0 1 1 1 0 2 1 1 0 2 1 1 0 2 
1 1 0 2 1 1 0 2 1 1 0 1 1 1 0 2 
1 1 0 2 1 1 0 2 1 1 0 2 1 1 0 1 
1 1 0 2 1 1 0 2 1 1 0 2 1 1 0 1 
1 1 0 2 1 1 0 2 1 1 0 2 1 1 0 1 
1 1 0 2 1 1 0 3 2 2 0 2 1 1 0 2 
1 1 0 2 1 1 0 1 1 1 0 2 1 1 0 2 
1 1 0 1 1 1 0 3 2 2 0 2 1 1 0 2 
1 1 0 1 1 1 0 3 2 2 0 2 1 1 0 2 
1 1 0 1 1 1 3278 755 300 MP stroke
0 3 2 2 0 3 2 2 0 3 2 2 0 3 2 2 
0 3 2 2 0 3 2 2 0 3 2 2 0 2 1 1 
0 2 2 2 0 3 2 2 0 2 1 1 0 2 2 2 
0 2 1 1 0 2 2 2 0 2 1 1 0 2 2 2 
0 2 1 1 0 1 1 1 0 2 2 2 0 3 2 2 
0 2 2 2 0 2 1 1 0 1 1 1 0 2 2 2 
0 2 2 2 0 2 1 1 0 1 1 1 0 2 2 2 
0 2 2 2 0 2 2 2 0 2 2 2 0 2 2 2 
0 2 2 2 0 2 2 2 0 2 2 2 0 2 2 2 
0 2 2 2 0 2 2 2 0 1 2 2 0 2 2 2 
0 2 2 2 0 1 2 2 0 2 2 2 0 1 2 2 
0 2 2 2 1 1 0 2 2 2 0 1 2 2 1 1 
0 2 2 2 0 1 2 2 0 1 2 2 0 1 2 2 
0 1 2 2 0 1 2 2 0 1 2 2 0 1 2 2 
1 1 0 1 2 2 1 1 0 1 2 2 1 1 0 1 
2 2 1 1 1 1 0 1 2 2 1 1 1 1 1 1 
1 1 0 1 2 2 1 1 1 1 1 1 1 1 1 1 
1 1 1 1 1 1 1 1 1 1 1 1 1 1 1 1 
1 1 1 1 1 1 1 1 1 0 1 1 1 1 1 1 
1 1 1 1 1 0 1 1 1 1 1 1 1 0 1 1 
1 1 1 0 1 1 1 1 1 0 1 1 1 0 1 1 
1 1 1 0 1 1 1 0 1 1 1 0 1 1 1 0 
1 1 1 0 1 0 1 1 1 0 1 1 1 0 1 0 
1 1 1 0 1 0 1 0 1 1 1 0 1 0 1 0 
1 1 1 0 1 0 1 0 1 0 1 0 1 0 1 0 
1 1 1 0 1 0 1 0 1 0 1 0 1 0 1 0 
1 0 1 -1 1 0 1 0 1 0 1 0 1 0 1 0 
1 0 1 -1 1 0 1 0 1 0 1 -1 1 0 1 0 
1 0 1 -1 1 0 1 0 1 -1 1 0 1 -1 1 0 
1 0 1 -1 1 0 1 -1 1 0 1 -1 1 0 1 -1 
1 0 1 -1 1 -1 1 0 1 -1 1 0 1 -1 1 -1 
1 0 1 -1 1 -1 1 0 1 -1 1 -1 1 -1 1 -1 
1 0 1 -1 1 -1 1 -1 1 -1 1 -1 1 0 1 -1 
1 -1 1 -1 1 -1 1 -1 1 -1 1 -1 1 -1 1 -1 
1 -1 1 -1 1 -1 1 -1 1 -1 0 -1 2 -2 1 -1 
1 -1 1 -1 1 -1 0 -1 2 -2 1 -1 1 -1 0 -1 
2 -2 1 -1 1 -1 0 -1 2 -2 1 -1 0 -1 2 -2 
0 -1 2 -2 1 -1 2989 550 300 MP stroke
0 -1 2 -2 0 -1 2 -2 0 -1 2 -2 0 -1 2 -2 
0 -1 2 -2 0 -1 2 -2 1 -1 0 -2 2 -2 1 -1 
0 -2 2 -2 1 -1 0 -2 2 -2 1 -1 0 -2 2 -2 
1 -1 0 -2 2 -2 0 -2 2 -2 0 -1 2 -2 0 -2 
2 -2 0 -2 2 -2 0 -1 2 -2 0 -2 2 -2 0 -2 
2 -2 0 -2 2 -2 0 -2 2 -2 0 -2 2 -2 0 -2 
2 -2 0 -2 2 -2 0 -2 2 -2 0 -2 2 -2 0 -2 
2 -2 0 -2 1 -1 0 -1 1 -1 0 -2 2 -2 0 -2 
2 -2 0 -2 1 -1 0 -2 2 -2 0 -2 2 -2 0 -2 
1 -1 0 -2 2 -2 0 -2 1 -1 0 -1 1 -1 0 -2 
2 -2 0 -2 1 -1 0 -2 2 -2 0 -3 2 -2 0 -2 
1 -1 0 -2 2 -2 0 -3 2 -2 0 -2 1 -1 0 -2 
2 -2 0 -3 2 -2 0 -3 2 -2 0 -3 2 -2 0 -3 
2 -2 0 -3 2 -2 0 -3 2 -2 0 -2 1 -1 0 -2 
1 -1 0 -1 1 -1 0 -3 2 -2 0 -2 1 -1 0 -2 
1 -1 0 -1 1 -1 0 -3 2 -2 0 -2 1 -1 0 -2 
1 -1 0 -1 1 -1 0 -2 1 -1 0 -2 1 -1 0 -1 
1 -1 0 -2 1 -1 0 -3 2 -2 0 -2 1 -1 0 -2 
1 -1 0 -2 1 -1 0 -1 1 -1 0 -2 1 -1 0 -2 
1 -1 0 -2 1 -1 0 -1 1 -1 0 -2 1 -1 0 -2 
1 -1 0 -2 1 -1 0 -1 1 -1 0 -2 1 -1 0 -2 
1 -1 0 -2 1 -1 0 -2 1 -1 0 -1 1 -1 0 -2 
1 -1 0 -2 1 -1 0 -2 1 -1 0 -2 1 -1 0 -2 
1 -1 0 -2 1 -1 0 -1 1 -1 0 -2 1 -1 0 -2 
1 -1 0 -2 1 -1 0 -2 1 -1 0 -2 1 -1 0 -2 
1 -1 0 -2 1 -1 0 -1 1 -1 0 -2 1 -1 0 -2 
1 -1 0 -2 1 -1 0 -2 1 -1 0 -2 1 -1 0 -2 
1 -1 0 -2 1 -1 0 -2 1 -1 0 -2 1 -1 0 -2 
1 -1 0 -2 1 -1 0 -2 1 -1 0 -2 1 -1 0 -2 
1 -1 0 -2 1 -1 0 -2 1 -1 0 -2 1 -1 0 -2 
1 -1 0 -2 1 -1 0 -2 1 -1 0 -2 1 -1 0 -2 
1 -1 0 -2 1 -1 0 -2 1 -1 0 -2 1 -1 0 -2 
1 -1 0 -1 1 -1 0 -2 1 -1 0 -2 1 -1 0 -2 
1 -1 0 -2 1 -1 0 -3 1 -1 0 -2 1 -1 0 -2 
1 -1 0 -2 1 -1 0 -2 1 -1 0 -2 1 -1 0 -2 
1 -1 0 -2 1 -1 0 -2 1 -1 0 -2 1 -1 0 -2 
1 -1 0 -2 1 -1 0 -2 1 -1 0 -2 1 -1 0 -2 
1 -1 0 -2 1 -1 2791 1033 300 MP stroke
0 -2 1 -1 0 -2 1 -1 0 -3 1 -1 0 -2 1 -1 
0 -2 1 -1 0 -2 1 -1 0 -2 1 -1 0 -2 1 -1 
0 -2 1 -1 0 -2 1 -1 0 -2 1 -1 0 -2 1 -1 
0 -2 1 -1 0 -3 1 -1 0 -2 1 -1 0 -2 1 -1 
0 -2 1 -1 0 -2 1 -1 0 -2 1 -1 0 -2 1 -1 
0 -2 1 -1 0 -2 1 -1 0 -2 1 -1 0 -2 1 -1 
0 -3 1 -1 0 -2 1 -1 0 -2 1 -1 0 -2 1 -1 
0 -2 1 -1 0 -2 1 -1 0 -2 1 -1 0 -2 1 -1 
0 -2 1 -1 0 -2 1 -1 0 -3 1 -1 0 -2 1 -1 
0 -2 1 -1 0 -2 1 -1 0 -2 1 -1 0 -2 1 -1 
0 -2 1 -1 0 -2 1 -1 0 -2 1 -1 0 -2 1 -1 
0 -2 1 -1 0 -3 1 -1 0 -2 1 -1 0 -2 1 -1 
0 -2 1 -1 0 -2 1 -1 0 -2 1 -1 0 -2 1 -1 
0 -2 1 -1 0 -2 1 -1 0 -2 1 -1 0 -2 1 -1 
0 -2 1 -1 0 -2 1 -1 0 -3 1 -1 0 -2 1 -1 
0 -2 1 -1 0 -2 1 -1 0 -2 1 -1 0 -2 1 -1 
0 -2 1 -1 0 -2 1 -1 0 -2 1 -1 0 -2 1 -1 
0 -2 1 -1 0 -2 1 -1 0 -2 1 -1 0 -2 1 -1 
0 -2 1 -1 0 -2 1 -1 0 -2 1 -1 0 -2 1 -1 
0 -2 1 -1 0 -2 1 -1 0 -2 1 -1 0 -2 1 -1 
0 -2 1 -1 0 -2 1 -1 0 -2 1 -1 0 -2 1 -1 
0 -2 1 -1 0 -2 1 -1 0 -2 1 -1 0 -2 1 -1 
0 -2 1 -1 0 -2 1 -1 0 -2 1 -1 0 -2 1 -1 
0 -2 1 -1 0 -2 1 -1 0 -2 1 -1 0 -2 1 -1 
0 -2 1 -1 0 -2 1 -1 0 -2 1 -1 0 -2 1 -1 
0 -2 1 -1 0 -2 1 -1 0 -1 1 -1 0 -2 1 -1 
0 -2 1 -1 0 -2 1 -1 0 -2 1 -1 0 -2 1 -1 
0 -2 1 -1 0 -2 1 -1 0 -2 1 -1 0 -1 1 -1 
0 -2 1 -1 0 -2 1 -1 0 -2 1 -1 0 -2 1 -1 
0 -2 1 -1 0 -1 1 -1 0 -2 1 -1 0 -2 1 -1 
0 -2 1 -1 0 -2 1 -1 0 -2 1 -1 0 -1 1 -1 
0 -2 1 -1 0 -2 1 -1 0 -2 1 -1 0 -2 1 -1 
0 -1 1 -1 0 -2 1 -1 0 -2 1 -1 0 -2 1 -1 
0 -1 1 -1 0 -2 1 -1 0 -2 1 -1 0 -2 1 -1 
0 -1 1 -1 0 -2 1 -1 0 -3 2 -2 0 -2 1 -1 
0 -2 1 -1 0 -2 1 -1 0 -1 1 -1 0 -2 1 -1 
0 -2 1 -1 0 -1 1 -1 0 -2 1 -1 0 -2 1 -1 
0 -1 1 -1 0 -3 2641 1481 300 MP stroke
2 -2 0 -2 1 -1 0 -3 2 -2 0 -2 1 -1 0 -2 
1 -1 0 -1 1 -1 0 -3 2 -2 0 -3 2 -2 0 -2 
1 -1 0 -2 1 -1 0 -1 1 -1 0 -2 1 -1 0 -1 
1 -1 0 -2 1 -1 0 -1 1 -1 0 -2 1 -1 0 -1 
1 -1 0 -2 1 -1 0 -1 1 -1 0 -2 1 -1 0 -2 
2 -2 0 -3 2 -2 0 -3 2 -2 0 -2 1 -1 0 -2 
2 -2 0 -3 2 -2 0 -2 1 -1 0 -2 2 -2 0 -2 
1 -1 0 -2 2 -2 0 -2 1 -1 0 -2 2 -2 0 -2 
1 -1 0 -1 1 -1 0 -2 2 -2 0 -2 1 -1 0 -1 
1 -1 0 -2 2 -2 0 -2 1 -1 0 -2 2 -2 0 -2 
2 -2 0 -2 1 -1 0 -1 1 -1 0 -2 2 -2 0 -2 
2 -2 0 -2 1 -1 0 -2 2 -2 0 -2 2 -2 0 -2 
2 -2 0 -2 2 -2 0 -2 2 -2 0 -2 1 -1 0 -1 
1 -1 0 -1 1 -1 0 -1 1 -1 0 -1 1 -1 0 -1 
1 -1 0 -1 1 -1 0 -1 1 -1 1 -1 0 -2 2 -2 
0 -2 2 -2 0 -2 2 -2 0 -2 2 -2 0 -2 2 -2 
0 -1 2 -2 0 -2 2 -2 0 -2 2 -2 0 -1 2 -2 
0 -2 2 -2 0 -1 2 -2 0 -2 2 -2 0 -1 2 -2 
0 -2 2 -2 1 -1 0 -2 2 -2 1 -1 0 -2 2 -2 
1 -1 0 -2 2 -2 0 -1 2 -2 0 -1 2 -2 1 -1 
0 -2 2 -2 0 -1 2 -2 0 -1 2 -2 0 -1 2 -2 
0 -1 2 -2 0 -1 2 -2 0 -1 2 -2 1 -1 0 -1 
2 -2 0 -1 2 -2 1 -1 0 -1 2 -2 1 -1 0 -1 
2 -2 1 -1 0 -1 2 -2 1 -1 0 -1 2 -2 1 -1 
1 -1 0 -1 2 -2 1 -1 1 -1 1 -1 0 -1 2 -2 
1 -1 1 -1 1 -1 0 -1 2 -2 1 -1 1 -1 1 -1 
1 -1 1 -1 1 -1 1 -1 1 -1 0 -1 2 -2 1 -1 
1 -1 1 -1 1 -1 1 -1 1 -1 1 -1 1 -1 1 -1 
1 -1 1 -1 1 -1 1 -1 1 0 1 -1 1 -1 1 -1 
1 -1 1 -1 1 -1 1 -1 1 -1 1 0 1 -1 1 -1 
1 -1 1 -1 1 -1 1 0 1 -1 1 -1 1 -1 1 -1 
1 0 1 -1 1 -1 1 -1 1 0 1 -1 1 -1 1 0 
1 -1 1 -1 1 -1 1 0 1 -1 1 -1 1 0 1 -1 
1 0 1 -1 1 -1 1 0 1 -1 1 0 1 -1 1 -1 
1 0 1 -1 1 0 1 -1 1 0 1 -1 1 0 1 -1 
1 0 1 -1 1 0 1 -1 1 0 1 -1 1 0 1 -1 
1 0 1 -1 1 0 1 -1 1 0 1 0 1 -1 1 0 
1 -1 1 0 1 0 2377 1875 300 MP stroke
1 -1 1 0 1 0 1 -1 1 0 1 0 1 -1 1 0 
1 0 1 -1 1 0 1 0 1 -1 1 0 1 0 1 0 
1 -1 1 0 1 0 1 0 1 -1 1 0 1 0 1 0 
1 -1 1 0 1 0 1 0 1 0 1 -1 1 0 1 0 
1 0 1 0 1 0 1 -1 1 0 1 0 1 0 1 0 
1 0 1 0 1 0 1 -1 1 0 1 0 1 0 1 0 
1 0 1 0 1 0 1 0 1 0 1 0 1 0 1 0 
1 0 1 0 1 0 1 0 1 0 1 0 1 0 -1 0 
2 0 1 0 1 0 1 0 1 0 1 0 1 0 1 0 
1 0 1 0 1 0 1 0 1 0 1 0 1 0 1 0 
1 0 1 0 1 0 1 0 1 0 1 1 1 0 1 0 
1 0 1 0 1 0 1 0 1 0 1 0 1 1 1 0 
1 0 1 0 1 0 1 0 1 0 1 0 1 1 1 0 
1 0 1 0 1 0 1 0 1 1 1 0 1 0 1 0 
1 0 1 1 1 0 1 0 1 0 1 0 1 1 1 0 
1 0 1 0 1 0 1 1 1 0 1 0 1 0 1 0 
1 1 1 0 1 0 1 0 1 1 1 0 1 0 1 0 
1 1 1 0 1 0 1 0 1 1 1 0 1 0 1 0 
1 1 1 0 1 0 1 0 1 1 1 0 1 0 1 0 
1 1 1 0 1 0 1 1 1 0 1 0 1 0 1 1 
1 0 1 0 1 1 1 0 1 0 1 0 1 1 1 0 
1 0 1 1 1 0 1 0 1 1 1 0 1 0 1 0 
1 1 1 0 1 0 1 1 1 0 1 0 1 1 1 0 
1 0 1 0 1 1 1 0 1 0 1 1 1 0 1 0 
1 1 1 0 1 0 1 1 1 0 1 0 1 1 1 0 
1 0 1 0 1 1 1 0 1 0 1 1 1 0 1 0 
1 1 1 0 1 0 1 1 1 0 1 0 1 1 1 0 
1 0 1 0 1 1 1 0 1 0 1 1 1 0 1 0 
1 1 1 0 1 0 1 1 1 0 1 0 1 0 1 1 
1 0 1 0 1 1 1 0 1 0 1 1 1 0 1 0 
1 0 1 1 1 0 1 0 1 1 1 0 1 0 1 0 
1 1 1 0 1 0 1 1 1 0 1 0 1 0 1 1 
1 0 1 0 1 1 1 0 1 0 1 0 1 1 1 0 
1 0 1 0 1 1 1 0 1 0 1 0 1 1 1 0 
1 0 1 1 1 0 1 0 1 0 1 1 1 0 1 0 
1 0 1 1 1 0 1 0 1 0 1 0 1 1 1 0 
1 0 1 0 1 1 1 0 1 0 1 0 1 0 1 1 
1 0 1 0 1 0 2079 1831 300 MP stroke
1 1 1 0 1 0 1 0 1 0 1 1 1 0 1 0 
1 0 1 0 1 1 1 0 1 0 1 0 1 0 1 0 
1 1 1 0 1 0 1 0 1 0 1 0 1 1 1 0 
1 0 1 0 1 0 1 0 1 1 1 0 1 0 1 0 
1 0 1 0 1 0 1 1 1 0 1 0 1 0 1 0 
1 0 1 0 1 1 1 0 1 0 1 0 1 0 1 0 
1 0 1 0 1 0 1 1 1 0 1 0 1 0 1 0 
1 0 1 0 1 0 1 0 1 0 1 0 1 0 1 1 
1 0 1 0 1 0 1 0 1 0 1 0 1 0 1 0 
1 0 1 0 1 0 1 0 1 0 1 0 1 0 1 0 
1 0 1 1 1 0 1 0 1 0 1 0 1 0 1 0 
1 0 1 0 1 0 1 0 1 0 1 0 1 0 1 0 
1 0 1 0 1 0 1 0 1 0 1 0 1 0 1 0 
1 0 1 0 1 0 1 0 1 0 1 0 1 0 1 0 
1 -1 1 0 1 0 1 0 1 0 1 0 1 0 1 0 
1 0 1 0 1 0 1 0 1 0 1 0 1 0 1 0 
1 0 1 0 1 0 1 -1 1 0 1 0 1 0 1 0 
1 0 1 0 1 0 1 0 1 0 1 0 1 -1 1 0 
1 0 1 0 1 0 1 0 1 0 1 0 1 0 1 0 
1 -1 1 0 1 0 1 0 1 0 1 0 1 0 1 0 
1 -1 1 0 1 0 1 0 1 0 1 0 1 0 1 0 
1 -1 1 0 1 0 1 0 1 0 1 0 1 0 1 -1 
1 0 1 0 1 0 1 0 1 0 1 -1 1 0 1 0 
1 0 1 0 1 0 1 -1 1 0 1 0 1 0 1 0 
1 0 1 -1 1 0 1 0 1 0 1 0 1 -1 1 0 
1 0 1 0 1 0 1 0 1 -1 1 0 1 0 1 0 
1 0 1 -1 1 0 1 0 1 0 1 0 1 -1 1 0 
1 0 1 0 1 0 1 -1 1 0 1 0 1 0 1 0 
1 -1 1 0 1 0 1 0 1 -1 1 0 1 0 1 0 
1 0 1 -1 1 0 1 0 1 0 1 -1 1 0 1 0 
1 0 1 0 1 -1 1 0 1 0 1 0 1 -1 1 0 
1 0 1 0 1 -1 1 0 1 0 1 0 1 0 1 -1 
1 0 1 0 1 0 1 -1 1 0 1 0 1 0 1 -1 
1 0 1 0 1 0 1 -1 1 0 1 0 1 0 1 0 
1 -1 1 0 1 0 1 0 1 -1 1 0 1 0 1 0 
1 -1 1 0 1 0 1 0 1 -1 1 0 1 0 1 0 
1 -1 1 0 1 0 1 0 1 -1 1 0 1 0 1 0 
1 0 1 -1 1 0 1780 1853 300 MP stroke
1 0 1 0 1 -1 1 0 1 0 1 0 1 -1 1 0 
1 0 1 0 1 -1 1 0 1 0 1 0 1 -1 1 0 
1 0 1 0 1 -1 1 0 1 0 1 0 1 0 1 -1 
1 0 1 0 1 0 1 -1 1 0 1 0 1 0 1 -1 
1 0 1 0 1 0 1 0 1 -1 1 0 1 0 1 0 
1 -1 1 0 1 0 1 0 1 -1 1 0 1 0 1 0 
1 0 1 -1 1 0 1 0 1 0 1 -1 1 0 1 0 
1 0 1 0 1 -1 1 0 1 0 1 0 1 0 1 -1 
1 0 1 0 1 0 1 0 1 -1 1 0 1 0 1 0 
1 0 1 -1 1 0 1 0 1 0 1 0 1 -1 1 0 
1 0 1 0 1 0 1 -1 1 0 1 0 1 0 1 0 
1 -1 1 0 1 0 1 0 1 0 1 0 1 -1 1 0 
1 0 1 0 1 0 1 -1 1 0 1 0 1 0 1 0 
1 0 1 -1 1 0 1 0 1 0 1 0 1 0 1 -1 
1 0 1 0 1 0 1 0 1 0 1 -1 1 0 1 0 
1 0 1 0 1 0 1 0 1 -1 1 0 1 0 1 0 
1 0 1 0 1 0 1 -1 1 0 1 0 1 0 1 0 
1 0 1 0 1 0 1 -1 1 0 1 0 1 0 1 0 
1 0 1 0 1 0 1 -1 1 0 1 0 1 0 1 0 
1 0 1 0 1 0 1 0 1 -1 1 0 1 0 1 0 
1 0 1 0 1 0 1 0 1 0 1 0 1 0 1 -1 
1 0 1 0 1 0 1 0 1 0 1 0 1 0 1 0 
1 0 1 0 1 0 1 -1 1 0 1 0 1 0 1 0 
1 0 1 0 1 0 1 0 1 0 1 0 1 0 1 0 
1 0 1 0 1 0 1 0 1 -1 1 0 1 0 1 0 
1 0 1 0 1 0 1 0 1 0 1 0 1 0 1 0 
1 0 1 0 1 0 1 0 1 0 1 0 1 0 1 0 
1 0 1 0 1 0 1 0 1 0 1 0 1 0 1 0 
1 0 1 0 1 0 1 0 1 0 1 0 1 0 1 0 
1 0 1 0 1 0 1 0 -1 0 2 0 1 0 1 0 
1 0 1 0 1 0 1 0 1 0 1 0 1 0 1 0 
1 0 1 0 1 0 1 0 1 0 1 0 1 0 1 0 
1 0 1 0 1 0 1 0 1 0 1 0 1 0 1 0 
1 0 1 0 1 0 1 0 1 0 1 0 1 0 1 0 
1 0 1 0 1 0 1 0 1 0 1 0 1 0 1 1 
1 0 1 0 1 0 1 0 1 0 1 0 1 0 1 0 
1 0 1 0 1 0 1 0 1 0 1 0 1 0 1 0 
1 0 1 0 1 1 1482 1884 300 MP stroke
1 0 1 0 1 0 1 0 1 0 1 0 1 0 1 0 
1 0 1 0 1 0 1 0 1 0 1 0 1 1 1 0 
1 0 1 0 1 0 1 0 1 0 1 0 1 0 1 0 
1 0 1 0 1 0 1 1 1 0 1 0 1 0 1 0 
1 0 1 0 1 0 1 0 1 0 1 0 1 0 1 1 
1 0 1 0 1 0 1 0 1 0 1 0 1 0 1 0 
1 0 1 0 1 1 1 0 1 0 1 0 1 0 1 0 
1 0 1 0 1 0 1 0 1 1 1 0 1 0 1 0 
1 0 1 0 1 0 1 0 1 0 1 0 1 1 1 0 
1 0 1 0 1 0 1 0 1 0 1 0 1 0 1 0 
1 1 1 0 1 0 1 0 1 0 1 0 1 0 1 0 
1 0 1 0 1 1 1 0 1 0 1 0 1 0 1 0 
1 0 1 0 1 0 1 0 1 1 1 0 1 0 1 0 
1 0 1 0 1 0 1 0 1 0 1 0 1 1 1 0 
1 0 1 0 1 0 1 0 1 0 1 0 1 0 1 0 
1 1 1 0 1 0 1 0 1 0 1 0 1 0 1 0 
1 0 1 0 1 1 1 0 1 0 1 0 1 0 1 0 
1 0 1 0 1 0 1 0 1 1 1 0 1 0 1 0 
1 0 1 0 1 0 1 0 1 0 1 0 1 0 1 1 
1 0 1 0 1 0 1 0 1 0 1 0 1 0 1 0 
1 0 1 0 1 1 1 0 1 0 1 0 1 0 1 0 
1 0 1 0 1 0 1 0 1 0 1 1 1 0 1 0 
1 0 1 0 1 0 1 0 1 0 1 0 1 0 1 0 
1 0 1 0 1 1 1 0 1 0 1 0 1 0 1 0 
1 0 1 0 1 0 1 0 1 0 1 0 1 0 1 0 
1 1 1 0 1 0 1 0 1 0 1 0 1 0 1 0 
1 0 1 0 1 0 1 0 1 0 1 0 1 0 1 0 
1 1 1 0 1 0 1 0 1 0 1 0 1 0 1 0 
1 0 1 0 1 0 1 0 1 0 1 0 1 0 1 0 
1 0 1 0 1 0 1 0 1 0 1 1 1 0 1 0 
1 0 1 0 1 0 1 0 1 0 1 0 1 0 1 0 
1 0 1 0 1 0 1 0 1 0 1 0 1 0 1 0 
1 0 1 0 1 0 1 0 1 0 1 0 1 0 1 0 
1 0 1 0 1 0 1 0 1 0 1 0 1 0 1 0 
1 1 1 0 1 0 1 0 1 0 1 0 1 0 1 0 
1 0 1 0 1 0 1 0 1 0 1 0 1 0 1 0 
1 0 1 0 1 0 1 0 1 0 1 0 1 0 1 0 
1 0 1 0 1 0 1183 1863 300 MP stroke
1 0 1 0 1 0 1 0 1 0 1 0 1 0 1 0 
1 0 1 0 1 0 1 -1 1 0 1 0 1 0 1 0 
1 0 1 0 1 0 1 0 1 0 1 0 1 0 1 0 
1 0 1 0 1 0 1 0 1 0 1 0 1 0 1 0 
1 0 1 0 1 0 1 0 1 0 1 0 1 0 1 0 
1 0 1 0 1 0 1 0 1 0 1 0 1 0 1 -1 
1 0 1 0 1 0 1 0 1 0 1 0 1 0 1 0 
1 0 1 0 1 0 1 0 1 0 1 0 1 0 1 0 
1 0 1 0 1 0 1 0 1 0 1 -1 1 0 1 0 
1 0 1 0 1 0 1 0 1 0 1 0 1 0 1 0 
1 0 1 0 1 0 1 0 1 0 1 0 1 -1 1 0 
1 0 1 0 1 0 1 0 1 0 1 0 1 0 1 0 
1 0 1 0 1 0 1 0 1 0 1 -1 1 0 1 0 
1 0 1 0 1 0 1 0 1 0 1 0 1 0 1 0 
1 0 1 0 1 0 1 -1 1 0 1 0 1 0 1 0 
1 0 1 0 1 0 1 0 1 0 1 0 1 0 1 0 
1 -1 1 0 1 0 1 0 1 0 1 0 1 0 1 0 
1 0 1 0 1 0 1 0 1 -1 1 0 1 0 1 0 
1 0 1 0 1 0 1 0 1 0 1 0 1 0 1 0 
1 -1 1 0 1 0 1 0 1 0 1 0 1 0 1 0 
1 0 1 0 1 0 1 0 1 -1 1 0 1 0 1 0 
1 0 1 0 1 0 1 0 1 0 1 0 1 0 1 -1 
1 0 1 0 1 0 1 0 1 0 1 0 1 0 1 0 
1 0 1 0 1 -1 1 0 1 0 1 0 1 0 1 0 
1 0 1 0 1 0 1 0 1 0 1 0 1 -1 1 0 
1 0 1 0 1 0 1 0 1 0 1 0 1 0 1 0 
1 0 1 -1 1 0 1 0 1 0 1 0 1 0 1 0 
1 0 1 0 1 0 1 0 1 0 1 -1 1 0 1 0 
1 0 1 0 1 0 1 0 1 0 1 0 1 0 1 0 
1 0 1 -1 1 0 1 0 1 0 1 0 1 0 1 0 
1 0 1 0 1 0 1 0 1 0 1 -1 1 0 1 0 
1 0 1 0 1 0 1 0 1 0 1 0 1 0 1 0 
1 0 1 0 1 -1 1 0 1 0 1 0 1 0 1 0 
1 0 1 0 1 0 1 0 1 0 1 0 1 0 1 0 
1 -1 1 0 1 0 1 0 1 0 1 0 1 0 1 0 
1 0 1 0 1 0 1 0 1 0 1 0 1 0 1 -1 
1 0 1 0 1 0 1 0 1 0 1 0 1 0 1 0 
1 0 1 0 1 0 884 1883 300 MP stroke
1 0 1 0 1 0 1 0 1 -1 1 0 1 0 1 0 
1 0 1 0 1 0 1 0 1 0 1 0 1 0 1 0 
1 0 1 0 1 0 1 0 1 0 1 0 1 0 1 0 
1 -1 1 0 1 0 1 0 1 0 1 0 1 0 1 0 
1 0 1 0 1 0 1 0 1 0 1 0 1 0 1 0 
1 0 1 0 1 0 1 0 1 0 1 0 1 0 1 0 
1 0 1 -1 1 0 1 0 1 0 1 0 1 0 1 0 
1 0 1 0 1 0 1 0 1 0 1 0 1 0 1 0 
1 0 1 0 1 0 1 0 1 0 1 0 1 0 1 0 
1 0 1 0 1 0 1 0 1 0 1 0 1 0 1 0 
1 0 1 0 1 0 1 0 1 0 1 0 1 0 1 0 
1 0 1 0 1 0 1 0 1 0 1 0 1 0 1 0 
1 0 1 0 1 0 1 0 1 0 1 0 1 0 1 0 
1 0 1 0 1 0 1 0 1 0 -1 0 776 1886 111 MP stroke
gr

%%IncludeResource: font Helvetica
/Helvetica /WindowsLatin1Encoding 120 FMSR

3066 2175 mt 
(f) s
 438 1171 mt  -90 rotate
(G) s
90 rotate
%%IncludeResource: font Helvetica
/Helvetica /WindowsLatin1Encoding 96 FMSR

 498 1078 mt  -90 rotate
(x) s
90 rotate
%%IncludeResource: font Helvetica
/Helvetica /WindowsLatin1Encoding 120 FMSR

 438 1030 mt  -90 rotate
(\(f\)) s
90 rotate
gs 775 202 4619 1686 rc
/c8 { 1.000000 0.000000 0.000000 sr} bdef
c8
0 -703 2743 1887 2 MP stroke
0 -705 2743 1887 2 MP stroke
0 -707 2744 1887 2 MP stroke
0 -710 2745 1887 2 MP stroke
0 -712 2746 1887 2 MP stroke
0 -714 2746 1887 2 MP stroke
0 -717 2747 1887 2 MP stroke
0 -719 2748 1887 2 MP stroke
0 -722 2749 1887 2 MP stroke
0 -724 2750 1887 2 MP stroke
0 -726 2750 1887 2 MP stroke
0 -729 2751 1887 2 MP stroke
0 -731 2752 1887 2 MP stroke
0 -733 2753 1887 2 MP stroke
0 -736 2753 1887 2 MP stroke
0 -738 2754 1887 2 MP stroke
0 -741 2755 1887 2 MP stroke
0 -743 2756 1887 2 MP stroke
0 -745 2756 1887 2 MP stroke
0 -748 2757 1887 2 MP stroke
0 -750 2758 1887 2 MP stroke
0 -753 2759 1887 2 MP stroke
0 -755 2760 1887 2 MP stroke
0 -757 2760 1887 2 MP stroke
0 -760 2761 1887 2 MP stroke
0 -762 2762 1887 2 MP stroke
0 -764 2763 1887 2 MP stroke
0 -767 2763 1887 2 MP stroke
0 -769 2764 1887 2 MP stroke
0 -772 2765 1887 2 MP stroke
0 -774 2766 1887 2 MP stroke
0 -776 2766 1887 2 MP stroke
0 -779 2767 1887 2 MP stroke
0 -781 2768 1887 2 MP stroke
0 -783 2769 1887 2 MP stroke
0 -786 2770 1887 2 MP stroke
0 -788 2770 1887 2 MP stroke
0 -791 2771 1887 2 MP stroke
0 -793 2772 1887 2 MP stroke
0 -795 2773 1887 2 MP stroke
0 -798 2773 1887 2 MP stroke
0 -800 2774 1887 2 MP stroke
0 -803 2775 1887 2 MP stroke
0 -805 2776 1887 2 MP stroke
0 -807 2776 1887 2 MP stroke
0 -810 2777 1887 2 MP stroke
0 -812 2778 1887 2 MP stroke
0 -814 2779 1887 2 MP stroke
0 -817 2780 1887 2 MP stroke
0 -819 2780 1887 2 MP stroke
0 -822 2781 1887 2 MP stroke
0 -824 2782 1887 2 MP stroke
0 -826 2783 1887 2 MP stroke
0 -829 2783 1887 2 MP stroke
0 -831 2784 1887 2 MP stroke
0 -833 2785 1887 2 MP stroke
0 -836 2786 1887 2 MP stroke
0 -838 2786 1887 2 MP stroke
0 -841 2787 1887 2 MP stroke
0 -843 2788 1887 2 MP stroke
0 -845 2789 1887 2 MP stroke
0 -848 2790 1887 2 MP stroke
0 -850 2790 1887 2 MP stroke
0 -852 2791 1887 2 MP stroke
0 -855 2792 1887 2 MP stroke
0 -857 2793 1887 2 MP stroke
0 -859 2793 1887 2 MP stroke
0 -862 2794 1887 2 MP stroke
0 -864 2795 1887 2 MP stroke
0 -867 2796 1887 2 MP stroke
0 -869 2796 1887 2 MP stroke
0 -871 2797 1887 2 MP stroke
0 -874 2798 1887 2 MP stroke
0 -876 2799 1887 2 MP stroke
0 -878 2800 1887 2 MP stroke
0 -881 2800 1887 2 MP stroke
0 -883 2801 1887 2 MP stroke
0 -885 2802 1887 2 MP stroke
0 -888 2803 1887 2 MP stroke
0 -890 2803 1887 2 MP stroke
0 -892 2804 1887 2 MP stroke
0 -895 2805 1887 2 MP stroke
0 -897 2806 1887 2 MP stroke
0 -899 2806 1887 2 MP stroke
0 -902 2807 1887 2 MP stroke
0 -904 2808 1887 2 MP stroke
0 -906 2809 1887 2 MP stroke
0 -909 2810 1887 2 MP stroke
0 -911 2810 1887 2 MP stroke
0 -913 2811 1887 2 MP stroke
0 -916 2812 1887 2 MP stroke
0 -918 2813 1887 2 MP stroke
0 -920 2813 1887 2 MP stroke
0 -923 2814 1887 2 MP stroke
0 -925 2815 1887 2 MP stroke
0 -927 2816 1887 2 MP stroke
0 -930 2816 1887 2 MP stroke
0 -932 2817 1887 2 MP stroke
0 -934 2818 1887 2 MP stroke
0 -937 2819 1887 2 MP stroke
0 -939 2820 1887 2 MP stroke
0 -941 2820 1887 2 MP stroke
0 -943 2821 1887 2 MP stroke
0 -946 2822 1887 2 MP stroke
0 -948 2823 1887 2 MP stroke
0 -950 2823 1887 2 MP stroke
0 -953 2824 1887 2 MP stroke
0 -955 2825 1887 2 MP stroke
0 -957 2826 1887 2 MP stroke
0 -959 2826 1887 2 MP stroke
0 -962 2827 1887 2 MP stroke
0 -964 2828 1887 2 MP stroke
0 -966 2829 1887 2 MP stroke
0 -969 2830 1887 2 MP stroke
0 -971 2830 1887 2 MP stroke
0 -973 2831 1887 2 MP stroke
0 -975 2832 1887 2 MP stroke
0 -978 2833 1887 2 MP stroke
0 -980 2833 1887 2 MP stroke
0 -982 2834 1887 2 MP stroke
0 -984 2835 1887 2 MP stroke
0 -987 2836 1887 2 MP stroke
0 -989 2836 1887 2 MP stroke
0 -991 2837 1887 2 MP stroke
0 -993 2838 1887 2 MP stroke
0 -996 2839 1887 2 MP stroke
0 -998 2840 1887 2 MP stroke
0 -1000 2840 1887 2 MP stroke
0 -1002 2841 1887 2 MP stroke
0 -1004 2842 1887 2 MP stroke
0 -1007 2843 1887 2 MP stroke
0 -1009 2843 1887 2 MP stroke
0 -1011 2844 1887 2 MP stroke
0 -1013 2845 1887 2 MP stroke
0 -1016 2846 1887 2 MP stroke
0 -1018 2846 1887 2 MP stroke
0 -1020 2847 1887 2 MP stroke
0 -1022 2848 1887 2 MP stroke
0 -1024 2849 1887 2 MP stroke
0 -1027 2850 1887 2 MP stroke
0 -1029 2850 1887 2 MP stroke
0 -1031 2851 1887 2 MP stroke
0 -1033 2852 1887 2 MP stroke
0 -1035 2853 1887 2 MP stroke
0 -1037 2853 1887 2 MP stroke
0 -1040 2854 1887 2 MP stroke
0 -1042 2855 1887 2 MP stroke
0 -1044 2856 1887 2 MP stroke
0 -1046 2856 1887 2 MP stroke
0 -1048 2857 1887 2 MP stroke
0 -1050 2858 1887 2 MP stroke
0 -1053 2859 1887 2 MP stroke
0 -1055 2860 1887 2 MP stroke
0 -1057 2860 1887 2 MP stroke
0 -1059 2861 1887 2 MP stroke
0 -1061 2862 1887 2 MP stroke
0 -1063 2863 1887 2 MP stroke
0 -1065 2863 1887 2 MP stroke
0 -1067 2864 1887 2 MP stroke
0 -1070 2865 1887 2 MP stroke
0 -1072 2866 1887 2 MP stroke
0 -1074 2866 1887 2 MP stroke
0 -1076 2867 1887 2 MP stroke
0 -1078 2868 1887 2 MP stroke
0 -1080 2869 1887 2 MP stroke
0 -1082 2870 1887 2 MP stroke
0 -1084 2870 1887 2 MP stroke
0 -1086 2871 1887 2 MP stroke
0 -1088 2872 1887 2 MP stroke
0 -1090 2873 1887 2 MP stroke
0 -1093 2873 1887 2 MP stroke
0 -1095 2874 1887 2 MP stroke
0 -1097 2875 1887 2 MP stroke
0 -1099 2876 1887 2 MP stroke
0 -1101 2876 1887 2 MP stroke
0 -1103 2877 1887 2 MP stroke
0 -1105 2878 1887 2 MP stroke
0 -1107 2879 1887 2 MP stroke
0 -1109 2880 1887 2 MP stroke
0 -1111 2880 1887 2 MP stroke
0 -1113 2881 1887 2 MP stroke
0 -1115 2882 1887 2 MP stroke
0 -1117 2883 1887 2 MP stroke
0 -1119 2883 1887 2 MP stroke
0 -1121 2884 1887 2 MP stroke
0 -1123 2885 1887 2 MP stroke
0 -1125 2886 1887 2 MP stroke
0 -1127 2887 1887 2 MP stroke
0 -1129 2887 1887 2 MP stroke
0 -1131 2888 1887 2 MP stroke
0 -1133 2889 1887 2 MP stroke
0 -1135 2890 1887 2 MP stroke
0 -1137 2890 1887 2 MP stroke
0 -1139 2891 1887 2 MP stroke
0 -1141 2892 1887 2 MP stroke
0 -1143 2893 1887 2 MP stroke
0 -1145 2893 1887 2 MP stroke
0 -1147 2894 1887 2 MP stroke
0 -1148 2895 1887 2 MP stroke
0 -1150 2896 1887 2 MP stroke
0 -1152 2897 1887 2 MP stroke
0 -1154 2897 1887 2 MP stroke
0 -1156 2898 1887 2 MP stroke
0 -1158 2899 1887 2 MP stroke
0 -1160 2900 1887 2 MP stroke
0 -1162 2900 1887 2 MP stroke
0 -1164 2901 1887 2 MP stroke
0 -1166 2902 1887 2 MP stroke
0 -1167 2903 1887 2 MP stroke
0 -1169 2903 1887 2 MP stroke
0 -1171 2904 1887 2 MP stroke
0 -1173 2905 1887 2 MP stroke
0 -1175 2906 1887 2 MP stroke
0 -1177 2907 1887 2 MP stroke
0 -1179 2907 1887 2 MP stroke
0 -1180 2908 1887 2 MP stroke
0 -1182 2909 1887 2 MP stroke
0 -1184 2910 1887 2 MP stroke
0 -1186 2910 1887 2 MP stroke
0 -1188 2911 1887 2 MP stroke
0 -1190 2912 1887 2 MP stroke
0 -1191 2913 1887 2 MP stroke
0 -1193 2913 1887 2 MP stroke
0 -1195 2914 1887 2 MP stroke
0 -1197 2915 1887 2 MP stroke
0 -1198 2916 1887 2 MP stroke
0 -1200 2917 1887 2 MP stroke
0 -1202 2917 1887 2 MP stroke
0 -1204 2918 1887 2 MP stroke
0 -1206 2919 1887 2 MP stroke
0 -1207 2920 1887 2 MP stroke
0 -1209 2920 1887 2 MP stroke
0 -1211 2921 1887 2 MP stroke
0 -1212 2922 1887 2 MP stroke
0 -1214 2923 1887 2 MP stroke
0 -1216 2923 1887 2 MP stroke
0 -1218 2924 1887 2 MP stroke
0 -1219 2925 1887 2 MP stroke
0 -1221 2926 1887 2 MP stroke
0 -1223 2927 1887 2 MP stroke
0 -1224 2927 1887 2 MP stroke
0 -1226 2928 1887 2 MP stroke
0 -1228 2929 1887 2 MP stroke
0 -1229 2930 1887 2 MP stroke
0 -1231 2930 1887 2 MP stroke
0 -1233 2931 1887 2 MP stroke
0 -1234 2932 1887 2 MP stroke
0 -1236 2933 1887 2 MP stroke
0 -1238 2933 1887 2 MP stroke
0 -1239 2934 1887 2 MP stroke
0 -1241 2935 1887 2 MP stroke
0 -1243 2936 1887 2 MP stroke
0 -1244 2937 1887 2 MP stroke
0 -1246 2937 1887 2 MP stroke
0 -1247 2938 1887 2 MP stroke
0 -1249 2939 1887 2 MP stroke
0 -1250 2940 1887 2 MP stroke
0 -1252 2940 1887 2 MP stroke
0 -1254 2941 1887 2 MP stroke
0 -1255 2942 1887 2 MP stroke
0 -1257 2943 1887 2 MP stroke
0 -1258 2943 1887 2 MP stroke
0 -1260 2944 1887 2 MP stroke
0 -1261 2945 1887 2 MP stroke
0 -1263 2946 1887 2 MP stroke
0 -1264 2947 1887 2 MP stroke
0 -1266 2947 1887 2 MP stroke
0 -1267 2948 1887 2 MP stroke
0 -1269 2949 1887 2 MP stroke
0 -1270 2950 1887 2 MP stroke
0 -1272 2950 1887 2 MP stroke
0 -1273 2951 1887 2 MP stroke
0 -1275 2952 1887 2 MP stroke
0 -1276 2953 1887 2 MP stroke
0 -1278 2953 1887 2 MP stroke
0 -1279 2954 1887 2 MP stroke
0 -1281 2955 1887 2 MP stroke
0 -1282 2956 1887 2 MP stroke
0 -1283 2957 1887 2 MP stroke
0 -1285 2957 1887 2 MP stroke
0 -1286 2958 1887 2 MP stroke
0 -1288 2959 1887 2 MP stroke
0 -1289 2960 1887 2 MP stroke
0 -1290 2960 1887 2 MP stroke
0 -1292 2961 1887 2 MP stroke
0 -1293 2962 1887 2 MP stroke
0 -1294 2963 1887 2 MP stroke
0 -1296 2963 1887 2 MP stroke
0 -1297 2964 1887 2 MP stroke
0 -1299 2965 1887 2 MP stroke
0 -1300 2966 1887 2 MP stroke
0 -1301 2967 1887 2 MP stroke
0 -1303 2967 1887 2 MP stroke
0 -1304 2968 1887 2 MP stroke
0 -1305 2969 1887 2 MP stroke
0 -1306 2970 1887 2 MP stroke
0 -1308 2970 1887 2 MP stroke
0 -1309 2971 1887 2 MP stroke
0 -1310 2972 1887 2 MP stroke
0 -1312 2973 1887 2 MP stroke
0 -1313 2973 1887 2 MP stroke
0 -1314 2974 1887 2 MP stroke
0 -1315 2975 1887 2 MP stroke
0 -1316 2976 1887 2 MP stroke
0 -1318 2977 1887 2 MP stroke
0 -1319 2977 1887 2 MP stroke
0 -1320 2978 1887 2 MP stroke
0 -1321 2979 1887 2 MP stroke
0 -1323 2980 1887 2 MP stroke
0 -1324 2980 1887 2 MP stroke
0 -1325 2981 1887 2 MP stroke
0 -1326 2982 1887 2 MP stroke
0 -1327 2983 1887 2 MP stroke
0 -1328 2983 1887 2 MP stroke
0 -1330 2984 1887 2 MP stroke
0 -1331 2985 1887 2 MP stroke
0 -1332 2986 1887 2 MP stroke
0 -1333 2987 1887 2 MP stroke
0 -1334 2987 1887 2 MP stroke
0 -1335 2988 1887 2 MP stroke
0 -1336 2989 1887 2 MP stroke
0 -1337 2990 1887 2 MP stroke
0 -1338 2990 1887 2 MP stroke
0 -1339 2991 1887 2 MP stroke
0 -1341 2992 1887 2 MP stroke
0 -1342 2993 1887 2 MP stroke
0 -1343 2993 1887 2 MP stroke
0 -1344 2994 1887 2 MP stroke
0 -1345 2995 1887 2 MP stroke
0 -1346 2996 1887 2 MP stroke
0 -1347 2997 1887 2 MP stroke
0 -1348 2997 1887 2 MP stroke
0 -1349 2998 1887 2 MP stroke
0 -1350 2999 1887 2 MP stroke
0 -1351 3000 1887 2 MP stroke
0 -1352 3000 1887 2 MP stroke
0 -1353 3001 1887 2 MP stroke
0 -1354 3002 1887 2 MP stroke
0 -1355 3003 1887 2 MP stroke
0 -1355 3003 1887 2 MP stroke
0 -1356 3004 1887 2 MP stroke
0 -1357 3005 1887 2 MP stroke
0 -1358 3006 1887 2 MP stroke
0 -1359 3007 1887 2 MP stroke
0 -1360 3007 1887 2 MP stroke
0 -1361 3008 1887 2 MP stroke
0 -1362 3009 1887 2 MP stroke
0 -1363 3010 1887 2 MP stroke
0 -1364 3010 1887 2 MP stroke
0 -1364 3011 1887 2 MP stroke
0 -1365 3012 1887 2 MP stroke
0 -1366 3013 1887 2 MP stroke
0 -1367 3013 1887 2 MP stroke
0 -1368 3014 1887 2 MP stroke
0 -1368 3015 1887 2 MP stroke
0 -1369 3016 1887 2 MP stroke
0 -1370 3017 1887 2 MP stroke
0 -1371 3017 1887 2 MP stroke
0 -1372 3018 1887 2 MP stroke
0 -1372 3019 1887 2 MP stroke
0 -1373 3020 1887 2 MP stroke
0 -1374 3020 1887 2 MP stroke
0 -1375 3021 1887 2 MP stroke
0 -1375 3022 1887 2 MP stroke
0 -1376 3023 1887 2 MP stroke
0 -1377 3024 1887 2 MP stroke
0 -1378 3024 1887 2 MP stroke
0 -1378 3025 1887 2 MP stroke
0 -1379 3026 1887 2 MP stroke
0 -1380 3027 1887 2 MP stroke
0 -1380 3027 1887 2 MP stroke
0 -1381 3028 1887 2 MP stroke
0 -1382 3029 1887 2 MP stroke
0 -1382 3030 1887 2 MP stroke
0 -1383 3030 1887 2 MP stroke
0 -1383 3031 1887 2 MP stroke
0 -1384 3032 1887 2 MP stroke
0 -1385 3033 1887 2 MP stroke
0 -1385 3034 1887 2 MP stroke
0 -1386 3034 1887 2 MP stroke
0 -1386 3035 1887 2 MP stroke
0 -1387 3036 1887 2 MP stroke
0 -1388 3037 1887 2 MP stroke
0 -1388 3037 1887 2 MP stroke
0 -1389 3038 1887 2 MP stroke
0 -1389 3039 1887 2 MP stroke
0 -1390 3040 1887 2 MP stroke
0 -1390 3040 1887 2 MP stroke
0 -1391 3041 1887 2 MP stroke
0 -1391 3042 1887 2 MP stroke
0 -1392 3043 1887 2 MP stroke
0 -1392 3044 1887 2 MP stroke
0 -1393 3044 1887 2 MP stroke
0 -1393 3045 1887 2 MP stroke
0 -1394 3046 1887 2 MP stroke
0 -1394 3047 1887 2 MP stroke
0 -1395 3047 1887 2 MP stroke
0 -1395 3048 1887 2 MP stroke
0 -1395 3049 1887 2 MP stroke
0 -1396 3050 1887 2 MP stroke
0 -1396 3050 1887 2 MP stroke
0 -1397 3051 1887 2 MP stroke
0 -1397 3052 1887 2 MP stroke
0 -1397 3053 1887 2 MP stroke
0 -1398 3054 1887 2 MP stroke
0 -1398 3054 1887 2 MP stroke
0 -1398 3055 1887 2 MP stroke
0 -1399 3056 1887 2 MP stroke
0 -1399 3057 1887 2 MP stroke
0 -1399 3057 1887 2 MP stroke
0 -1400 3058 1887 2 MP stroke
0 -1400 3059 1887 2 MP stroke
0 -1400 3060 1887 2 MP stroke
0 -1401 3060 1887 2 MP stroke
0 -1401 3061 1887 2 MP stroke
0 -1401 3062 1887 2 MP stroke
0 -1401 3063 1887 2 MP stroke
0 -1402 3064 1887 2 MP stroke
0 -1402 3064 1887 2 MP stroke
0 -1402 3065 1887 2 MP stroke
0 -1402 3066 1887 2 MP stroke
0 -1402 3067 1887 2 MP stroke
0 -1403 3067 1887 2 MP stroke
0 -1403 3068 1887 2 MP stroke
0 -1403 3069 1887 2 MP stroke
0 -1403 3070 1887 2 MP stroke
0 -1403 3070 1887 2 MP stroke
0 -1403 3071 1887 2 MP stroke
0 -1404 3072 1887 2 MP stroke
0 -1404 3073 1887 2 MP stroke
0 -1404 3074 1887 2 MP stroke
0 -1404 3074 1887 2 MP stroke
0 -1404 3075 1887 2 MP stroke
0 -1404 3076 1887 2 MP stroke
0 -1404 3077 1887 2 MP stroke
0 -1404 3077 1887 2 MP stroke
0 -1404 3078 1887 2 MP stroke
0 -1405 3079 1887 2 MP stroke
0 -1405 3080 1887 2 MP stroke
0 -1405 3080 1887 2 MP stroke
0 -1405 3081 1887 2 MP stroke
0 -1405 3082 1887 2 MP stroke
0 -1405 3083 1887 2 MP stroke
0 -1405 3084 1887 2 MP stroke
0 -1405 3084 1887 2 MP stroke
0 -1405 3085 1887 2 MP stroke
0 -1405 3086 1887 2 MP stroke
0 -1405 3087 1887 2 MP stroke
0 -1405 3087 1887 2 MP stroke
0 -1404 3088 1887 2 MP stroke
0 -1404 3089 1887 2 MP stroke
0 -1404 3090 1887 2 MP stroke
0 -1404 3090 1887 2 MP stroke
0 -1404 3091 1887 2 MP stroke
0 -1404 3092 1887 2 MP stroke
0 -1404 3093 1887 2 MP stroke
0 -1404 3094 1887 2 MP stroke
0 -1404 3094 1887 2 MP stroke
0 -1404 3095 1887 2 MP stroke
0 -1403 3096 1887 2 MP stroke
0 -1403 3097 1887 2 MP stroke
0 -1403 3097 1887 2 MP stroke
0 -1403 3098 1887 2 MP stroke
0 -1403 3099 1887 2 MP stroke
0 -1403 3100 1887 2 MP stroke
0 -1402 3100 1887 2 MP stroke
0 -1402 3101 1887 2 MP stroke
0 -1402 3102 1887 2 MP stroke
0 -1402 3103 1887 2 MP stroke
0 -1402 3104 1887 2 MP stroke
0 -1401 3104 1887 2 MP stroke
0 -1401 3105 1887 2 MP stroke
0 -1401 3106 1887 2 MP stroke
0 -1401 3107 1887 2 MP stroke
0 -1400 3107 1887 2 MP stroke
0 -1400 3108 1887 2 MP stroke
0 -1400 3109 1887 2 MP stroke
0 -1399 3110 1887 2 MP stroke
0 -1399 3110 1887 2 MP stroke
0 -1399 3111 1887 2 MP stroke
0 -1398 3112 1887 2 MP stroke
0 -1398 3113 1887 2 MP stroke
0 -1398 3114 1887 2 MP stroke
0 -1397 3114 1887 2 MP stroke
0 -1397 3115 1887 2 MP stroke
0 -1397 3116 1887 2 MP stroke
0 -1396 3117 1887 2 MP stroke
0 -1396 3117 1887 2 MP stroke
0 -1395 3118 1887 2 MP stroke
0 -1395 3119 1887 2 MP stroke
0 -1394 3120 1887 2 MP stroke
0 -1394 3120 1887 2 MP stroke
0 -1394 3121 1887 2 MP stroke
0 -1393 3122 1887 2 MP stroke
0 -1393 3123 1887 2 MP stroke
0 -1392 3124 1887 2 MP stroke
0 -1392 3124 1887 2 MP stroke
0 -1391 3125 1887 2 MP stroke
0 -1391 3126 1887 2 MP stroke
0 -1390 3127 1887 2 MP stroke
0 -1390 3127 1887 2 MP stroke
0 -1389 3128 1887 2 MP stroke
0 -1389 3129 1887 2 MP stroke
0 -1388 3130 1887 2 MP stroke
0 -1388 3130 1887 2 MP stroke
0 -1387 3131 1887 2 MP stroke
0 -1386 3132 1887 2 MP stroke
0 -1386 3133 1887 2 MP stroke
0 -1385 3134 1887 2 MP stroke
0 -1385 3134 1887 2 MP stroke
0 -1384 3135 1887 2 MP stroke
0 -1383 3136 1887 2 MP stroke
0 -1383 3137 1887 2 MP stroke
0 -1382 3137 1887 2 MP stroke
0 -1382 3138 1887 2 MP stroke
0 -1381 3139 1887 2 MP stroke
0 -1380 3140 1887 2 MP stroke
0 -1380 3140 1887 2 MP stroke
0 -1379 3141 1887 2 MP stroke
0 -1378 3142 1887 2 MP stroke
0 -1377 3143 1887 2 MP stroke
0 -1377 3144 1887 2 MP stroke
0 -1376 3144 1887 2 MP stroke
0 -1375 3145 1887 2 MP stroke
0 -1375 3146 1887 2 MP stroke
0 -1374 3147 1887 2 MP stroke
0 -1373 3147 1887 2 MP stroke
0 -1372 3148 1887 2 MP stroke
0 -1372 3149 1887 2 MP stroke
0 -1371 3150 1887 2 MP stroke
0 -1370 3150 1887 2 MP stroke
0 -1369 3151 1887 2 MP stroke
0 -1368 3152 1887 2 MP stroke
0 -1368 3153 1887 2 MP stroke
0 -1367 3154 1887 2 MP stroke
0 -1366 3154 1887 2 MP stroke
0 -1365 3155 1887 2 MP stroke
0 -1364 3156 1887 2 MP stroke
0 -1363 3157 1887 2 MP stroke
0 -1363 3157 1887 2 MP stroke
0 -1362 3158 1887 2 MP stroke
0 -1361 3159 1887 2 MP stroke
0 -1360 3160 1887 2 MP stroke
0 -1359 3161 1887 2 MP stroke
0 -1358 3161 1887 2 MP stroke
0 -1357 3162 1887 2 MP stroke
0 -1356 3163 1887 2 MP stroke
0 -1355 3164 1887 2 MP stroke
0 -1354 3164 1887 2 MP stroke
0 -1353 3165 1887 2 MP stroke
0 -1353 3166 1887 2 MP stroke
0 -1352 3167 1887 2 MP stroke
0 -1351 3167 1887 2 MP stroke
0 -1350 3168 1887 2 MP stroke
0 -1349 3169 1887 2 MP stroke
0 -1348 3170 1887 2 MP stroke
0 -1347 3171 1887 2 MP stroke
0 -1346 3171 1887 2 MP stroke
0 -1345 3172 1887 2 MP stroke
0 -1344 3173 1887 2 MP stroke
0 -1343 3174 1887 2 MP stroke
0 -1341 3174 1887 2 MP stroke
0 -1340 3175 1887 2 MP stroke
0 -1339 3176 1887 2 MP stroke
0 -1338 3177 1887 2 MP stroke
0 -1337 3177 1887 2 MP stroke
0 -1336 3178 1887 2 MP stroke
0 -1335 3179 1887 2 MP stroke
0 -1334 3180 1887 2 MP stroke
0 -1333 3181 1887 2 MP stroke
0 -1332 3181 1887 2 MP stroke
0 -1331 3182 1887 2 MP stroke
0 -1329 3183 1887 2 MP stroke
0 -1328 3184 1887 2 MP stroke
0 -1327 3184 1887 2 MP stroke
0 -1326 3185 1887 2 MP stroke
0 -1325 3186 1887 2 MP stroke
0 -1324 3187 1887 2 MP stroke
0 -1322 3187 1887 2 MP stroke
0 -1321 3188 1887 2 MP stroke
0 -1320 3189 1887 2 MP stroke
0 -1319 3190 1887 2 MP stroke
0 -1318 3191 1887 2 MP stroke
0 -1316 3191 1887 2 MP stroke
0 -1315 3192 1887 2 MP stroke
0 -1314 3193 1887 2 MP stroke
0 -1313 3194 1887 2 MP stroke
0 -1311 3194 1887 2 MP stroke
0 -1310 3195 1887 2 MP stroke
0 -1309 3196 1887 2 MP stroke
0 -1308 3197 1887 2 MP stroke
0 -1306 3197 1887 2 MP stroke
0 -1305 3198 1887 2 MP stroke
0 -1304 3199 1887 2 MP stroke
0 -1302 3200 1887 2 MP stroke
0 -1301 3201 1887 2 MP stroke
0 -1300 3201 1887 2 MP stroke
0 -1298 3202 1887 2 MP stroke
0 -1297 3203 1887 2 MP stroke
0 -1296 3204 1887 2 MP stroke
0 -1294 3204 1887 2 MP stroke
0 -1293 3205 1887 2 MP stroke
0 -1292 3206 1887 2 MP stroke
0 -1290 3207 1887 2 MP stroke
0 -1289 3207 1887 2 MP stroke
0 -1287 3208 1887 2 MP stroke
0 -1286 3209 1887 2 MP stroke
0 -1285 3210 1887 2 MP stroke
0 -1283 3211 1887 2 MP stroke
0 -1282 3211 1887 2 MP stroke
0 -1280 3212 1887 2 MP stroke
0 -1279 3213 1887 2 MP stroke
0 -1278 3214 1887 2 MP stroke
0 -1276 3214 1887 2 MP stroke
0 -1275 3215 1887 2 MP stroke
0 -1273 3216 1887 2 MP stroke
0 -1272 3217 1887 2 MP stroke
0 -1270 3217 1887 2 MP stroke
0 -1269 3218 1887 2 MP stroke
0 -1267 3219 1887 2 MP stroke
0 -1266 3220 1887 2 MP stroke
0 -1264 3221 1887 2 MP stroke
0 -1263 3221 1887 2 MP stroke
0 -1261 3222 1887 2 MP stroke
0 -1260 3223 1887 2 MP stroke
0 -1258 3224 1887 2 MP stroke
0 -1257 3224 1887 2 MP stroke
0 -1255 3225 1887 2 MP stroke
0 -1253 3226 1887 2 MP stroke
0 -1252 3227 1887 2 MP stroke
0 -1250 3227 1887 2 MP stroke
0 -1249 3228 1887 2 MP stroke
0 -1247 3229 1887 2 MP stroke
0 -1246 3230 1887 2 MP stroke
0 -1244 3231 1887 2 MP stroke
0 -1242 3231 1887 2 MP stroke
0 -1241 3232 1887 2 MP stroke
0 -1239 3233 1887 2 MP stroke
0 -1237 3234 1887 2 MP stroke
0 -1236 3234 1887 2 MP stroke
0 -1234 3235 1887 2 MP stroke
0 -1233 3236 1887 2 MP stroke
0 -1231 3237 1887 2 MP stroke
0 -1229 3237 1887 2 MP stroke
0 -1228 3238 1887 2 MP stroke
0 -1226 3239 1887 2 MP stroke
0 -1224 3240 1887 2 MP stroke
0 -1223 3241 1887 2 MP stroke
0 -1221 3241 1887 2 MP stroke
0 -1219 3242 1887 2 MP stroke
0 -1217 3243 1887 2 MP stroke
0 -1216 3244 1887 2 MP stroke
0 -1214 3244 1887 2 MP stroke
0 -1212 3245 1887 2 MP stroke
0 -1211 3246 1887 2 MP stroke
0 -1209 3247 1887 2 MP stroke
0 -1207 3247 1887 2 MP stroke
0 -1205 3248 1887 2 MP stroke
0 -1204 3249 1887 2 MP stroke
0 -1202 3250 1887 2 MP stroke
0 -1200 3251 1887 2 MP stroke
0 -1198 3251 1887 2 MP stroke
0 -1197 3252 1887 2 MP stroke
0 -1195 3253 1887 2 MP stroke
0 -1193 3254 1887 2 MP stroke
0 -1191 3254 1887 2 MP stroke
0 -1189 3255 1887 2 MP stroke
0 -1188 3256 1887 2 MP stroke
0 -1186 3257 1887 2 MP stroke
0 -1184 3257 1887 2 MP stroke
0 -1182 3258 1887 2 MP stroke
0 -1180 3259 1887 2 MP stroke
0 -1178 3260 1887 2 MP stroke
0 -1177 3261 1887 2 MP stroke
0 -1175 3261 1887 2 MP stroke
0 -1173 3262 1887 2 MP stroke
0 -1171 3263 1887 2 MP stroke
0 -1169 3264 1887 2 MP stroke
0 -1167 3264 1887 2 MP stroke
0 -1165 3265 1887 2 MP stroke
0 -1164 3266 1887 2 MP stroke
0 -1162 3267 1887 2 MP stroke
0 -1160 3267 1887 2 MP stroke
0 -1158 3268 1887 2 MP stroke
0 -1156 3269 1887 2 MP stroke
0 -1154 3270 1887 2 MP stroke
0 -1152 3271 1887 2 MP stroke
0 -1150 3271 1887 2 MP stroke
0 -1148 3272 1887 2 MP stroke
0 -1146 3273 1887 2 MP stroke
0 -1144 3274 1887 2 MP stroke
0 -1142 3274 1887 2 MP stroke
0 -1141 3275 1887 2 MP stroke
0 -1139 3276 1887 2 MP stroke
0 -1137 3277 1887 2 MP stroke
0 -1135 3277 1887 2 MP stroke
0 -1133 3278 1887 2 MP stroke
0 -1131 3279 1887 2 MP stroke
0 -1129 3280 1887 2 MP stroke
0 -1127 3281 1887 2 MP stroke
0 -1125 3281 1887 2 MP stroke
0 -1123 3282 1887 2 MP stroke
0 -1121 3283 1887 2 MP stroke
0 -1119 3284 1887 2 MP stroke
0 -1117 3284 1887 2 MP stroke
0 -1115 3285 1887 2 MP stroke
0 -1113 3286 1887 2 MP stroke
0 -1111 3287 1887 2 MP stroke
0 -1109 3288 1887 2 MP stroke
0 -1107 3288 1887 2 MP stroke
0 -1105 3289 1887 2 MP stroke
0 -1103 3290 1887 2 MP stroke
0 -1101 3291 1887 2 MP stroke
0 -1098 3291 1887 2 MP stroke
0 -1096 3292 1887 2 MP stroke
0 -1094 3293 1887 2 MP stroke
0 -1092 3294 1887 2 MP stroke
0 -1090 3294 1887 2 MP stroke
0 -1088 3295 1887 2 MP stroke
0 -1086 3296 1887 2 MP stroke
0 -1084 3297 1887 2 MP stroke
0 -1082 3298 1887 2 MP stroke
0 -1080 3298 1887 2 MP stroke
0 -1078 3299 1887 2 MP stroke
0 -1076 3300 1887 2 MP stroke
0 -1074 3301 1887 2 MP stroke
0 -1071 3301 1887 2 MP stroke
0 -1069 3302 1887 2 MP stroke
0 -1067 3303 1887 2 MP stroke
0 -1065 3304 1887 2 MP stroke
0 -1063 3304 1887 2 MP stroke
0 -1061 3305 1887 2 MP stroke
0 -1059 3306 1887 2 MP stroke
0 -1057 3307 1887 2 MP stroke
0 -1054 3308 1887 2 MP stroke
0 -1052 3308 1887 2 MP stroke
0 -1050 3309 1887 2 MP stroke
0 -1048 3310 1887 2 MP stroke
0 -1046 3311 1887 2 MP stroke
0 -1044 3311 1887 2 MP stroke
0 -1042 3312 1887 2 MP stroke
0 -1039 3313 1887 2 MP stroke
0 -1037 3314 1887 2 MP stroke
0 -1035 3314 1887 2 MP stroke
0 -1033 3315 1887 2 MP stroke
0 -1031 3316 1887 2 MP stroke
0 -1028 3317 1887 2 MP stroke
0 -1026 3318 1887 2 MP stroke
0 -1024 3318 1887 2 MP stroke
0 -1022 3319 1887 2 MP stroke
0 -1020 3320 1887 2 MP stroke
0 -1018 3321 1887 2 MP stroke
0 -1015 3321 1887 2 MP stroke
0 -1013 3322 1887 2 MP stroke
0 -1011 3323 1887 2 MP stroke
0 -1009 3324 1887 2 MP stroke
0 -1006 3324 1887 2 MP stroke
0 -1004 3325 1887 2 MP stroke
0 -1002 3326 1887 2 MP stroke
0 -1000 3327 1887 2 MP stroke
0 -998 3328 1887 2 MP stroke
0 -995 3328 1887 2 MP stroke
0 -993 3329 1887 2 MP stroke
0 -991 3330 1887 2 MP stroke
0 -989 3331 1887 2 MP stroke
0 -986 3331 1887 2 MP stroke
0 -984 3332 1887 2 MP stroke
0 -982 3333 1887 2 MP stroke
0 -980 3334 1887 2 MP stroke
0 -977 3334 1887 2 MP stroke
0 -975 3335 1887 2 MP stroke
0 -973 3336 1887 2 MP stroke
0 -971 3337 1887 2 MP stroke
0 -968 3338 1887 2 MP stroke
0 -966 3338 1887 2 MP stroke
0 -964 3339 1887 2 MP stroke
0 -961 3340 1887 2 MP stroke
0 -959 3341 1887 2 MP stroke
0 -957 3341 1887 2 MP stroke
0 -955 3342 1887 2 MP stroke
0 -952 3343 1887 2 MP stroke
0 -950 3344 1887 2 MP stroke
0 -948 3344 1887 2 MP stroke
0 -945 3345 1887 2 MP stroke
0 -943 3346 1887 2 MP stroke
0 -941 3347 1887 2 MP stroke
0 -939 3348 1887 2 MP stroke
0 -936 3348 1887 2 MP stroke
0 -934 3349 1887 2 MP stroke
0 -932 3350 1887 2 MP stroke
0 -929 3351 1887 2 MP stroke
0 -927 3351 1887 2 MP stroke
0 -925 3352 1887 2 MP stroke
0 -922 3353 1887 2 MP stroke
0 -920 3354 1887 2 MP stroke
0 -918 3354 1887 2 MP stroke
0 -915 3355 1887 2 MP stroke
0 -913 3356 1887 2 MP stroke
0 -911 3357 1887 2 MP stroke
0 -908 3358 1887 2 MP stroke
0 -906 3358 1887 2 MP stroke
0 -904 3359 1887 2 MP stroke
0 -901 3360 1887 2 MP stroke
0 -899 3361 1887 2 MP stroke
0 -897 3361 1887 2 MP stroke
0 -894 3362 1887 2 MP stroke
0 -892 3363 1887 2 MP stroke
0 -890 3364 1887 2 MP stroke
0 -887 3364 1887 2 MP stroke
0 -885 3365 1887 2 MP stroke
0 -883 3366 1887 2 MP stroke
0 -880 3367 1887 2 MP stroke
0 -878 3368 1887 2 MP stroke
0 -876 3368 1887 2 MP stroke
0 -873 3369 1887 2 MP stroke
0 -871 3370 1887 2 MP stroke
0 -869 3371 1887 2 MP stroke
0 -866 3371 1887 2 MP stroke
0 -864 3372 1887 2 MP stroke
0 -862 3373 1887 2 MP stroke
0 -859 3374 1887 2 MP stroke
0 -857 3374 1887 2 MP stroke
0 -854 3375 1887 2 MP stroke
0 -852 3376 1887 2 MP stroke
0 -850 3377 1887 2 MP stroke
0 -847 3378 1887 2 MP stroke
0 -845 3378 1887 2 MP stroke
0 -843 3379 1887 2 MP stroke
0 -840 3380 1887 2 MP stroke
0 -838 3381 1887 2 MP stroke
0 -836 3381 1887 2 MP stroke
0 -833 3382 1887 2 MP stroke
0 -831 3383 1887 2 MP stroke
0 -828 3384 1887 2 MP stroke
0 -826 3384 1887 2 MP stroke
0 -824 3385 1887 2 MP stroke
0 -821 3386 1887 2 MP stroke
0 -819 3387 1887 2 MP stroke
0 -817 3388 1887 2 MP stroke
0 -814 3388 1887 2 MP stroke
0 -812 3389 1887 2 MP stroke
0 -809 3390 1887 2 MP stroke
0 -807 3391 1887 2 MP stroke
0 -805 3391 1887 2 MP stroke
0 -802 3392 1887 2 MP stroke
0 -800 3393 1887 2 MP stroke
0 -798 3394 1887 2 MP stroke
0 -795 3394 1887 2 MP stroke
0 -793 3395 1887 2 MP stroke
0 -790 3396 1887 2 MP stroke
0 -788 3397 1887 2 MP stroke
0 -786 3398 1887 2 MP stroke
0 -783 3398 1887 2 MP stroke
0 -781 3399 1887 2 MP stroke
0 -778 3400 1887 2 MP stroke
0 -776 3401 1887 2 MP stroke
0 -774 3401 1887 2 MP stroke
0 -771 3402 1887 2 MP stroke
0 -769 3403 1887 2 MP stroke
0 -767 3404 1887 2 MP stroke
0 -764 3404 1887 2 MP stroke
0 -762 3405 1887 2 MP stroke
0 -759 3406 1887 2 MP stroke
0 -757 3407 1887 2 MP stroke
0 -755 3408 1887 2 MP stroke
0 -752 3408 1887 2 MP stroke
0 -750 3409 1887 2 MP stroke
0 -748 3410 1887 2 MP stroke
0 -745 3411 1887 2 MP stroke
0 -743 3411 1887 2 MP stroke
0 -740 3412 1887 2 MP stroke
0 -738 3413 1887 2 MP stroke
0 -736 3414 1887 2 MP stroke
0 -733 3414 1887 2 MP stroke
0 -731 3415 1887 2 MP stroke
0 -728 3416 1887 2 MP stroke
0 -726 3417 1887 2 MP stroke
0 -724 3418 1887 2 MP stroke
0 -721 3418 1887 2 MP stroke
0 -719 3419 1887 2 MP stroke
0 -717 3420 1887 2 MP stroke
0 -714 3421 1887 2 MP stroke
0 -712 3421 1887 2 MP stroke
0 -709 3422 1887 2 MP stroke
0 -707 3423 1887 2 MP stroke
0 -705 3424 1887 2 MP stroke
gr

c8

end %%Color Dict

eplot
%%EndObject

epage
end

showpage

%%Trailer
%%EOF
