%!PS-Adobe-3.0 EPSF-3.0
%%Creator: MATLAB, The MathWorks, Inc. Version 8.1.0.604 (R2013a). Operating System: Microsoft Windows 8.
%%Title: ..\..\Images\T2Q3_4.eps
%%CreationDate: 04/23/2015  10:22:03
%%DocumentNeededFonts: Helvetica
%%DocumentProcessColors: Cyan Magenta Yellow Black
%%LanguageLevel: 2
%%Pages: 1
%%BoundingBox:    49   327   545   514
%%EndComments

%%BeginProlog
% MathWorks dictionary
/MathWorks 160 dict begin
% definition operators
/bdef {bind def} bind def
/ldef {load def} bind def
/xdef {exch def} bdef
/xstore {exch store} bdef
% operator abbreviations
/c  /clip ldef
/cc /concat ldef
/cp /closepath ldef
/gr /grestore ldef
/gs /gsave ldef
/mt /moveto ldef
/np /newpath ldef
/cm /currentmatrix ldef
/sm /setmatrix ldef
/rm /rmoveto ldef
/rl /rlineto ldef
/s {show newpath} bdef
/sc {setcmykcolor} bdef
/sr /setrgbcolor ldef
/sg /setgray ldef
/w /setlinewidth ldef
/j /setlinejoin ldef
/cap /setlinecap ldef
/rc {rectclip} bdef
/rf {rectfill} bdef
% page state control
/pgsv () def
/bpage {/pgsv save def} bdef
/epage {pgsv restore} bdef
/bplot /gsave ldef
/eplot {stroke grestore} bdef
% orientation switch
/portraitMode 0 def /landscapeMode 1 def /rotateMode 2 def
% coordinate system mappings
/dpi2point 0 def
% font control
/FontSize 0 def
/FMS {/FontSize xstore findfont [FontSize 0 0 FontSize neg 0 0]
  makefont setfont} bdef
/ISOLatin1Encoding where {pop /WindowsLatin1Encoding 256 array bdef
ISOLatin1Encoding WindowsLatin1Encoding copy pop
/.notdef/.notdef/quotesinglbase/florin/quotedblbase/ellipsis/dagger
/daggerdbl/circumflex/perthousand/Scaron/guilsinglleft/OE/.notdef/.notdef
/.notdef/.notdef/quoteleft/quoteright/quotedblleft/quotedblright/bullet
/endash/emdash/tilde/trademark/scaron/guilsinglright/oe/.notdef/.notdef
/Ydieresis WindowsLatin1Encoding 128 32 getinterval astore pop}
{/WindowsLatin1Encoding StandardEncoding bdef} ifelse
/reencode {exch dup where {pop load} {pop StandardEncoding} ifelse
  exch dup 3 1 roll findfont dup length dict begin
  { 1 index /FID ne {def}{pop pop} ifelse } forall
  /Encoding exch def currentdict end definefont pop} bdef
/isroman {findfont /CharStrings get /Agrave known} bdef
/FMSR {3 1 roll 1 index dup isroman {reencode} {pop pop} ifelse
  exch FMS} bdef
/csm {1 dpi2point div -1 dpi2point div scale neg translate
 dup landscapeMode eq {pop -90 rotate}
  {rotateMode eq {90 rotate} if} ifelse} bdef
% line types: solid, dotted, dashed, dotdash
/SO { [] 0 setdash } bdef
/DO { [.5 dpi2point mul 4 dpi2point mul] 0 setdash } bdef
/DA { [6 dpi2point mul] 0 setdash } bdef
/DD { [.5 dpi2point mul 4 dpi2point mul 6 dpi2point mul 4
  dpi2point mul] 0 setdash } bdef
% macros for lines and objects
/L {lineto stroke} bdef
/MP {3 1 roll moveto 1 sub {rlineto} repeat} bdef
/AP {{rlineto} repeat} bdef
/PDlw -1 def
/W {/PDlw currentlinewidth def setlinewidth} def
/PP {closepath eofill} bdef
/DP {closepath stroke} bdef
/MR {4 -2 roll moveto dup  0 exch rlineto exch 0 rlineto
  neg 0 exch rlineto closepath} bdef
/FR {MR stroke} bdef
/PR {MR fill} bdef
/L1i {{currentfile picstr readhexstring pop} image} bdef
/tMatrix matrix def
/MakeOval {newpath tMatrix currentmatrix pop translate scale
0 0 1 0 360 arc tMatrix setmatrix} bdef
/FO {MakeOval stroke} bdef
/PO {MakeOval fill} bdef
/PD {currentlinewidth 2 div 0 360 arc fill
   PDlw -1 eq not {PDlw w /PDlw -1 def} if} def
/FA {newpath tMatrix currentmatrix pop translate scale
  0 0 1 5 -2 roll arc tMatrix setmatrix stroke} bdef
/PA {newpath tMatrix currentmatrix pop	translate 0 0 moveto scale
  0 0 1 5 -2 roll arc closepath tMatrix setmatrix fill} bdef
/FAn {newpath tMatrix currentmatrix pop translate scale
  0 0 1 5 -2 roll arcn tMatrix setmatrix stroke} bdef
/PAn {newpath tMatrix currentmatrix pop translate 0 0 moveto scale
  0 0 1 5 -2 roll arcn closepath tMatrix setmatrix fill} bdef
/vradius 0 def /hradius 0 def /lry 0 def
/lrx 0 def /uly 0 def /ulx 0 def /rad 0 def
/MRR {/vradius xdef /hradius xdef /lry xdef /lrx xdef /uly xdef
  /ulx xdef newpath tMatrix currentmatrix pop ulx hradius add uly
  vradius add translate hradius vradius scale 0 0 1 180 270 arc 
  tMatrix setmatrix lrx hradius sub uly vradius add translate
  hradius vradius scale 0 0 1 270 360 arc tMatrix setmatrix
  lrx hradius sub lry vradius sub translate hradius vradius scale
  0 0 1 0 90 arc tMatrix setmatrix ulx hradius add lry vradius sub
  translate hradius vradius scale 0 0 1 90 180 arc tMatrix setmatrix
  closepath} bdef
/FRR {MRR stroke } bdef
/PRR {MRR fill } bdef
/MlrRR {/lry xdef /lrx xdef /uly xdef /ulx xdef /rad lry uly sub 2 div def
  newpath tMatrix currentmatrix pop ulx rad add uly rad add translate
  rad rad scale 0 0 1 90 270 arc tMatrix setmatrix lrx rad sub lry rad
  sub translate rad rad scale 0 0 1 270 90 arc tMatrix setmatrix
  closepath} bdef
/FlrRR {MlrRR stroke } bdef
/PlrRR {MlrRR fill } bdef
/MtbRR {/lry xdef /lrx xdef /uly xdef /ulx xdef /rad lrx ulx sub 2 div def
  newpath tMatrix currentmatrix pop ulx rad add uly rad add translate
  rad rad scale 0 0 1 180 360 arc tMatrix setmatrix lrx rad sub lry rad
  sub translate rad rad scale 0 0 1 0 180 arc tMatrix setmatrix
  closepath} bdef
/FtbRR {MtbRR stroke } bdef
/PtbRR {MtbRR fill } bdef
/stri 6 array def /dtri 6 array def
/smat 6 array def /dmat 6 array def
/tmat1 6 array def /tmat2 6 array def /dif 3 array def
/asub {/ind2 exch def /ind1 exch def dup dup
  ind1 get exch ind2 get sub exch } bdef
/tri_to_matrix {
  2 0 asub 3 1 asub 4 0 asub 5 1 asub
  dup 0 get exch 1 get 7 -1 roll astore } bdef
/compute_transform {
  dmat dtri tri_to_matrix tmat1 invertmatrix 
  smat stri tri_to_matrix tmat2 concatmatrix } bdef
/ds {stri astore pop} bdef
/dt {dtri astore pop} bdef
/db {2 copy /cols xdef /rows xdef mul dup 3 mul string
  currentfile 
  3 index 0 eq {/ASCIIHexDecode filter}
  {/ASCII85Decode filter 3 index 2 eq {/RunLengthDecode filter} if }
  ifelse exch readstring pop
  dup 0 3 index getinterval /rbmap xdef
  dup 2 index dup getinterval /gbmap xdef
  1 index dup 2 mul exch getinterval /bbmap xdef pop pop}bdef
/it {gs np dtri aload pop moveto lineto lineto cp c
  cols rows 8 compute_transform 
  rbmap gbmap bbmap true 3 colorimage gr}bdef
/il {newpath moveto lineto stroke}bdef
currentdict end def
%%EndProlog

%%BeginSetup
MathWorks begin

0 cap

end
%%EndSetup

%%Page: 1 1
%%BeginPageSetup
%%PageBoundingBox:    49   327   545   514
MathWorks begin
bpage
%%EndPageSetup

%%BeginObject: obj1
bplot

/dpi2point 12 def
portraitMode 0588 6168 csm

    0     0  5959  2235 rc
85 dict begin %Colortable dictionary
/c0 { 0.000000 0.000000 0.000000 sr} bdef
/c1 { 1.000000 1.000000 1.000000 sr} bdef
/c2 { 0.900000 0.000000 0.000000 sr} bdef
/c3 { 0.000000 0.820000 0.000000 sr} bdef
/c4 { 0.000000 0.000000 0.800000 sr} bdef
/c5 { 0.910000 0.820000 0.320000 sr} bdef
/c6 { 1.000000 0.260000 0.820000 sr} bdef
/c7 { 0.000000 0.820000 0.820000 sr} bdef
c0
1 j
1 sg
   0    0 5960 2236 rf
6 w
0 1685 4618 0 0 -1685 775 1887 4 MP
PP
-4618 0 0 1685 4618 0 0 -1685 775 1887 5 MP stroke
4 w
DO
SO
6 w
0 sg
 775 1887 mt 5393 1887 L
 775 1887 mt  775  202 L
 775 1887 mt  775 1840 L
%%IncludeResource: font Helvetica
/Helvetica /WindowsLatin1Encoding 120 FMSR

 659 2032 mt 
(0.97) s
1544 1887 mt 1544 1840 L
1428 2032 mt 
(0.98) s
2314 1887 mt 2314 1840 L
2198 2032 mt 
(0.99) s
3084 1887 mt 3084 1840 L
3051 2032 mt 
(1) s
3853 1887 mt 3853 1840 L
3737 2032 mt 
(1.01) s
4623 1887 mt 4623 1840 L
4507 2032 mt 
(1.02) s
5393 1887 mt 5393 1840 L
5277 2032 mt 
(1.03) s
5123 2234 mt 
(x 10) s
%%IncludeResource: font Helvetica
/Helvetica /WindowsLatin1Encoding 80 FMSR

5349 2160 mt 
(6) s
 775 1887 mt  821 1887 L
%%IncludeResource: font Helvetica
/Helvetica /WindowsLatin1Encoding 120 FMSR

 674 1931 mt 
(0) s
 775 1606 mt  821 1606 L
 574 1650 mt 
(0.2) s
 775 1325 mt  821 1325 L
 574 1369 mt 
(0.4) s
 775 1044 mt  821 1044 L
 574 1088 mt 
(0.6) s
 775  763 mt  821  763 L
 574  807 mt 
(0.8) s
 775  482 mt  821  482 L
 674  526 mt 
(1) s
 775  202 mt  821  202 L
 574  246 mt 
(1.2) s
 775  148 mt 
(x 10) s
%%IncludeResource: font Helvetica
/Helvetica /WindowsLatin1Encoding 80 FMSR

1001   74 mt 
(-4) s
gs 775 202 4619 1686 rc
1 1 1 0 1 0 1 0 1 0 1 0 1 0 1 0 
1 0 1 0 1 0 1 0 1 0 1 0 1 0 1 0 
1 0 1 0 1 0 1 0 1 0 1 0 1 0 1 0 
1 0 1 0 1 0 1 0 1 0 1 0 1 0 1 0 
1 0 1 0 1 0 1 0 1 0 1 0 1 0 1 0 
1 0 1 0 1 0 1 0 1 0 1 0 1 0 1 0 
1 0 1 0 1 0 1 0 1 0 1 0 1 0 1 0 
1 0 1 0 1 0 1 0 1 0 1 1 1 0 1 0 
1 0 1 0 1 0 1 0 1 0 1 0 1 0 1 0 
1 0 1 0 1 0 1 0 1 0 1 0 1 0 1 0 
1 0 1 0 1 0 1 0 1 0 1 0 1 1 1 0 
1 0 1 0 1 0 1 0 1 0 1 0 1 0 1 0 
1 0 1 0 1 0 1 0 1 0 1 0 1 0 1 0 
1 0 1 0 1 1 1 0 1 0 1 0 1 0 1 0 
1 0 1 0 1 0 1 0 1 0 1 0 1 0 1 0 
1 0 1 0 1 1 1 0 1 0 1 0 1 0 1 0 
1 0 1 0 1 0 1 0 1 0 1 0 1 0 1 0 
1 0 1 1 1 0 1 0 1 0 1 0 1 0 1 0 
1 0 1 0 1 0 1 0 1 0 1 0 1 0 1 1 
1 0 1 0 1 0 1 0 1 0 1 0 1 0 1 0 
1 0 1 0 1 0 1 0 1 1 1 0 1 0 1 0 
1 0 1 0 1 0 1 0 1 0 1 0 1 0 1 0 
1 1 1 0 1 0 1 0 1 0 1 0 1 0 1 0 
1 0 1 0 1 0 1 0 1 1 1 0 1 0 1 0 
1 0 1 0 1 0 1 0 1 0 1 0 1 0 1 0 
1 1 1 0 1 0 1 0 1 0 1 0 1 0 1 0 
1 0 1 0 1 0 1 1 1 0 1 0 1 0 1 0 
1 0 1 0 1 0 1 0 1 0 1 0 1 0 1 1 
1 0 1 0 1 0 1 0 1 0 1 0 1 0 1 0 
1 0 1 0 1 1 1 0 1 0 1 0 1 0 1 0 
1 0 1 0 1 0 1 0 1 0 1 1 1 0 1 0 
1 0 1 0 1 0 1 0 1 0 1 0 1 0 1 0 
1 0 1 1 1 0 1 0 1 0 1 0 1 0 1 0 
1 0 1 0 1 0 1 0 1 0 1 1 1 0 1 0 
1 0 1 0 1 0 1 0 1 0 1 0 1 0 1 0 
1 0 1 1 1 0 1 0 1 0 1 0 1 0 1 0 
1 0 1 0 1 0 1 0 1 0 1 0 1 1 1 0 
1 0 1 0 1 0 5094 1868 300 MP stroke
1 0 1 0 1 0 1 0 1 0 1 0 1 0 1 0 
1 0 1 1 1 0 1 0 1 0 1 0 1 0 1 0 
1 0 1 0 1 0 1 0 1 0 1 0 1 0 1 0 
1 1 1 0 1 0 1 0 1 0 1 0 1 0 1 0 
1 0 1 0 1 0 1 0 1 0 1 0 1 0 1 0 
1 0 1 1 1 0 1 0 1 0 1 0 1 0 1 0 
1 0 1 0 1 0 1 0 1 0 1 0 1 0 1 0 
1 0 1 0 1 0 1 0 1 0 1 0 1 1 1 0 
1 0 1 0 1 0 1 0 1 0 1 0 1 0 1 0 
1 0 1 0 1 0 1 0 1 0 1 0 1 0 1 0 
1 0 1 0 1 0 1 0 1 0 1 0 1 0 1 0 
1 0 1 0 1 0 1 0 1 0 1 0 1 0 1 0 
1 0 1 0 1 0 1 1 1 0 1 0 1 0 1 0 
1 0 1 0 1 0 1 0 1 0 1 0 1 0 1 0 
1 0 1 0 1 0 1 0 1 0 1 0 1 0 1 0 
1 0 1 0 1 0 1 0 1 0 1 0 1 0 1 0 
1 0 1 0 1 0 1 0 1 0 1 0 1 0 1 0 
1 0 1 -1 1 0 1 0 1 0 1 0 1 0 1 0 
1 0 1 0 1 0 1 0 1 0 1 0 1 0 1 0 
1 0 1 0 1 0 1 0 1 0 1 0 1 0 1 0 
1 0 1 0 1 0 1 0 1 0 1 0 1 0 1 0 
1 0 1 0 1 0 1 0 1 -1 1 0 1 0 1 0 
1 0 1 0 1 0 1 0 1 0 1 0 1 0 1 0 
1 0 1 0 1 0 1 0 1 0 1 0 1 0 1 0 
1 0 1 -1 1 0 1 0 1 0 1 0 1 0 1 0 
1 0 1 0 1 0 1 0 1 0 1 0 1 0 1 0 
1 0 1 -1 1 0 1 0 1 0 1 0 1 0 1 0 
1 0 1 0 1 0 1 0 1 0 1 0 1 0 1 -1 
1 0 1 0 1 0 1 0 1 0 1 0 1 0 1 0 
1 0 1 0 1 0 1 -1 1 0 1 0 1 0 1 0 
1 0 1 0 1 0 1 0 1 0 1 0 1 0 1 -1 
1 0 1 0 1 0 1 0 1 0 1 0 1 0 1 0 
1 0 1 0 1 -1 1 0 1 0 1 0 1 0 1 0 
1 0 1 0 1 0 1 0 1 0 1 -1 1 0 1 0 
1 0 1 0 1 0 1 0 1 0 1 0 1 0 1 -1 
1 0 1 0 1 0 1 0 1 0 1 0 1 0 1 0 
1 0 1 -1 1 0 1 0 1 0 1 0 1 0 1 0 
1 0 1 0 1 0 4795 1874 300 MP stroke
1 -1 1 0 1 0 1 0 1 0 1 0 1 0 1 0 
1 0 1 0 1 -1 1 0 1 0 1 0 1 0 1 0 
1 0 1 0 1 0 1 0 1 -1 1 0 1 0 1 0 
1 0 1 0 1 0 1 0 1 0 1 0 1 -1 1 0 
1 0 1 0 1 0 1 0 1 0 1 0 1 0 1 0 
1 -1 1 0 1 0 1 0 1 0 1 0 1 0 1 0 
1 0 1 0 1 -1 1 0 1 0 1 0 1 0 1 0 
1 0 1 0 1 0 1 0 1 -1 1 0 1 0 1 0 
1 0 1 0 1 0 1 0 1 0 1 0 1 0 1 -1 
1 0 1 0 1 0 1 0 1 0 1 0 1 0 1 0 
1 0 1 0 1 0 1 -1 1 0 1 0 1 0 1 0 
1 0 1 0 1 0 1 0 1 0 1 0 1 0 1 0 
1 -1 1 0 1 0 1 0 1 0 1 0 1 0 1 0 
1 0 1 0 1 0 1 0 1 0 1 0 1 0 1 -1 
1 0 1 0 1 0 1 0 1 0 1 0 1 0 1 0 
1 0 1 0 1 0 1 0 1 0 1 0 1 0 1 0 
1 0 1 0 1 -1 1 0 1 0 1 0 1 0 1 0 
1 0 1 0 1 0 1 0 1 0 1 0 1 0 1 0 
1 0 1 0 1 0 1 0 1 0 1 0 1 0 1 0 
1 0 1 0 1 0 1 0 1 0 1 0 1 0 1 0 
1 0 1 0 1 0 1 0 1 0 1 0 1 0 1 0 
1 0 1 0 1 0 1 0 -1 0 2 0 1 0 1 0 
1 0 1 0 1 0 1 0 1 0 1 0 1 0 1 0 
1 0 1 0 1 0 1 0 1 0 1 0 1 0 1 0 
1 0 1 0 1 0 1 0 1 0 1 0 1 0 1 0 
1 0 1 0 1 0 1 0 1 0 1 0 1 0 1 0 
1 0 1 0 1 0 1 0 1 0 1 1 1 0 1 0 
1 0 1 0 1 0 1 0 1 0 1 0 1 0 1 0 
1 0 1 0 1 0 1 0 1 0 1 0 1 1 1 0 
1 0 1 0 1 0 1 0 1 0 1 0 1 0 1 0 
1 0 1 0 1 1 1 0 1 0 1 0 1 0 1 0 
1 0 1 0 1 0 1 0 1 1 1 0 1 0 1 0 
1 0 1 0 1 0 1 0 1 0 1 0 1 1 1 0 
1 0 1 0 1 0 1 0 1 0 1 0 1 1 1 0 
1 0 1 0 1 0 1 0 1 0 1 0 1 1 1 0 
1 0 1 0 1 0 1 0 1 0 1 1 1 0 1 0 
1 0 1 0 1 0 1 1 1 0 1 0 1 0 1 0 
1 0 1 0 1 1 4497 1876 300 MP stroke
1 0 1 0 1 0 1 0 1 0 1 1 1 0 1 0 
1 0 1 0 1 0 1 1 1 0 1 0 1 0 1 0 
1 1 1 0 1 0 1 0 1 0 1 0 1 1 1 0 
1 0 1 0 1 0 1 1 1 0 1 0 1 0 1 0 
1 1 1 0 1 0 1 0 1 0 1 1 1 0 1 0 
1 0 1 0 1 1 1 0 1 0 1 0 1 0 1 1 
1 0 1 0 1 0 1 0 1 1 1 0 1 0 1 0 
1 1 1 0 1 0 1 0 1 0 1 1 1 0 1 0 
1 0 1 0 1 1 1 0 1 0 1 0 1 1 1 0 
1 0 1 0 1 1 1 0 1 0 1 0 1 0 1 1 
1 0 1 0 1 0 1 1 1 0 1 0 1 0 1 1 
1 0 1 0 1 0 1 0 1 1 1 0 1 0 1 0 
1 1 1 0 1 0 1 0 1 1 1 0 1 0 1 0 
1 1 1 0 1 0 1 0 1 1 1 0 1 0 1 0 
1 1 1 0 1 0 1 0 1 0 1 1 1 0 1 0 
1 0 1 1 1 0 1 0 1 0 1 1 1 0 1 0 
1 0 1 1 1 0 1 0 1 0 1 1 1 0 1 0 
1 0 1 1 1 0 1 0 1 0 1 1 1 0 1 0 
1 0 1 0 1 1 1 0 1 0 1 0 1 1 1 0 
1 0 1 0 1 1 1 0 1 0 1 0 1 1 1 0 
1 0 1 0 1 0 1 1 1 0 1 0 1 0 1 1 
1 0 1 0 1 0 1 0 1 1 1 0 1 0 1 0 
1 1 1 0 1 0 1 0 1 0 1 1 1 0 1 0 
1 0 1 1 1 0 1 0 1 0 1 0 1 1 1 0 
1 0 1 0 1 0 1 1 1 0 1 0 1 0 1 0 
1 1 1 0 1 0 1 0 1 0 1 1 1 0 1 0 
1 0 1 0 1 0 1 1 1 0 1 0 1 0 1 0 
1 1 1 0 1 0 1 0 1 0 1 0 1 1 1 0 
1 0 1 0 1 0 1 0 1 1 1 0 1 0 1 0 
1 0 1 0 1 1 1 0 1 0 1 0 1 0 1 0 
1 0 1 1 1 0 1 0 1 0 1 0 1 0 1 0 
1 0 1 1 1 0 1 0 1 0 1 0 1 0 1 0 
1 0 1 1 1 0 1 0 1 0 1 0 1 0 1 0 
1 0 1 0 1 1 1 0 1 0 1 0 1 0 1 0 
1 0 1 0 1 0 1 0 1 0 1 0 1 1 1 0 
1 0 1 0 1 0 1 0 1 0 1 0 1 0 1 0 
1 0 1 0 1 0 1 0 1 0 1 0 1 0 1 0 
1 0 1 1 1 0 4198 1820 300 MP stroke
1 0 1 0 1 0 1 0 1 0 1 0 1 0 1 0 
1 0 1 0 1 0 1 0 1 0 1 0 1 0 1 0 
1 0 1 0 1 0 1 0 1 0 1 0 1 0 1 0 
1 0 1 0 1 0 1 0 1 0 1 -1 1 0 1 0 
1 0 1 0 1 0 1 0 1 0 1 0 1 0 1 0 
1 0 1 0 1 0 1 0 1 0 1 0 1 0 1 -1 
1 0 1 0 1 0 1 0 1 0 1 0 1 0 1 0 
1 0 1 0 1 0 1 -1 1 0 1 0 1 0 1 0 
1 0 1 0 1 0 1 0 1 -1 1 0 1 0 1 0 
1 0 1 0 1 0 1 -1 1 0 1 0 1 0 1 0 
1 0 1 0 1 -1 1 0 1 0 1 0 1 0 1 0 
1 -1 1 0 1 0 1 0 1 0 1 0 1 -1 1 0 
1 0 1 0 1 0 1 0 1 -1 1 0 1 0 1 0 
1 0 1 -1 1 0 1 0 1 0 1 0 1 -1 1 0 
1 0 1 0 1 -1 1 0 1 0 1 0 1 0 1 -1 
1 0 1 0 1 0 1 -1 1 0 1 0 1 0 1 -1 
1 0 1 0 1 0 1 0 1 -1 1 0 1 0 1 0 
1 -1 1 0 1 0 1 -1 1 0 1 0 1 0 1 -1 
1 0 1 0 1 0 1 -1 1 0 1 0 1 0 1 -1 
1 0 1 0 1 -1 1 0 1 0 1 0 1 -1 1 0 
1 0 1 -1 1 0 1 0 1 0 1 -1 1 0 1 0 
1 -1 1 0 1 0 1 0 1 -1 1 0 1 0 1 -1 
1 0 1 0 1 -1 1 0 1 0 1 0 1 -1 1 0 
1 0 1 -1 1 0 1 0 1 -1 1 0 1 0 1 -1 
1 0 1 0 1 0 1 -1 1 0 1 0 1 -1 1 0 
1 0 1 -1 1 0 1 0 1 -1 1 0 1 0 1 -1 
1 0 1 0 1 0 1 -1 1 0 1 0 1 -1 1 0 
1 0 1 -1 1 0 1 0 1 -1 1 0 1 0 1 -1 
1 0 1 0 1 0 1 -1 1 0 1 0 1 -1 1 0 
1 0 1 -1 1 0 1 0 1 0 1 -1 1 0 1 0 
1 -1 1 0 1 0 1 -1 1 0 1 0 1 0 1 -1 
1 0 1 0 1 -1 1 0 1 0 1 0 1 -1 1 0 
1 0 1 -1 1 0 1 0 1 0 1 -1 1 0 1 0 
1 0 1 -1 1 0 1 0 1 0 1 -1 1 0 1 0 
1 0 1 -1 1 0 1 0 1 0 1 -1 1 0 1 0 
1 0 1 -1 1 0 1 0 1 0 1 0 1 -1 1 0 
1 0 1 0 1 -1 1 0 1 0 1 0 1 0 1 0 
1 -1 1 0 1 0 3899 1882 300 MP stroke
1 0 1 0 1 -1 1 0 1 0 1 0 1 0 1 0 
1 -1 1 0 1 0 1 0 1 0 1 0 1 0 1 0 
1 -1 1 0 1 0 1 0 1 0 1 0 1 0 1 0 
1 0 1 -1 1 0 1 0 1 0 1 0 1 0 1 0 
1 0 1 0 1 0 1 0 1 0 1 0 1 0 1 0 
1 0 1 0 1 0 1 0 1 0 1 0 -1 0 2 0 
1 0 1 0 1 0 1 0 1 0 1 0 1 0 1 0 
1 0 1 0 1 0 1 0 1 0 1 0 1 0 1 0 
1 0 1 0 1 0 1 1 1 0 1 0 1 0 1 0 
1 0 1 0 1 0 1 1 1 0 1 0 1 0 1 0 
1 0 1 1 1 0 1 0 1 0 1 0 1 1 1 0 
1 0 1 0 1 1 1 0 1 0 1 0 1 1 1 0 
1 0 1 0 1 1 1 0 1 0 1 1 1 0 1 0 
1 1 1 0 1 0 1 1 1 0 1 0 1 1 1 0 
1 0 1 1 1 0 1 1 1 0 1 0 1 1 1 0 
1 1 1 0 1 1 1 0 1 1 1 0 1 1 1 0 
1 1 1 0 1 1 1 0 1 1 1 0 1 1 1 0 
1 1 1 0 1 1 1 1 1 0 1 1 1 0 1 1 
1 1 1 0 1 1 1 1 1 0 1 1 1 1 1 0 
1 1 1 1 1 0 1 1 1 1 1 0 1 1 1 1 
1 1 1 0 1 1 1 1 1 1 1 1 1 0 1 1 
1 1 1 1 1 1 1 1 1 0 1 1 1 1 1 1 
1 1 1 1 1 1 1 1 1 1 1 1 1 1 1 0 
1 1 1 1 1 1 1 1 1 1 1 1 1 1 1 1 
1 1 0 1 2 2 1 1 1 1 1 1 1 1 1 1 
1 1 1 1 1 1 0 1 2 2 1 1 1 1 1 1 
1 1 0 1 2 2 1 1 1 1 1 1 0 1 2 2 
1 1 0 1 2 2 1 1 1 1 0 1 2 2 1 1 
0 1 2 2 1 1 0 1 2 2 0 1 2 2 1 1 
0 1 2 2 0 1 2 2 1 1 0 1 2 2 0 1 
2 2 0 1 2 2 0 1 2 2 1 1 0 2 2 2 
0 1 2 2 0 1 2 2 1 1 0 2 2 2 0 1 
2 2 1 1 0 2 2 2 0 1 2 2 0 2 2 2 
1 1 0 2 2 2 0 1 2 2 0 2 2 2 0 1 
2 2 0 2 2 2 1 1 0 2 2 2 0 2 2 2 
0 2 2 2 1 1 0 2 2 2 0 2 2 2 0 2 
2 2 0 2 2 2 0 2 2 2 0 1 1 1 0 1 
1 1 0 1 1 1 3604 1662 300 MP stroke
0 1 1 1 0 1 1 1 0 1 1 1 0 1 1 1 
0 2 2 2 0 2 2 2 0 2 2 2 0 2 2 2 
0 2 2 2 0 2 1 1 0 1 1 1 0 2 2 2 
0 2 2 2 0 2 1 1 0 2 2 2 0 2 2 2 
0 2 1 1 0 1 1 1 0 2 2 2 0 2 1 1 
0 1 1 1 0 2 2 2 0 2 1 1 0 2 2 2 
0 2 1 1 0 2 2 2 0 2 1 1 0 2 2 2 
0 2 1 1 0 2 2 2 0 3 2 2 0 2 1 1 
0 2 2 2 0 3 2 2 0 3 2 2 0 2 1 1 
0 1 1 1 0 2 1 1 0 1 1 1 0 2 1 1 
0 1 1 1 0 2 1 1 0 1 1 1 0 2 1 1 
0 1 1 1 0 2 1 1 0 1 1 1 0 3 2 2 
0 3 2 2 0 2 1 1 0 2 1 1 0 1 1 1 
0 3 2 2 0 2 1 1 0 3 2 2 0 2 1 1 
0 2 1 1 0 1 1 1 0 2 1 1 0 2 1 1 
0 1 1 1 0 2 1 1 0 2 1 1 0 1 1 1 
0 2 1 1 0 3 2 2 0 2 1 1 0 2 1 1 
0 2 1 1 0 1 1 1 0 2 1 1 0 2 1 1 
0 2 1 1 0 1 1 1 0 2 1 1 0 2 1 1 
0 2 1 1 0 1 1 1 0 2 1 1 0 2 1 1 
0 2 1 1 0 2 1 1 0 1 1 1 0 2 1 1 
0 2 1 1 0 2 1 1 0 2 1 1 0 2 1 1 
0 2 1 1 0 1 1 1 0 2 1 1 0 2 1 1 
0 2 1 1 0 2 1 1 0 1 1 1 0 2 1 1 
0 2 1 1 0 2 1 1 0 2 1 1 0 2 1 1 
0 2 1 1 0 2 1 1 0 2 1 1 0 2 1 1 
0 2 1 1 0 1 1 1 0 2 1 1 0 2 1 1 
0 2 1 1 0 2 1 1 0 2 1 1 0 2 1 1 
0 2 1 1 0 2 1 1 0 2 1 1 0 2 1 1 
0 2 1 1 0 2 1 1 0 2 1 1 0 2 1 1 
0 2 1 1 0 2 1 1 0 2 1 1 0 2 1 1 
0 2 1 1 0 2 1 1 0 2 1 1 0 2 1 1 
0 2 1 1 0 2 1 1 0 2 1 1 0 2 1 1 
0 2 1 1 0 2 1 1 0 2 1 1 0 2 1 1 
0 2 1 1 0 2 1 1 0 2 1 1 0 2 1 1 
0 2 1 1 0 2 1 1 0 3 1 1 0 2 1 1 
0 2 1 1 0 2 1 1 0 2 1 1 0 2 1 1 
0 2 1 1 0 2 3431 1204 300 MP stroke
1 1 0 2 1 1 0 2 1 1 0 2 1 1 0 2 
1 1 0 2 1 1 0 2 1 1 0 3 1 1 0 2 
1 1 0 2 1 1 0 2 1 1 0 2 1 1 0 2 
1 1 0 2 1 1 0 2 1 1 0 2 1 1 0 2 
1 1 0 2 1 1 0 3 1 1 0 2 1 1 0 2 
1 1 0 2 1 1 0 2 1 1 0 2 1 1 0 2 
1 1 0 2 1 1 0 2 1 1 0 2 1 1 0 2 
1 1 0 3 1 1 0 2 1 1 0 2 1 1 0 2 
1 1 0 2 1 1 0 2 1 1 0 2 1 1 0 2 
1 1 0 2 1 1 0 2 1 1 0 3 1 1 0 2 
1 1 0 2 1 1 0 2 1 1 0 2 1 1 0 2 
1 1 0 2 1 1 0 2 1 1 0 2 1 1 0 2 
1 1 0 2 1 1 0 3 1 1 0 2 1 1 0 2 
1 1 0 2 1 1 0 2 1 1 0 2 1 1 0 2 
1 1 0 2 1 1 0 2 1 1 0 2 1 1 0 2 
1 1 0 2 1 1 0 2 1 1 0 2 1 1 0 2 
1 1 0 3 1 1 0 2 1 1 0 2 1 1 0 2 
1 1 0 2 1 1 0 2 1 1 0 2 1 1 0 2 
1 1 0 2 1 1 0 2 1 1 0 2 1 1 0 2 
1 1 0 2 1 1 0 2 1 1 0 2 1 1 0 2 
1 1 0 2 1 1 0 2 1 1 0 2 1 1 0 2 
1 1 0 2 1 1 0 2 1 1 0 2 1 1 0 2 
1 1 0 2 1 1 0 2 1 1 0 2 1 1 0 1 
1 1 0 2 1 1 0 2 1 1 0 2 1 1 0 2 
1 1 0 2 1 1 0 2 1 1 0 2 1 1 0 2 
1 1 0 2 1 1 0 2 1 1 0 2 1 1 0 2 
1 1 0 1 1 1 0 2 1 1 0 2 1 1 0 2 
1 1 0 2 1 1 0 2 1 1 0 2 1 1 0 2 
1 1 0 1 1 1 0 2 1 1 0 2 1 1 0 2 
1 1 0 2 1 1 0 2 1 1 0 1 1 1 0 2 
1 1 0 2 1 1 0 2 1 1 0 2 1 1 0 1 
1 1 0 2 1 1 0 2 1 1 0 2 1 1 0 1 
1 1 0 2 1 1 0 2 1 1 0 2 1 1 0 1 
1 1 0 2 1 1 0 3 2 2 0 2 1 1 0 2 
1 1 0 2 1 1 0 1 1 1 0 2 1 1 0 2 
1 1 0 1 1 1 0 3 2 2 0 2 1 1 0 2 
1 1 0 1 1 1 0 3 2 2 0 2 1 1 0 2 
1 1 0 1 1 1 3278 755 300 MP stroke
0 3 2 2 0 3 2 2 0 3 2 2 0 3 2 2 
0 3 2 2 0 3 2 2 0 3 2 2 0 2 1 1 
0 2 2 2 0 3 2 2 0 2 1 1 0 2 2 2 
0 2 1 1 0 2 2 2 0 2 1 1 0 2 2 2 
0 2 1 1 0 1 1 1 0 2 2 2 0 3 2 2 
0 2 2 2 0 2 1 1 0 1 1 1 0 2 2 2 
0 2 2 2 0 2 1 1 0 1 1 1 0 2 2 2 
0 2 2 2 0 2 2 2 0 2 2 2 0 2 2 2 
0 2 2 2 0 2 2 2 0 2 2 2 0 2 2 2 
0 2 2 2 0 2 2 2 0 1 2 2 0 2 2 2 
0 2 2 2 0 1 2 2 0 2 2 2 0 1 2 2 
0 2 2 2 1 1 0 2 2 2 0 1 2 2 1 1 
0 2 2 2 0 1 2 2 0 1 2 2 0 1 2 2 
0 1 2 2 0 1 2 2 0 1 2 2 0 1 2 2 
1 1 0 1 2 2 1 1 0 1 2 2 1 1 0 1 
2 2 1 1 1 1 0 1 2 2 1 1 1 1 1 1 
1 1 0 1 2 2 1 1 1 1 1 1 1 1 1 1 
1 1 1 1 1 1 1 1 1 1 1 1 1 1 1 1 
1 1 1 1 1 1 1 1 1 0 1 1 1 1 1 1 
1 1 1 1 1 0 1 1 1 1 1 1 1 0 1 1 
1 1 1 0 1 1 1 1 1 0 1 1 1 0 1 1 
1 1 1 0 1 1 1 0 1 1 1 0 1 1 1 0 
1 1 1 0 1 0 1 1 1 0 1 1 1 0 1 0 
1 1 1 0 1 0 1 0 1 1 1 0 1 0 1 0 
1 1 1 0 1 0 1 0 1 0 1 0 1 0 1 0 
1 1 1 0 1 0 1 0 1 0 1 0 1 0 1 0 
1 0 1 -1 1 0 1 0 1 0 1 0 1 0 1 0 
1 0 1 -1 1 0 1 0 1 0 1 -1 1 0 1 0 
1 0 1 -1 1 0 1 0 1 -1 1 0 1 -1 1 0 
1 0 1 -1 1 0 1 -1 1 0 1 -1 1 0 1 -1 
1 0 1 -1 1 -1 1 0 1 -1 1 0 1 -1 1 -1 
1 0 1 -1 1 -1 1 0 1 -1 1 -1 1 -1 1 -1 
1 0 1 -1 1 -1 1 -1 1 -1 1 -1 1 0 1 -1 
1 -1 1 -1 1 -1 1 -1 1 -1 1 -1 1 -1 1 -1 
1 -1 1 -1 1 -1 1 -1 1 -1 0 -1 2 -2 1 -1 
1 -1 1 -1 1 -1 0 -1 2 -2 1 -1 1 -1 0 -1 
2 -2 1 -1 1 -1 0 -1 2 -2 1 -1 0 -1 2 -2 
0 -1 2 -2 1 -1 2989 550 300 MP stroke
0 -1 2 -2 0 -1 2 -2 0 -1 2 -2 0 -1 2 -2 
0 -1 2 -2 0 -1 2 -2 1 -1 0 -2 2 -2 1 -1 
0 -2 2 -2 1 -1 0 -2 2 -2 1 -1 0 -2 2 -2 
1 -1 0 -2 2 -2 0 -2 2 -2 0 -1 2 -2 0 -2 
2 -2 0 -2 2 -2 0 -1 2 -2 0 -2 2 -2 0 -2 
2 -2 0 -2 2 -2 0 -2 2 -2 0 -2 2 -2 0 -2 
2 -2 0 -2 2 -2 0 -2 2 -2 0 -2 2 -2 0 -2 
2 -2 0 -2 1 -1 0 -1 1 -1 0 -2 2 -2 0 -2 
2 -2 0 -2 1 -1 0 -2 2 -2 0 -2 2 -2 0 -2 
1 -1 0 -2 2 -2 0 -2 1 -1 0 -1 1 -1 0 -2 
2 -2 0 -2 1 -1 0 -2 2 -2 0 -3 2 -2 0 -2 
1 -1 0 -2 2 -2 0 -3 2 -2 0 -2 1 -1 0 -2 
2 -2 0 -3 2 -2 0 -3 2 -2 0 -3 2 -2 0 -3 
2 -2 0 -3 2 -2 0 -3 2 -2 0 -2 1 -1 0 -2 
1 -1 0 -1 1 -1 0 -3 2 -2 0 -2 1 -1 0 -2 
1 -1 0 -1 1 -1 0 -3 2 -2 0 -2 1 -1 0 -2 
1 -1 0 -1 1 -1 0 -2 1 -1 0 -2 1 -1 0 -1 
1 -1 0 -2 1 -1 0 -3 2 -2 0 -2 1 -1 0 -2 
1 -1 0 -2 1 -1 0 -1 1 -1 0 -2 1 -1 0 -2 
1 -1 0 -2 1 -1 0 -1 1 -1 0 -2 1 -1 0 -2 
1 -1 0 -2 1 -1 0 -1 1 -1 0 -2 1 -1 0 -2 
1 -1 0 -2 1 -1 0 -2 1 -1 0 -1 1 -1 0 -2 
1 -1 0 -2 1 -1 0 -2 1 -1 0 -2 1 -1 0 -2 
1 -1 0 -2 1 -1 0 -1 1 -1 0 -2 1 -1 0 -2 
1 -1 0 -2 1 -1 0 -2 1 -1 0 -2 1 -1 0 -2 
1 -1 0 -2 1 -1 0 -1 1 -1 0 -2 1 -1 0 -2 
1 -1 0 -2 1 -1 0 -2 1 -1 0 -2 1 -1 0 -2 
1 -1 0 -2 1 -1 0 -2 1 -1 0 -2 1 -1 0 -2 
1 -1 0 -2 1 -1 0 -2 1 -1 0 -2 1 -1 0 -2 
1 -1 0 -2 1 -1 0 -2 1 -1 0 -2 1 -1 0 -2 
1 -1 0 -2 1 -1 0 -2 1 -1 0 -2 1 -1 0 -2 
1 -1 0 -2 1 -1 0 -2 1 -1 0 -2 1 -1 0 -2 
1 -1 0 -1 1 -1 0 -2 1 -1 0 -2 1 -1 0 -2 
1 -1 0 -2 1 -1 0 -3 1 -1 0 -2 1 -1 0 -2 
1 -1 0 -2 1 -1 0 -2 1 -1 0 -2 1 -1 0 -2 
1 -1 0 -2 1 -1 0 -2 1 -1 0 -2 1 -1 0 -2 
1 -1 0 -2 1 -1 0 -2 1 -1 0 -2 1 -1 0 -2 
1 -1 0 -2 1 -1 2791 1033 300 MP stroke
0 -2 1 -1 0 -2 1 -1 0 -3 1 -1 0 -2 1 -1 
0 -2 1 -1 0 -2 1 -1 0 -2 1 -1 0 -2 1 -1 
0 -2 1 -1 0 -2 1 -1 0 -2 1 -1 0 -2 1 -1 
0 -2 1 -1 0 -3 1 -1 0 -2 1 -1 0 -2 1 -1 
0 -2 1 -1 0 -2 1 -1 0 -2 1 -1 0 -2 1 -1 
0 -2 1 -1 0 -2 1 -1 0 -2 1 -1 0 -2 1 -1 
0 -3 1 -1 0 -2 1 -1 0 -2 1 -1 0 -2 1 -1 
0 -2 1 -1 0 -2 1 -1 0 -2 1 -1 0 -2 1 -1 
0 -2 1 -1 0 -2 1 -1 0 -3 1 -1 0 -2 1 -1 
0 -2 1 -1 0 -2 1 -1 0 -2 1 -1 0 -2 1 -1 
0 -2 1 -1 0 -2 1 -1 0 -2 1 -1 0 -2 1 -1 
0 -2 1 -1 0 -3 1 -1 0 -2 1 -1 0 -2 1 -1 
0 -2 1 -1 0 -2 1 -1 0 -2 1 -1 0 -2 1 -1 
0 -2 1 -1 0 -2 1 -1 0 -2 1 -1 0 -2 1 -1 
0 -2 1 -1 0 -2 1 -1 0 -3 1 -1 0 -2 1 -1 
0 -2 1 -1 0 -2 1 -1 0 -2 1 -1 0 -2 1 -1 
0 -2 1 -1 0 -2 1 -1 0 -2 1 -1 0 -2 1 -1 
0 -2 1 -1 0 -2 1 -1 0 -2 1 -1 0 -2 1 -1 
0 -2 1 -1 0 -2 1 -1 0 -2 1 -1 0 -2 1 -1 
0 -2 1 -1 0 -2 1 -1 0 -2 1 -1 0 -2 1 -1 
0 -2 1 -1 0 -2 1 -1 0 -2 1 -1 0 -2 1 -1 
0 -2 1 -1 0 -2 1 -1 0 -2 1 -1 0 -2 1 -1 
0 -2 1 -1 0 -2 1 -1 0 -2 1 -1 0 -2 1 -1 
0 -2 1 -1 0 -2 1 -1 0 -2 1 -1 0 -2 1 -1 
0 -2 1 -1 0 -2 1 -1 0 -2 1 -1 0 -2 1 -1 
0 -2 1 -1 0 -2 1 -1 0 -1 1 -1 0 -2 1 -1 
0 -2 1 -1 0 -2 1 -1 0 -2 1 -1 0 -2 1 -1 
0 -2 1 -1 0 -2 1 -1 0 -2 1 -1 0 -1 1 -1 
0 -2 1 -1 0 -2 1 -1 0 -2 1 -1 0 -2 1 -1 
0 -2 1 -1 0 -1 1 -1 0 -2 1 -1 0 -2 1 -1 
0 -2 1 -1 0 -2 1 -1 0 -2 1 -1 0 -1 1 -1 
0 -2 1 -1 0 -2 1 -1 0 -2 1 -1 0 -2 1 -1 
0 -1 1 -1 0 -2 1 -1 0 -2 1 -1 0 -2 1 -1 
0 -1 1 -1 0 -2 1 -1 0 -2 1 -1 0 -2 1 -1 
0 -1 1 -1 0 -2 1 -1 0 -3 2 -2 0 -2 1 -1 
0 -2 1 -1 0 -2 1 -1 0 -1 1 -1 0 -2 1 -1 
0 -2 1 -1 0 -1 1 -1 0 -2 1 -1 0 -2 1 -1 
0 -1 1 -1 0 -3 2641 1481 300 MP stroke
2 -2 0 -2 1 -1 0 -3 2 -2 0 -2 1 -1 0 -2 
1 -1 0 -1 1 -1 0 -3 2 -2 0 -3 2 -2 0 -2 
1 -1 0 -2 1 -1 0 -1 1 -1 0 -2 1 -1 0 -1 
1 -1 0 -2 1 -1 0 -1 1 -1 0 -2 1 -1 0 -1 
1 -1 0 -2 1 -1 0 -1 1 -1 0 -2 1 -1 0 -2 
2 -2 0 -3 2 -2 0 -3 2 -2 0 -2 1 -1 0 -2 
2 -2 0 -3 2 -2 0 -2 1 -1 0 -2 2 -2 0 -2 
1 -1 0 -2 2 -2 0 -2 1 -1 0 -2 2 -2 0 -2 
1 -1 0 -1 1 -1 0 -2 2 -2 0 -2 1 -1 0 -1 
1 -1 0 -2 2 -2 0 -2 1 -1 0 -2 2 -2 0 -2 
2 -2 0 -2 1 -1 0 -1 1 -1 0 -2 2 -2 0 -2 
2 -2 0 -2 1 -1 0 -2 2 -2 0 -2 2 -2 0 -2 
2 -2 0 -2 2 -2 0 -2 2 -2 0 -2 1 -1 0 -1 
1 -1 0 -1 1 -1 0 -1 1 -1 0 -1 1 -1 0 -1 
1 -1 0 -1 1 -1 0 -1 1 -1 1 -1 0 -2 2 -2 
0 -2 2 -2 0 -2 2 -2 0 -2 2 -2 0 -2 2 -2 
0 -1 2 -2 0 -2 2 -2 0 -2 2 -2 0 -1 2 -2 
0 -2 2 -2 0 -1 2 -2 0 -2 2 -2 0 -1 2 -2 
0 -2 2 -2 1 -1 0 -2 2 -2 1 -1 0 -2 2 -2 
1 -1 0 -2 2 -2 0 -1 2 -2 0 -1 2 -2 1 -1 
0 -2 2 -2 0 -1 2 -2 0 -1 2 -2 0 -1 2 -2 
0 -1 2 -2 0 -1 2 -2 0 -1 2 -2 1 -1 0 -1 
2 -2 0 -1 2 -2 1 -1 0 -1 2 -2 1 -1 0 -1 
2 -2 1 -1 0 -1 2 -2 1 -1 0 -1 2 -2 1 -1 
1 -1 0 -1 2 -2 1 -1 1 -1 1 -1 0 -1 2 -2 
1 -1 1 -1 1 -1 0 -1 2 -2 1 -1 1 -1 1 -1 
1 -1 1 -1 1 -1 1 -1 1 -1 0 -1 2 -2 1 -1 
1 -1 1 -1 1 -1 1 -1 1 -1 1 -1 1 -1 1 -1 
1 -1 1 -1 1 -1 1 -1 1 0 1 -1 1 -1 1 -1 
1 -1 1 -1 1 -1 1 -1 1 -1 1 0 1 -1 1 -1 
1 -1 1 -1 1 -1 1 0 1 -1 1 -1 1 -1 1 -1 
1 0 1 -1 1 -1 1 -1 1 0 1 -1 1 -1 1 0 
1 -1 1 -1 1 -1 1 0 1 -1 1 -1 1 0 1 -1 
1 0 1 -1 1 -1 1 0 1 -1 1 0 1 -1 1 -1 
1 0 1 -1 1 0 1 -1 1 0 1 -1 1 0 1 -1 
1 0 1 -1 1 0 1 -1 1 0 1 -1 1 0 1 -1 
1 0 1 -1 1 0 1 -1 1 0 1 0 1 -1 1 0 
1 -1 1 0 1 0 2377 1875 300 MP stroke
1 -1 1 0 1 0 1 -1 1 0 1 0 1 -1 1 0 
1 0 1 -1 1 0 1 0 1 -1 1 0 1 0 1 0 
1 -1 1 0 1 0 1 0 1 -1 1 0 1 0 1 0 
1 -1 1 0 1 0 1 0 1 0 1 -1 1 0 1 0 
1 0 1 0 1 0 1 -1 1 0 1 0 1 0 1 0 
1 0 1 0 1 0 1 -1 1 0 1 0 1 0 1 0 
1 0 1 0 1 0 1 0 1 0 1 0 1 0 1 0 
1 0 1 0 1 0 1 0 1 0 1 0 1 0 -1 0 
2 0 1 0 1 0 1 0 1 0 1 0 1 0 1 0 
1 0 1 0 1 0 1 0 1 0 1 0 1 0 1 0 
1 0 1 0 1 0 1 0 1 0 1 1 1 0 1 0 
1 0 1 0 1 0 1 0 1 0 1 0 1 1 1 0 
1 0 1 0 1 0 1 0 1 0 1 0 1 1 1 0 
1 0 1 0 1 0 1 0 1 1 1 0 1 0 1 0 
1 0 1 1 1 0 1 0 1 0 1 0 1 1 1 0 
1 0 1 0 1 0 1 1 1 0 1 0 1 0 1 0 
1 1 1 0 1 0 1 0 1 1 1 0 1 0 1 0 
1 1 1 0 1 0 1 0 1 1 1 0 1 0 1 0 
1 1 1 0 1 0 1 0 1 1 1 0 1 0 1 0 
1 1 1 0 1 0 1 1 1 0 1 0 1 0 1 1 
1 0 1 0 1 1 1 0 1 0 1 0 1 1 1 0 
1 0 1 1 1 0 1 0 1 1 1 0 1 0 1 0 
1 1 1 0 1 0 1 1 1 0 1 0 1 1 1 0 
1 0 1 0 1 1 1 0 1 0 1 1 1 0 1 0 
1 1 1 0 1 0 1 1 1 0 1 0 1 1 1 0 
1 0 1 0 1 1 1 0 1 0 1 1 1 0 1 0 
1 1 1 0 1 0 1 1 1 0 1 0 1 1 1 0 
1 0 1 0 1 1 1 0 1 0 1 1 1 0 1 0 
1 1 1 0 1 0 1 1 1 0 1 0 1 0 1 1 
1 0 1 0 1 1 1 0 1 0 1 1 1 0 1 0 
1 0 1 1 1 0 1 0 1 1 1 0 1 0 1 0 
1 1 1 0 1 0 1 1 1 0 1 0 1 0 1 1 
1 0 1 0 1 1 1 0 1 0 1 0 1 1 1 0 
1 0 1 0 1 1 1 0 1 0 1 0 1 1 1 0 
1 0 1 1 1 0 1 0 1 0 1 1 1 0 1 0 
1 0 1 1 1 0 1 0 1 0 1 0 1 1 1 0 
1 0 1 0 1 1 1 0 1 0 1 0 1 0 1 1 
1 0 1 0 1 0 2079 1831 300 MP stroke
1 1 1 0 1 0 1 0 1 0 1 1 1 0 1 0 
1 0 1 0 1 1 1 0 1 0 1 0 1 0 1 0 
1 1 1 0 1 0 1 0 1 0 1 0 1 1 1 0 
1 0 1 0 1 0 1 0 1 1 1 0 1 0 1 0 
1 0 1 0 1 0 1 1 1 0 1 0 1 0 1 0 
1 0 1 0 1 1 1 0 1 0 1 0 1 0 1 0 
1 0 1 0 1 0 1 1 1 0 1 0 1 0 1 0 
1 0 1 0 1 0 1 0 1 0 1 0 1 0 1 1 
1 0 1 0 1 0 1 0 1 0 1 0 1 0 1 0 
1 0 1 0 1 0 1 0 1 0 1 0 1 0 1 0 
1 0 1 1 1 0 1 0 1 0 1 0 1 0 1 0 
1 0 1 0 1 0 1 0 1 0 1 0 1 0 1 0 
1 0 1 0 1 0 1 0 1 0 1 0 1 0 1 0 
1 0 1 0 1 0 1 0 1 0 1 0 1 0 1 0 
1 -1 1 0 1 0 1 0 1 0 1 0 1 0 1 0 
1 0 1 0 1 0 1 0 1 0 1 0 1 0 1 0 
1 0 1 0 1 0 1 -1 1 0 1 0 1 0 1 0 
1 0 1 0 1 0 1 0 1 0 1 0 1 -1 1 0 
1 0 1 0 1 0 1 0 1 0 1 0 1 0 1 0 
1 -1 1 0 1 0 1 0 1 0 1 0 1 0 1 0 
1 -1 1 0 1 0 1 0 1 0 1 0 1 0 1 0 
1 -1 1 0 1 0 1 0 1 0 1 0 1 0 1 -1 
1 0 1 0 1 0 1 0 1 0 1 -1 1 0 1 0 
1 0 1 0 1 0 1 -1 1 0 1 0 1 0 1 0 
1 0 1 -1 1 0 1 0 1 0 1 0 1 -1 1 0 
1 0 1 0 1 0 1 0 1 -1 1 0 1 0 1 0 
1 0 1 -1 1 0 1 0 1 0 1 0 1 -1 1 0 
1 0 1 0 1 0 1 -1 1 0 1 0 1 0 1 0 
1 -1 1 0 1 0 1 0 1 -1 1 0 1 0 1 0 
1 0 1 -1 1 0 1 0 1 0 1 -1 1 0 1 0 
1 0 1 0 1 -1 1 0 1 0 1 0 1 -1 1 0 
1 0 1 0 1 -1 1 0 1 0 1 0 1 0 1 -1 
1 0 1 0 1 0 1 -1 1 0 1 0 1 0 1 -1 
1 0 1 0 1 0 1 -1 1 0 1 0 1 0 1 0 
1 -1 1 0 1 0 1 0 1 -1 1 0 1 0 1 0 
1 -1 1 0 1 0 1 0 1 -1 1 0 1 0 1 0 
1 -1 1 0 1 0 1 0 1 -1 1 0 1 0 1 0 
1 0 1 -1 1 0 1780 1853 300 MP stroke
1 0 1 0 1 -1 1 0 1 0 1 0 1 -1 1 0 
1 0 1 0 1 -1 1 0 1 0 1 0 1 -1 1 0 
1 0 1 0 1 -1 1 0 1 0 1 0 1 0 1 -1 
1 0 1 0 1 0 1 -1 1 0 1 0 1 0 1 -1 
1 0 1 0 1 0 1 0 1 -1 1 0 1 0 1 0 
1 -1 1 0 1 0 1 0 1 -1 1 0 1 0 1 0 
1 0 1 -1 1 0 1 0 1 0 1 -1 1 0 1 0 
1 0 1 0 1 -1 1 0 1 0 1 0 1 0 1 -1 
1 0 1 0 1 0 1 0 1 -1 1 0 1 0 1 0 
1 0 1 -1 1 0 1 0 1 0 1 0 1 -1 1 0 
1 0 1 0 1 0 1 -1 1 0 1 0 1 0 1 0 
1 -1 1 0 1 0 1 0 1 0 1 0 1 -1 1 0 
1 0 1 0 1 0 1 -1 1 0 1 0 1 0 1 0 
1 0 1 -1 1 0 1 0 1 0 1 0 1 0 1 -1 
1 0 1 0 1 0 1 0 1 0 1 -1 1 0 1 0 
1 0 1 0 1 0 1 0 1 -1 1 0 1 0 1 0 
1 0 1 0 1 0 1 -1 1 0 1 0 1 0 1 0 
1 0 1 0 1 0 1 -1 1 0 1 0 1 0 1 0 
1 0 1 0 1 0 1 -1 1 0 1 0 1 0 1 0 
1 0 1 0 1 0 1 0 1 -1 1 0 1 0 1 0 
1 0 1 0 1 0 1 0 1 0 1 0 1 0 1 -1 
1 0 1 0 1 0 1 0 1 0 1 0 1 0 1 0 
1 0 1 0 1 0 1 -1 1 0 1 0 1 0 1 0 
1 0 1 0 1 0 1 0 1 0 1 0 1 0 1 0 
1 0 1 0 1 0 1 0 1 -1 1 0 1 0 1 0 
1 0 1 0 1 0 1 0 1 0 1 0 1 0 1 0 
1 0 1 0 1 0 1 0 1 0 1 0 1 0 1 0 
1 0 1 0 1 0 1 0 1 0 1 0 1 0 1 0 
1 0 1 0 1 0 1 0 1 0 1 0 1 0 1 0 
1 0 1 0 1 0 1 0 -1 0 2 0 1 0 1 0 
1 0 1 0 1 0 1 0 1 0 1 0 1 0 1 0 
1 0 1 0 1 0 1 0 1 0 1 0 1 0 1 0 
1 0 1 0 1 0 1 0 1 0 1 0 1 0 1 0 
1 0 1 0 1 0 1 0 1 0 1 0 1 0 1 0 
1 0 1 0 1 0 1 0 1 0 1 0 1 0 1 1 
1 0 1 0 1 0 1 0 1 0 1 0 1 0 1 0 
1 0 1 0 1 0 1 0 1 0 1 0 1 0 1 0 
1 0 1 0 1 1 1482 1884 300 MP stroke
1 0 1 0 1 0 1 0 1 0 1 0 1 0 1 0 
1 0 1 0 1 0 1 0 1 0 1 0 1 1 1 0 
1 0 1 0 1 0 1 0 1 0 1 0 1 0 1 0 
1 0 1 0 1 0 1 1 1 0 1 0 1 0 1 0 
1 0 1 0 1 0 1 0 1 0 1 0 1 0 1 1 
1 0 1 0 1 0 1 0 1 0 1 0 1 0 1 0 
1 0 1 0 1 1 1 0 1 0 1 0 1 0 1 0 
1 0 1 0 1 0 1 0 1 1 1 0 1 0 1 0 
1 0 1 0 1 0 1 0 1 0 1 0 1 1 1 0 
1 0 1 0 1 0 1 0 1 0 1 0 1 0 1 0 
1 1 1 0 1 0 1 0 1 0 1 0 1 0 1 0 
1 0 1 0 1 1 1 0 1 0 1 0 1 0 1 0 
1 0 1 0 1 0 1 0 1 1 1 0 1 0 1 0 
1 0 1 0 1 0 1 0 1 0 1 0 1 1 1 0 
1 0 1 0 1 0 1 0 1 0 1 0 1 0 1 0 
1 1 1 0 1 0 1 0 1 0 1 0 1 0 1 0 
1 0 1 0 1 1 1 0 1 0 1 0 1 0 1 0 
1 0 1 0 1 0 1 0 1 1 1 0 1 0 1 0 
1 0 1 0 1 0 1 0 1 0 1 0 1 0 1 1 
1 0 1 0 1 0 1 0 1 0 1 0 1 0 1 0 
1 0 1 0 1 1 1 0 1 0 1 0 1 0 1 0 
1 0 1 0 1 0 1 0 1 0 1 1 1 0 1 0 
1 0 1 0 1 0 1 0 1 0 1 0 1 0 1 0 
1 0 1 0 1 1 1 0 1 0 1 0 1 0 1 0 
1 0 1 0 1 0 1 0 1 0 1 0 1 0 1 0 
1 1 1 0 1 0 1 0 1 0 1 0 1 0 1 0 
1 0 1 0 1 0 1 0 1 0 1 0 1 0 1 0 
1 1 1 0 1 0 1 0 1 0 1 0 1 0 1 0 
1 0 1 0 1 0 1 0 1 0 1 0 1 0 1 0 
1 0 1 0 1 0 1 0 1 0 1 1 1 0 1 0 
1 0 1 0 1 0 1 0 1 0 1 0 1 0 1 0 
1 0 1 0 1 0 1 0 1 0 1 0 1 0 1 0 
1 0 1 0 1 0 1 0 1 0 1 0 1 0 1 0 
1 0 1 0 1 0 1 0 1 0 1 0 1 0 1 0 
1 1 1 0 1 0 1 0 1 0 1 0 1 0 1 0 
1 0 1 0 1 0 1 0 1 0 1 0 1 0 1 0 
1 0 1 0 1 0 1 0 1 0 1 0 1 0 1 0 
1 0 1 0 1 0 1183 1863 300 MP stroke
1 0 1 0 1 0 1 0 1 0 1 0 1 0 1 0 
1 0 1 0 1 0 1 -1 1 0 1 0 1 0 1 0 
1 0 1 0 1 0 1 0 1 0 1 0 1 0 1 0 
1 0 1 0 1 0 1 0 1 0 1 0 1 0 1 0 
1 0 1 0 1 0 1 0 1 0 1 0 1 0 1 0 
1 0 1 0 1 0 1 0 1 0 1 0 1 0 1 -1 
1 0 1 0 1 0 1 0 1 0 1 0 1 0 1 0 
1 0 1 0 1 0 1 0 1 0 1 0 1 0 1 0 
1 0 1 0 1 0 1 0 1 0 1 -1 1 0 1 0 
1 0 1 0 1 0 1 0 1 0 1 0 1 0 1 0 
1 0 1 0 1 0 1 0 1 0 1 0 1 -1 1 0 
1 0 1 0 1 0 1 0 1 0 1 0 1 0 1 0 
1 0 1 0 1 0 1 0 1 0 1 -1 1 0 1 0 
1 0 1 0 1 0 1 0 1 0 1 0 1 0 1 0 
1 0 1 0 1 0 1 -1 1 0 1 0 1 0 1 0 
1 0 1 0 1 0 1 0 1 0 1 0 1 0 1 0 
1 -1 1 0 1 0 1 0 1 0 1 0 1 0 1 0 
1 0 1 0 1 0 1 0 1 -1 1 0 1 0 1 0 
1 0 1 0 1 0 1 0 1 0 1 0 1 0 1 0 
1 -1 1 0 1 0 1 0 1 0 1 0 1 0 1 0 
1 0 1 0 1 0 1 0 1 -1 1 0 1 0 1 0 
1 0 1 0 1 0 1 0 1 0 1 0 1 0 1 -1 
1 0 1 0 1 0 1 0 1 0 1 0 1 0 1 0 
1 0 1 0 1 -1 1 0 1 0 1 0 1 0 1 0 
1 0 1 0 1 0 1 0 1 0 1 0 1 -1 1 0 
1 0 1 0 1 0 1 0 1 0 1 0 1 0 1 0 
1 0 1 -1 1 0 1 0 1 0 1 0 1 0 1 0 
1 0 1 0 1 0 1 0 1 0 1 -1 1 0 1 0 
1 0 1 0 1 0 1 0 1 0 1 0 1 0 1 0 
1 0 1 -1 1 0 1 0 1 0 1 0 1 0 1 0 
1 0 1 0 1 0 1 0 1 0 1 -1 1 0 1 0 
1 0 1 0 1 0 1 0 1 0 1 0 1 0 1 0 
1 0 1 0 1 -1 1 0 1 0 1 0 1 0 1 0 
1 0 1 0 1 0 1 0 1 0 1 0 1 0 1 0 
1 -1 1 0 1 0 1 0 1 0 1 0 1 0 1 0 
1 0 1 0 1 0 1 0 1 0 1 0 1 0 1 -1 
1 0 1 0 1 0 1 0 1 0 1 0 1 0 1 0 
1 0 1 0 1 0 884 1883 300 MP stroke
1 0 1 0 1 0 1 0 1 -1 1 0 1 0 1 0 
1 0 1 0 1 0 1 0 1 0 1 0 1 0 1 0 
1 0 1 0 1 0 1 0 1 0 1 0 1 0 1 0 
1 -1 1 0 1 0 1 0 1 0 1 0 1 0 1 0 
1 0 1 0 1 0 1 0 1 0 1 0 1 0 1 0 
1 0 1 0 1 0 1 0 1 0 1 0 1 0 1 0 
1 0 1 -1 1 0 1 0 1 0 1 0 1 0 1 0 
1 0 1 0 1 0 1 0 1 0 1 0 1 0 1 0 
1 0 1 0 1 0 1 0 1 0 1 0 1 0 1 0 
1 0 1 0 1 0 1 0 1 0 1 0 1 0 1 0 
1 0 1 0 1 0 1 0 1 0 1 0 1 0 1 0 
1 0 1 0 1 0 1 0 1 0 1 0 1 0 1 0 
1 0 1 0 1 0 1 0 1 0 1 0 1 0 1 0 
1 0 1 0 1 0 1 0 1 0 -1 0 776 1886 111 MP stroke
gr

%%IncludeResource: font Helvetica
/Helvetica /WindowsLatin1Encoding 120 FMSR

3066 2175 mt 
(f) s
 438 1171 mt  -90 rotate
(G) s
90 rotate
%%IncludeResource: font Helvetica
/Helvetica /WindowsLatin1Encoding 96 FMSR

 498 1078 mt  -90 rotate
(x) s
90 rotate
%%IncludeResource: font Helvetica
/Helvetica /WindowsLatin1Encoding 120 FMSR

 438 1030 mt  -90 rotate
(\(f\)) s
90 rotate
gs 775 202 4619 1686 rc
/c8 { 1.000000 0.000000 0.000000 sr} bdef
c8
2314 1887 PD
0 -1 2315 1887 2 MP stroke
0 -1 2315 1887 2 MP stroke
0 -1 2316 1887 2 MP stroke
0 -1 2317 1887 2 MP stroke
0 -1 2318 1887 2 MP stroke
0 -1 2318 1887 2 MP stroke
0 -1 2319 1887 2 MP stroke
0 -1 2320 1887 2 MP stroke
0 -1 2321 1887 2 MP stroke
0 -1 2322 1887 2 MP stroke
0 -1 2322 1887 2 MP stroke
0 -1 2323 1887 2 MP stroke
0 -1 2324 1887 2 MP stroke
0 -1 2325 1887 2 MP stroke
0 -1 2325 1887 2 MP stroke
0 -1 2326 1887 2 MP stroke
0 -1 2327 1887 2 MP stroke
0 -1 2328 1887 2 MP stroke
0 -1 2328 1887 2 MP stroke
0 -1 2329 1887 2 MP stroke
0 -1 2330 1887 2 MP stroke
0 -1 2331 1887 2 MP stroke
0 -1 2332 1887 2 MP stroke
0 -1 2332 1887 2 MP stroke
0 -1 2333 1887 2 MP stroke
0 -1 2334 1887 2 MP stroke
0 -2 2335 1887 2 MP stroke
0 -2 2335 1887 2 MP stroke
0 -2 2336 1887 2 MP stroke
0 -2 2337 1887 2 MP stroke
0 -2 2338 1887 2 MP stroke
0 -2 2338 1887 2 MP stroke
0 -2 2339 1887 2 MP stroke
0 -2 2340 1887 2 MP stroke
0 -2 2341 1887 2 MP stroke
0 -2 2342 1887 2 MP stroke
0 -3 2342 1887 2 MP stroke
0 -3 2343 1887 2 MP stroke
0 -3 2344 1887 2 MP stroke
0 -3 2345 1887 2 MP stroke
0 -3 2345 1887 2 MP stroke
0 -3 2346 1887 2 MP stroke
0 -3 2347 1887 2 MP stroke
0 -3 2348 1887 2 MP stroke
0 -4 2348 1887 2 MP stroke
0 -4 2349 1887 2 MP stroke
0 -4 2350 1887 2 MP stroke
0 -4 2351 1887 2 MP stroke
0 -4 2352 1887 2 MP stroke
0 -4 2352 1887 2 MP stroke
0 -5 2353 1887 2 MP stroke
0 -5 2354 1887 2 MP stroke
0 -5 2355 1887 2 MP stroke
0 -5 2355 1887 2 MP stroke
0 -5 2356 1887 2 MP stroke
0 -5 2357 1887 2 MP stroke
0 -6 2358 1887 2 MP stroke
0 -6 2358 1887 2 MP stroke
0 -6 2359 1887 2 MP stroke
0 -6 2360 1887 2 MP stroke
0 -6 2361 1887 2 MP stroke
0 -7 2362 1887 2 MP stroke
0 -7 2362 1887 2 MP stroke
0 -7 2363 1887 2 MP stroke
0 -7 2364 1887 2 MP stroke
0 -7 2365 1887 2 MP stroke
0 -8 2365 1887 2 MP stroke
0 -8 2366 1887 2 MP stroke
0 -8 2367 1887 2 MP stroke
0 -8 2368 1887 2 MP stroke
0 -9 2368 1887 2 MP stroke
0 -9 2369 1887 2 MP stroke
0 -9 2370 1887 2 MP stroke
0 -9 2371 1887 2 MP stroke
0 -10 2372 1887 2 MP stroke
0 -10 2372 1887 2 MP stroke
0 -10 2373 1887 2 MP stroke
0 -10 2374 1887 2 MP stroke
0 -11 2375 1887 2 MP stroke
0 -11 2375 1887 2 MP stroke
0 -11 2376 1887 2 MP stroke
0 -11 2377 1887 2 MP stroke
0 -12 2378 1887 2 MP stroke
0 -12 2378 1887 2 MP stroke
0 -12 2379 1887 2 MP stroke
0 -13 2380 1887 2 MP stroke
0 -13 2381 1887 2 MP stroke
0 -13 2382 1887 2 MP stroke
0 -14 2382 1887 2 MP stroke
0 -14 2383 1887 2 MP stroke
0 -14 2384 1887 2 MP stroke
0 -15 2385 1887 2 MP stroke
0 -15 2385 1887 2 MP stroke
0 -15 2386 1887 2 MP stroke
0 -16 2387 1887 2 MP stroke
0 -16 2388 1887 2 MP stroke
0 -16 2388 1887 2 MP stroke
0 -17 2389 1887 2 MP stroke
0 -17 2390 1887 2 MP stroke
0 -17 2391 1887 2 MP stroke
0 -18 2392 1887 2 MP stroke
0 -18 2392 1887 2 MP stroke
0 -18 2393 1887 2 MP stroke
0 -19 2394 1887 2 MP stroke
0 -19 2395 1887 2 MP stroke
0 -20 2395 1887 2 MP stroke
0 -20 2396 1887 2 MP stroke
0 -20 2397 1887 2 MP stroke
0 -21 2398 1887 2 MP stroke
0 -21 2398 1887 2 MP stroke
0 -22 2399 1887 2 MP stroke
0 -22 2400 1887 2 MP stroke
0 -22 2401 1887 2 MP stroke
0 -23 2402 1887 2 MP stroke
0 -23 2402 1887 2 MP stroke
0 -24 2403 1887 2 MP stroke
0 -24 2404 1887 2 MP stroke
0 -25 2405 1887 2 MP stroke
0 -25 2405 1887 2 MP stroke
0 -25 2406 1887 2 MP stroke
0 -26 2407 1887 2 MP stroke
0 -26 2408 1887 2 MP stroke
0 -27 2409 1887 2 MP stroke
0 -27 2409 1887 2 MP stroke
0 -28 2410 1887 2 MP stroke
0 -28 2411 1887 2 MP stroke
0 -29 2412 1887 2 MP stroke
0 -29 2412 1887 2 MP stroke
0 -30 2413 1887 2 MP stroke
0 -30 2414 1887 2 MP stroke
0 -31 2415 1887 2 MP stroke
0 -31 2415 1887 2 MP stroke
0 -32 2416 1887 2 MP stroke
0 -32 2417 1887 2 MP stroke
0 -33 2418 1887 2 MP stroke
0 -33 2419 1887 2 MP stroke
0 -34 2419 1887 2 MP stroke
0 -34 2420 1887 2 MP stroke
0 -35 2421 1887 2 MP stroke
0 -35 2422 1887 2 MP stroke
0 -36 2422 1887 2 MP stroke
0 -36 2423 1887 2 MP stroke
0 -37 2424 1887 2 MP stroke
0 -38 2425 1887 2 MP stroke
0 -38 2425 1887 2 MP stroke
0 -39 2426 1887 2 MP stroke
0 -39 2427 1887 2 MP stroke
0 -40 2428 1887 2 MP stroke
0 -40 2429 1887 2 MP stroke
0 -41 2429 1887 2 MP stroke
0 -42 2430 1887 2 MP stroke
0 -42 2431 1887 2 MP stroke
0 -43 2432 1887 2 MP stroke
0 -44 2432 1887 2 MP stroke
0 -44 2433 1887 2 MP stroke
0 -45 2434 1887 2 MP stroke
0 -45 2435 1887 2 MP stroke
0 -46 2435 1887 2 MP stroke
0 -47 2436 1887 2 MP stroke
0 -47 2437 1887 2 MP stroke
0 -48 2438 1887 2 MP stroke
0 -49 2439 1887 2 MP stroke
0 -49 2439 1887 2 MP stroke
0 -50 2440 1887 2 MP stroke
0 -51 2441 1887 2 MP stroke
0 -51 2442 1887 2 MP stroke
0 -52 2442 1887 2 MP stroke
0 -53 2443 1887 2 MP stroke
0 -53 2444 1887 2 MP stroke
0 -54 2445 1887 2 MP stroke
0 -55 2445 1887 2 MP stroke
0 -55 2446 1887 2 MP stroke
0 -56 2447 1887 2 MP stroke
0 -57 2448 1887 2 MP stroke
0 -58 2449 1887 2 MP stroke
0 -58 2449 1887 2 MP stroke
0 -59 2450 1887 2 MP stroke
0 -60 2451 1887 2 MP stroke
0 -61 2452 1887 2 MP stroke
0 -61 2452 1887 2 MP stroke
0 -62 2453 1887 2 MP stroke
0 -63 2454 1887 2 MP stroke
0 -64 2455 1887 2 MP stroke
0 -64 2455 1887 2 MP stroke
0 -65 2456 1887 2 MP stroke
0 -66 2457 1887 2 MP stroke
0 -67 2458 1887 2 MP stroke
0 -67 2459 1887 2 MP stroke
0 -68 2459 1887 2 MP stroke
0 -69 2460 1887 2 MP stroke
0 -70 2461 1887 2 MP stroke
0 -71 2462 1887 2 MP stroke
0 -71 2462 1887 2 MP stroke
0 -72 2463 1887 2 MP stroke
0 -73 2464 1887 2 MP stroke
0 -74 2465 1887 2 MP stroke
0 -75 2465 1887 2 MP stroke
0 -76 2466 1887 2 MP stroke
0 -76 2467 1887 2 MP stroke
0 -77 2468 1887 2 MP stroke
0 -78 2469 1887 2 MP stroke
0 -79 2469 1887 2 MP stroke
0 -80 2470 1887 2 MP stroke
0 -81 2471 1887 2 MP stroke
0 -82 2472 1887 2 MP stroke
0 -83 2472 1887 2 MP stroke
0 -83 2473 1887 2 MP stroke
0 -84 2474 1887 2 MP stroke
0 -85 2475 1887 2 MP stroke
0 -86 2475 1887 2 MP stroke
0 -87 2476 1887 2 MP stroke
0 -88 2477 1887 2 MP stroke
0 -89 2478 1887 2 MP stroke
0 -90 2479 1887 2 MP stroke
0 -91 2479 1887 2 MP stroke
0 -92 2480 1887 2 MP stroke
0 -93 2481 1887 2 MP stroke
0 -94 2482 1887 2 MP stroke
0 -95 2482 1887 2 MP stroke
0 -96 2483 1887 2 MP stroke
0 -96 2484 1887 2 MP stroke
0 -97 2485 1887 2 MP stroke
0 -98 2485 1887 2 MP stroke
0 -99 2486 1887 2 MP stroke
0 -100 2487 1887 2 MP stroke
0 -101 2488 1887 2 MP stroke
0 -102 2489 1887 2 MP stroke
0 -103 2489 1887 2 MP stroke
0 -104 2490 1887 2 MP stroke
0 -105 2491 1887 2 MP stroke
0 -106 2492 1887 2 MP stroke
0 -107 2492 1887 2 MP stroke
0 -109 2493 1887 2 MP stroke
0 -110 2494 1887 2 MP stroke
0 -111 2495 1887 2 MP stroke
0 -112 2495 1887 2 MP stroke
0 -113 2496 1887 2 MP stroke
0 -114 2497 1887 2 MP stroke
0 -115 2498 1887 2 MP stroke
0 -116 2499 1887 2 MP stroke
0 -117 2499 1887 2 MP stroke
0 -118 2500 1887 2 MP stroke
0 -119 2501 1887 2 MP stroke
0 -120 2502 1887 2 MP stroke
0 -121 2502 1887 2 MP stroke
0 -122 2503 1887 2 MP stroke
0 -124 2504 1887 2 MP stroke
0 -125 2505 1887 2 MP stroke
0 -126 2505 1887 2 MP stroke
0 -127 2506 1887 2 MP stroke
0 -128 2507 1887 2 MP stroke
0 -129 2508 1887 2 MP stroke
0 -130 2509 1887 2 MP stroke
0 -132 2509 1887 2 MP stroke
0 -133 2510 1887 2 MP stroke
0 -134 2511 1887 2 MP stroke
0 -135 2512 1887 2 MP stroke
0 -136 2512 1887 2 MP stroke
0 -137 2513 1887 2 MP stroke
0 -139 2514 1887 2 MP stroke
0 -140 2515 1887 2 MP stroke
0 -141 2515 1887 2 MP stroke
0 -142 2516 1887 2 MP stroke
0 -143 2517 1887 2 MP stroke
0 -145 2518 1887 2 MP stroke
0 -146 2519 1887 2 MP stroke
0 -147 2519 1887 2 MP stroke
0 -148 2520 1887 2 MP stroke
0 -149 2521 1887 2 MP stroke
0 -151 2522 1887 2 MP stroke
0 -152 2522 1887 2 MP stroke
0 -153 2523 1887 2 MP stroke
0 -154 2524 1887 2 MP stroke
0 -156 2525 1887 2 MP stroke
0 -157 2525 1887 2 MP stroke
0 -158 2526 1887 2 MP stroke
0 -160 2527 1887 2 MP stroke
0 -161 2528 1887 2 MP stroke
0 -162 2529 1887 2 MP stroke
0 -163 2529 1887 2 MP stroke
0 -165 2530 1887 2 MP stroke
0 -166 2531 1887 2 MP stroke
0 -167 2532 1887 2 MP stroke
0 -169 2532 1887 2 MP stroke
0 -170 2533 1887 2 MP stroke
0 -171 2534 1887 2 MP stroke
0 -173 2535 1887 2 MP stroke
0 -174 2535 1887 2 MP stroke
0 -175 2536 1887 2 MP stroke
0 -177 2537 1887 2 MP stroke
0 -178 2538 1887 2 MP stroke
0 -179 2539 1887 2 MP stroke
0 -181 2539 1887 2 MP stroke
0 -182 2540 1887 2 MP stroke
0 -184 2541 1887 2 MP stroke
0 -185 2542 1887 2 MP stroke
0 -186 2542 1887 2 MP stroke
0 -188 2543 1887 2 MP stroke
0 -189 2544 1887 2 MP stroke
0 -191 2545 1887 2 MP stroke
0 -192 2546 1887 2 MP stroke
0 -193 2546 1887 2 MP stroke
0 -195 2547 1887 2 MP stroke
0 -196 2548 1887 2 MP stroke
0 -198 2549 1887 2 MP stroke
0 -199 2549 1887 2 MP stroke
0 -201 2550 1887 2 MP stroke
0 -202 2551 1887 2 MP stroke
0 -203 2552 1887 2 MP stroke
0 -205 2552 1887 2 MP stroke
0 -206 2553 1887 2 MP stroke
0 -208 2554 1887 2 MP stroke
0 -209 2555 1887 2 MP stroke
0 -211 2556 1887 2 MP stroke
0 -212 2556 1887 2 MP stroke
0 -214 2557 1887 2 MP stroke
0 -215 2558 1887 2 MP stroke
0 -217 2559 1887 2 MP stroke
0 -218 2559 1887 2 MP stroke
0 -220 2560 1887 2 MP stroke
0 -221 2561 1887 2 MP stroke
0 -223 2562 1887 2 MP stroke
0 -224 2562 1887 2 MP stroke
0 -226 2563 1887 2 MP stroke
0 -228 2564 1887 2 MP stroke
0 -229 2565 1887 2 MP stroke
0 -231 2566 1887 2 MP stroke
0 -232 2566 1887 2 MP stroke
0 -234 2567 1887 2 MP stroke
0 -235 2568 1887 2 MP stroke
0 -237 2569 1887 2 MP stroke
0 -238 2569 1887 2 MP stroke
0 -240 2570 1887 2 MP stroke
0 -242 2571 1887 2 MP stroke
0 -243 2572 1887 2 MP stroke
0 -245 2572 1887 2 MP stroke
0 -246 2573 1887 2 MP stroke
0 -248 2574 1887 2 MP stroke
0 -250 2575 1887 2 MP stroke
0 -251 2576 1887 2 MP stroke
0 -253 2576 1887 2 MP stroke
0 -255 2577 1887 2 MP stroke
0 -256 2578 1887 2 MP stroke
0 -258 2579 1887 2 MP stroke
0 -260 2579 1887 2 MP stroke
0 -261 2580 1887 2 MP stroke
0 -263 2581 1887 2 MP stroke
0 -264 2582 1887 2 MP stroke
0 -266 2582 1887 2 MP stroke
0 -268 2583 1887 2 MP stroke
0 -270 2584 1887 2 MP stroke
0 -271 2585 1887 2 MP stroke
0 -273 2586 1887 2 MP stroke
0 -275 2586 1887 2 MP stroke
0 -276 2587 1887 2 MP stroke
0 -278 2588 1887 2 MP stroke
0 -280 2589 1887 2 MP stroke
0 -281 2589 1887 2 MP stroke
0 -283 2590 1887 2 MP stroke
0 -285 2591 1887 2 MP stroke
0 -287 2592 1887 2 MP stroke
0 -288 2592 1887 2 MP stroke
0 -290 2593 1887 2 MP stroke
0 -292 2594 1887 2 MP stroke
0 -294 2595 1887 2 MP stroke
0 -295 2596 1887 2 MP stroke
0 -297 2596 1887 2 MP stroke
0 -299 2597 1887 2 MP stroke
0 -301 2598 1887 2 MP stroke
0 -302 2599 1887 2 MP stroke
0 -304 2599 1887 2 MP stroke
0 -306 2600 1887 2 MP stroke
0 -308 2601 1887 2 MP stroke
0 -310 2602 1887 2 MP stroke
0 -311 2602 1887 2 MP stroke
0 -313 2603 1887 2 MP stroke
0 -315 2604 1887 2 MP stroke
0 -317 2605 1887 2 MP stroke
0 -319 2606 1887 2 MP stroke
0 -320 2606 1887 2 MP stroke
0 -322 2607 1887 2 MP stroke
0 -324 2608 1887 2 MP stroke
0 -326 2609 1887 2 MP stroke
0 -328 2609 1887 2 MP stroke
0 -330 2610 1887 2 MP stroke
0 -332 2611 1887 2 MP stroke
0 -333 2612 1887 2 MP stroke
0 -335 2612 1887 2 MP stroke
0 -337 2613 1887 2 MP stroke
0 -339 2614 1887 2 MP stroke
0 -341 2615 1887 2 MP stroke
0 -343 2616 1887 2 MP stroke
0 -345 2616 1887 2 MP stroke
0 -347 2617 1887 2 MP stroke
0 -348 2618 1887 2 MP stroke
0 -350 2619 1887 2 MP stroke
0 -352 2619 1887 2 MP stroke
0 -354 2620 1887 2 MP stroke
0 -356 2621 1887 2 MP stroke
0 -358 2622 1887 2 MP stroke
0 -360 2622 1887 2 MP stroke
0 -362 2623 1887 2 MP stroke
0 -364 2624 1887 2 MP stroke
0 -366 2625 1887 2 MP stroke
0 -368 2626 1887 2 MP stroke
0 -370 2626 1887 2 MP stroke
0 -372 2627 1887 2 MP stroke
0 -373 2628 1887 2 MP stroke
0 -375 2629 1887 2 MP stroke
0 -377 2629 1887 2 MP stroke
0 -379 2630 1887 2 MP stroke
0 -381 2631 1887 2 MP stroke
0 -383 2632 1887 2 MP stroke
0 -385 2632 1887 2 MP stroke
0 -387 2633 1887 2 MP stroke
0 -389 2634 1887 2 MP stroke
0 -391 2635 1887 2 MP stroke
0 -393 2636 1887 2 MP stroke
0 -395 2636 1887 2 MP stroke
0 -397 2637 1887 2 MP stroke
0 -399 2638 1887 2 MP stroke
0 -401 2639 1887 2 MP stroke
0 -403 2639 1887 2 MP stroke
0 -405 2640 1887 2 MP stroke
0 -407 2641 1887 2 MP stroke
0 -409 2642 1887 2 MP stroke
0 -411 2642 1887 2 MP stroke
0 -413 2643 1887 2 MP stroke
0 -416 2644 1887 2 MP stroke
0 -418 2645 1887 2 MP stroke
0 -420 2646 1887 2 MP stroke
0 -422 2646 1887 2 MP stroke
0 -424 2647 1887 2 MP stroke
0 -426 2648 1887 2 MP stroke
0 -428 2649 1887 2 MP stroke
0 -430 2649 1887 2 MP stroke
0 -432 2650 1887 2 MP stroke
0 -434 2651 1887 2 MP stroke
0 -436 2652 1887 2 MP stroke
0 -438 2652 1887 2 MP stroke
0 -440 2653 1887 2 MP stroke
0 -442 2654 1887 2 MP stroke
0 -445 2655 1887 2 MP stroke
0 -447 2656 1887 2 MP stroke
0 -449 2656 1887 2 MP stroke
0 -451 2657 1887 2 MP stroke
0 -453 2658 1887 2 MP stroke
0 -455 2659 1887 2 MP stroke
0 -457 2659 1887 2 MP stroke
0 -459 2660 1887 2 MP stroke
0 -461 2661 1887 2 MP stroke
0 -464 2662 1887 2 MP stroke
0 -466 2662 1887 2 MP stroke
0 -468 2663 1887 2 MP stroke
0 -470 2664 1887 2 MP stroke
0 -472 2665 1887 2 MP stroke
0 -474 2666 1887 2 MP stroke
0 -476 2666 1887 2 MP stroke
0 -479 2667 1887 2 MP stroke
0 -481 2668 1887 2 MP stroke
0 -483 2669 1887 2 MP stroke
0 -485 2669 1887 2 MP stroke
0 -487 2670 1887 2 MP stroke
0 -489 2671 1887 2 MP stroke
0 -492 2672 1887 2 MP stroke
0 -494 2672 1887 2 MP stroke
0 -496 2673 1887 2 MP stroke
0 -498 2674 1887 2 MP stroke
0 -500 2675 1887 2 MP stroke
0 -503 2676 1887 2 MP stroke
0 -505 2676 1887 2 MP stroke
0 -507 2677 1887 2 MP stroke
0 -509 2678 1887 2 MP stroke
0 -511 2679 1887 2 MP stroke
0 -514 2679 1887 2 MP stroke
0 -516 2680 1887 2 MP stroke
0 -518 2681 1887 2 MP stroke
0 -520 2682 1887 2 MP stroke
0 -522 2683 1887 2 MP stroke
0 -525 2683 1887 2 MP stroke
0 -527 2684 1887 2 MP stroke
0 -529 2685 1887 2 MP stroke
0 -531 2686 1887 2 MP stroke
0 -533 2686 1887 2 MP stroke
0 -536 2687 1887 2 MP stroke
0 -538 2688 1887 2 MP stroke
0 -540 2689 1887 2 MP stroke
0 -542 2689 1887 2 MP stroke
0 -545 2690 1887 2 MP stroke
0 -547 2691 1887 2 MP stroke
0 -549 2692 1887 2 MP stroke
0 -551 2693 1887 2 MP stroke
0 -554 2693 1887 2 MP stroke
0 -556 2694 1887 2 MP stroke
0 -558 2695 1887 2 MP stroke
0 -561 2696 1887 2 MP stroke
0 -563 2696 1887 2 MP stroke
0 -565 2697 1887 2 MP stroke
0 -567 2698 1887 2 MP stroke
0 -570 2699 1887 2 MP stroke
0 -572 2699 1887 2 MP stroke
0 -574 2700 1887 2 MP stroke
0 -576 2701 1887 2 MP stroke
0 -579 2702 1887 2 MP stroke
0 -581 2703 1887 2 MP stroke
0 -583 2703 1887 2 MP stroke
0 -586 2704 1887 2 MP stroke
0 -588 2705 1887 2 MP stroke
0 -590 2706 1887 2 MP stroke
0 -592 2706 1887 2 MP stroke
0 -595 2707 1887 2 MP stroke
0 -597 2708 1887 2 MP stroke
0 -599 2709 1887 2 MP stroke
0 -602 2709 1887 2 MP stroke
0 -604 2710 1887 2 MP stroke
0 -606 2711 1887 2 MP stroke
0 -609 2712 1887 2 MP stroke
0 -611 2713 1887 2 MP stroke
0 -613 2713 1887 2 MP stroke
0 -616 2714 1887 2 MP stroke
0 -618 2715 1887 2 MP stroke
0 -620 2716 1887 2 MP stroke
0 -623 2716 1887 2 MP stroke
0 -625 2717 1887 2 MP stroke
0 -627 2718 1887 2 MP stroke
0 -630 2719 1887 2 MP stroke
0 -632 2719 1887 2 MP stroke
0 -634 2720 1887 2 MP stroke
0 -637 2721 1887 2 MP stroke
0 -639 2722 1887 2 MP stroke
0 -641 2723 1887 2 MP stroke
0 -644 2723 1887 2 MP stroke
0 -646 2724 1887 2 MP stroke
0 -648 2725 1887 2 MP stroke
0 -651 2726 1887 2 MP stroke
0 -653 2726 1887 2 MP stroke
0 -655 2727 1887 2 MP stroke
0 -658 2728 1887 2 MP stroke
0 -660 2729 1887 2 MP stroke
0 -662 2729 1887 2 MP stroke
0 -665 2730 1887 2 MP stroke
0 -667 2731 1887 2 MP stroke
0 -669 2732 1887 2 MP stroke
0 -672 2733 1887 2 MP stroke
0 -674 2733 1887 2 MP stroke
0 -676 2734 1887 2 MP stroke
0 -679 2735 1887 2 MP stroke
0 -681 2736 1887 2 MP stroke
0 -684 2736 1887 2 MP stroke
0 -686 2737 1887 2 MP stroke
0 -688 2738 1887 2 MP stroke
0 -691 2739 1887 2 MP stroke
0 -693 2739 1887 2 MP stroke
0 -695 2740 1887 2 MP stroke
0 -698 2741 1887 2 MP stroke
0 -700 2742 1887 2 MP stroke
0 -702 2743 1887 2 MP stroke
0 -705 2743 1887 2 MP stroke
0 -707 2744 1887 2 MP stroke
0 -710 2745 1887 2 MP stroke
0 -712 2746 1887 2 MP stroke
0 -714 2746 1887 2 MP stroke
0 -717 2747 1887 2 MP stroke
0 -719 2748 1887 2 MP stroke
0 -721 2749 1887 2 MP stroke
0 -724 2749 1887 2 MP stroke
0 -726 2750 1887 2 MP stroke
0 -729 2751 1887 2 MP stroke
0 -731 2752 1887 2 MP stroke
0 -733 2753 1887 2 MP stroke
0 -736 2753 1887 2 MP stroke
0 -738 2754 1887 2 MP stroke
0 -740 2755 1887 2 MP stroke
0 -743 2756 1887 2 MP stroke
0 -745 2756 1887 2 MP stroke
0 -748 2757 1887 2 MP stroke
0 -750 2758 1887 2 MP stroke
0 -752 2759 1887 2 MP stroke
0 -755 2759 1887 2 MP stroke
0 -757 2760 1887 2 MP stroke
0 -760 2761 1887 2 MP stroke
0 -762 2762 1887 2 MP stroke
0 -764 2763 1887 2 MP stroke
0 -767 2763 1887 2 MP stroke
0 -769 2764 1887 2 MP stroke
0 -771 2765 1887 2 MP stroke
0 -774 2766 1887 2 MP stroke
0 -776 2766 1887 2 MP stroke
0 -779 2767 1887 2 MP stroke
0 -781 2768 1887 2 MP stroke
0 -783 2769 1887 2 MP stroke
0 -786 2769 1887 2 MP stroke
0 -788 2770 1887 2 MP stroke
0 -791 2771 1887 2 MP stroke
0 -793 2772 1887 2 MP stroke
0 -795 2773 1887 2 MP stroke
0 -798 2773 1887 2 MP stroke
0 -800 2774 1887 2 MP stroke
0 -802 2775 1887 2 MP stroke
0 -805 2776 1887 2 MP stroke
0 -807 2776 1887 2 MP stroke
0 -810 2777 1887 2 MP stroke
0 -812 2778 1887 2 MP stroke
0 -814 2779 1887 2 MP stroke
0 -817 2779 1887 2 MP stroke
0 -819 2780 1887 2 MP stroke
0 -821 2781 1887 2 MP stroke
0 -824 2782 1887 2 MP stroke
0 -826 2783 1887 2 MP stroke
0 -829 2783 1887 2 MP stroke
0 -831 2784 1887 2 MP stroke
0 -833 2785 1887 2 MP stroke
0 -836 2786 1887 2 MP stroke
0 -838 2786 1887 2 MP stroke
0 -840 2787 1887 2 MP stroke
0 -843 2788 1887 2 MP stroke
0 -845 2789 1887 2 MP stroke
0 -848 2789 1887 2 MP stroke
0 -850 2790 1887 2 MP stroke
0 -852 2791 1887 2 MP stroke
0 -855 2792 1887 2 MP stroke
0 -857 2793 1887 2 MP stroke
0 -859 2793 1887 2 MP stroke
0 -862 2794 1887 2 MP stroke
0 -864 2795 1887 2 MP stroke
0 -866 2796 1887 2 MP stroke
0 -869 2796 1887 2 MP stroke
0 -871 2797 1887 2 MP stroke
0 -873 2798 1887 2 MP stroke
0 -876 2799 1887 2 MP stroke
0 -878 2799 1887 2 MP stroke
0 -881 2800 1887 2 MP stroke
0 -883 2801 1887 2 MP stroke
0 -885 2802 1887 2 MP stroke
0 -888 2803 1887 2 MP stroke
0 -890 2803 1887 2 MP stroke
0 -892 2804 1887 2 MP stroke
0 -895 2805 1887 2 MP stroke
0 -897 2806 1887 2 MP stroke
0 -899 2806 1887 2 MP stroke
0 -902 2807 1887 2 MP stroke
0 -904 2808 1887 2 MP stroke
0 -906 2809 1887 2 MP stroke
0 -909 2809 1887 2 MP stroke
0 -911 2810 1887 2 MP stroke
0 -913 2811 1887 2 MP stroke
0 -916 2812 1887 2 MP stroke
0 -918 2813 1887 2 MP stroke
0 -920 2813 1887 2 MP stroke
0 -923 2814 1887 2 MP stroke
0 -925 2815 1887 2 MP stroke
0 -927 2816 1887 2 MP stroke
0 -929 2816 1887 2 MP stroke
0 -932 2817 1887 2 MP stroke
0 -934 2818 1887 2 MP stroke
0 -936 2819 1887 2 MP stroke
0 -939 2820 1887 2 MP stroke
0 -941 2820 1887 2 MP stroke
0 -943 2821 1887 2 MP stroke
0 -946 2822 1887 2 MP stroke
0 -948 2823 1887 2 MP stroke
0 -950 2823 1887 2 MP stroke
0 -952 2824 1887 2 MP stroke
0 -955 2825 1887 2 MP stroke
0 -957 2826 1887 2 MP stroke
0 -959 2826 1887 2 MP stroke
0 -962 2827 1887 2 MP stroke
0 -964 2828 1887 2 MP stroke
0 -966 2829 1887 2 MP stroke
0 -968 2830 1887 2 MP stroke
0 -971 2830 1887 2 MP stroke
0 -973 2831 1887 2 MP stroke
0 -975 2832 1887 2 MP stroke
0 -977 2833 1887 2 MP stroke
0 -980 2833 1887 2 MP stroke
0 -982 2834 1887 2 MP stroke
0 -984 2835 1887 2 MP stroke
0 -986 2836 1887 2 MP stroke
0 -989 2836 1887 2 MP stroke
0 -991 2837 1887 2 MP stroke
0 -993 2838 1887 2 MP stroke
0 -995 2839 1887 2 MP stroke
0 -998 2840 1887 2 MP stroke
0 -1000 2840 1887 2 MP stroke
0 -1002 2841 1887 2 MP stroke
0 -1004 2842 1887 2 MP stroke
0 -1007 2843 1887 2 MP stroke
0 -1009 2843 1887 2 MP stroke
0 -1011 2844 1887 2 MP stroke
0 -1013 2845 1887 2 MP stroke
0 -1015 2846 1887 2 MP stroke
0 -1018 2846 1887 2 MP stroke
0 -1020 2847 1887 2 MP stroke
0 -1022 2848 1887 2 MP stroke
0 -1024 2849 1887 2 MP stroke
0 -1026 2850 1887 2 MP stroke
0 -1029 2850 1887 2 MP stroke
0 -1031 2851 1887 2 MP stroke
0 -1033 2852 1887 2 MP stroke
0 -1035 2853 1887 2 MP stroke
0 -1037 2853 1887 2 MP stroke
0 -1039 2854 1887 2 MP stroke
0 -1042 2855 1887 2 MP stroke
0 -1044 2856 1887 2 MP stroke
0 -1046 2856 1887 2 MP stroke
0 -1048 2857 1887 2 MP stroke
0 -1050 2858 1887 2 MP stroke
0 -1052 2859 1887 2 MP stroke
0 -1055 2860 1887 2 MP stroke
0 -1057 2860 1887 2 MP stroke
0 -1059 2861 1887 2 MP stroke
0 -1061 2862 1887 2 MP stroke
0 -1063 2863 1887 2 MP stroke
0 -1065 2863 1887 2 MP stroke
0 -1067 2864 1887 2 MP stroke
0 -1069 2865 1887 2 MP stroke
0 -1072 2866 1887 2 MP stroke
0 -1074 2866 1887 2 MP stroke
0 -1076 2867 1887 2 MP stroke
0 -1078 2868 1887 2 MP stroke
0 -1080 2869 1887 2 MP stroke
0 -1082 2870 1887 2 MP stroke
0 -1084 2870 1887 2 MP stroke
0 -1086 2871 1887 2 MP stroke
0 -1088 2872 1887 2 MP stroke
0 -1090 2873 1887 2 MP stroke
0 -1092 2873 1887 2 MP stroke
0 -1094 2874 1887 2 MP stroke
0 -1097 2875 1887 2 MP stroke
0 -1099 2876 1887 2 MP stroke
0 -1101 2876 1887 2 MP stroke
0 -1103 2877 1887 2 MP stroke
0 -1105 2878 1887 2 MP stroke
0 -1107 2879 1887 2 MP stroke
0 -1109 2880 1887 2 MP stroke
0 -1111 2880 1887 2 MP stroke
0 -1113 2881 1887 2 MP stroke
0 -1115 2882 1887 2 MP stroke
0 -1117 2883 1887 2 MP stroke
0 -1119 2883 1887 2 MP stroke
0 -1121 2884 1887 2 MP stroke
0 -1123 2885 1887 2 MP stroke
0 -1125 2886 1887 2 MP stroke
0 -1127 2886 1887 2 MP stroke
0 -1129 2887 1887 2 MP stroke
0 -1131 2888 1887 2 MP stroke
0 -1133 2889 1887 2 MP stroke
0 -1135 2890 1887 2 MP stroke
0 -1137 2890 1887 2 MP stroke
0 -1139 2891 1887 2 MP stroke
0 -1141 2892 1887 2 MP stroke
0 -1143 2893 1887 2 MP stroke
0 -1145 2893 1887 2 MP stroke
0 -1146 2894 1887 2 MP stroke
0 -1148 2895 1887 2 MP stroke
0 -1150 2896 1887 2 MP stroke
0 -1152 2896 1887 2 MP stroke
0 -1154 2897 1887 2 MP stroke
0 -1156 2898 1887 2 MP stroke
0 -1158 2899 1887 2 MP stroke
0 -1160 2900 1887 2 MP stroke
0 -1162 2900 1887 2 MP stroke
0 -1164 2901 1887 2 MP stroke
0 -1166 2902 1887 2 MP stroke
0 -1167 2903 1887 2 MP stroke
0 -1169 2903 1887 2 MP stroke
0 -1171 2904 1887 2 MP stroke
0 -1173 2905 1887 2 MP stroke
0 -1175 2906 1887 2 MP stroke
0 -1177 2906 1887 2 MP stroke
0 -1179 2907 1887 2 MP stroke
0 -1180 2908 1887 2 MP stroke
0 -1182 2909 1887 2 MP stroke
0 -1184 2910 1887 2 MP stroke
0 -1186 2910 1887 2 MP stroke
0 -1188 2911 1887 2 MP stroke
0 -1189 2912 1887 2 MP stroke
0 -1191 2913 1887 2 MP stroke
0 -1193 2913 1887 2 MP stroke
0 -1195 2914 1887 2 MP stroke
0 -1197 2915 1887 2 MP stroke
0 -1198 2916 1887 2 MP stroke
0 -1200 2916 1887 2 MP stroke
0 -1202 2917 1887 2 MP stroke
0 -1204 2918 1887 2 MP stroke
0 -1205 2919 1887 2 MP stroke
0 -1207 2920 1887 2 MP stroke
0 -1209 2920 1887 2 MP stroke
0 -1211 2921 1887 2 MP stroke
0 -1212 2922 1887 2 MP stroke
0 -1214 2923 1887 2 MP stroke
0 -1216 2923 1887 2 MP stroke
0 -1218 2924 1887 2 MP stroke
0 -1219 2925 1887 2 MP stroke
0 -1221 2926 1887 2 MP stroke
0 -1223 2926 1887 2 MP stroke
0 -1224 2927 1887 2 MP stroke
0 -1226 2928 1887 2 MP stroke
0 -1228 2929 1887 2 MP stroke
0 -1229 2930 1887 2 MP stroke
0 -1231 2930 1887 2 MP stroke
0 -1233 2931 1887 2 MP stroke
0 -1234 2932 1887 2 MP stroke
0 -1236 2933 1887 2 MP stroke
0 -1238 2933 1887 2 MP stroke
0 -1239 2934 1887 2 MP stroke
0 -1241 2935 1887 2 MP stroke
0 -1242 2936 1887 2 MP stroke
0 -1244 2936 1887 2 MP stroke
0 -1246 2937 1887 2 MP stroke
0 -1247 2938 1887 2 MP stroke
0 -1249 2939 1887 2 MP stroke
0 -1250 2940 1887 2 MP stroke
0 -1252 2940 1887 2 MP stroke
0 -1254 2941 1887 2 MP stroke
0 -1255 2942 1887 2 MP stroke
0 -1257 2943 1887 2 MP stroke
0 -1258 2943 1887 2 MP stroke
0 -1260 2944 1887 2 MP stroke
0 -1261 2945 1887 2 MP stroke
0 -1263 2946 1887 2 MP stroke
0 -1264 2946 1887 2 MP stroke
0 -1266 2947 1887 2 MP stroke
0 -1267 2948 1887 2 MP stroke
0 -1269 2949 1887 2 MP stroke
0 -1270 2950 1887 2 MP stroke
0 -1272 2950 1887 2 MP stroke
0 -1273 2951 1887 2 MP stroke
0 -1275 2952 1887 2 MP stroke
0 -1276 2953 1887 2 MP stroke
0 -1278 2953 1887 2 MP stroke
0 -1279 2954 1887 2 MP stroke
0 -1280 2955 1887 2 MP stroke
0 -1282 2956 1887 2 MP stroke
0 -1283 2957 1887 2 MP stroke
0 -1285 2957 1887 2 MP stroke
0 -1286 2958 1887 2 MP stroke
0 -1288 2959 1887 2 MP stroke
0 -1289 2960 1887 2 MP stroke
0 -1290 2960 1887 2 MP stroke
0 -1292 2961 1887 2 MP stroke
0 -1293 2962 1887 2 MP stroke
0 -1294 2963 1887 2 MP stroke
0 -1296 2963 1887 2 MP stroke
0 -1297 2964 1887 2 MP stroke
0 -1298 2965 1887 2 MP stroke
0 -1300 2966 1887 2 MP stroke
0 -1301 2967 1887 2 MP stroke
0 -1302 2967 1887 2 MP stroke
0 -1304 2968 1887 2 MP stroke
0 -1305 2969 1887 2 MP stroke
0 -1306 2970 1887 2 MP stroke
0 -1308 2970 1887 2 MP stroke
0 -1309 2971 1887 2 MP stroke
0 -1310 2972 1887 2 MP stroke
0 -1311 2973 1887 2 MP stroke
0 -1313 2973 1887 2 MP stroke
0 -1314 2974 1887 2 MP stroke
0 -1315 2975 1887 2 MP stroke
0 -1316 2976 1887 2 MP stroke
0 -1318 2977 1887 2 MP stroke
0 -1319 2977 1887 2 MP stroke
0 -1320 2978 1887 2 MP stroke
0 -1321 2979 1887 2 MP stroke
0 -1322 2980 1887 2 MP stroke
0 -1324 2980 1887 2 MP stroke
0 -1325 2981 1887 2 MP stroke
0 -1326 2982 1887 2 MP stroke
0 -1327 2983 1887 2 MP stroke
0 -1328 2983 1887 2 MP stroke
0 -1329 2984 1887 2 MP stroke
0 -1331 2985 1887 2 MP stroke
0 -1332 2986 1887 2 MP stroke
0 -1333 2987 1887 2 MP stroke
0 -1334 2987 1887 2 MP stroke
0 -1335 2988 1887 2 MP stroke
0 -1336 2989 1887 2 MP stroke
0 -1337 2990 1887 2 MP stroke
0 -1338 2990 1887 2 MP stroke
0 -1339 2991 1887 2 MP stroke
0 -1340 2992 1887 2 MP stroke
0 -1342 2993 1887 2 MP stroke
0 -1343 2993 1887 2 MP stroke
0 -1344 2994 1887 2 MP stroke
0 -1345 2995 1887 2 MP stroke
0 -1346 2996 1887 2 MP stroke
0 -1347 2997 1887 2 MP stroke
0 -1348 2997 1887 2 MP stroke
0 -1349 2998 1887 2 MP stroke
0 -1350 2999 1887 2 MP stroke
0 -1351 3000 1887 2 MP stroke
0 -1352 3000 1887 2 MP stroke
0 -1353 3001 1887 2 MP stroke
0 -1354 3002 1887 2 MP stroke
0 -1354 3003 1887 2 MP stroke
0 -1355 3003 1887 2 MP stroke
0 -1356 3004 1887 2 MP stroke
0 -1357 3005 1887 2 MP stroke
0 -1358 3006 1887 2 MP stroke
0 -1359 3007 1887 2 MP stroke
0 -1360 3007 1887 2 MP stroke
0 -1361 3008 1887 2 MP stroke
0 -1362 3009 1887 2 MP stroke
0 -1363 3010 1887 2 MP stroke
0 -1363 3010 1887 2 MP stroke
0 -1364 3011 1887 2 MP stroke
0 -1365 3012 1887 2 MP stroke
0 -1366 3013 1887 2 MP stroke
0 -1367 3013 1887 2 MP stroke
0 -1368 3014 1887 2 MP stroke
0 -1368 3015 1887 2 MP stroke
0 -1369 3016 1887 2 MP stroke
0 -1370 3017 1887 2 MP stroke
0 -1371 3017 1887 2 MP stroke
0 -1372 3018 1887 2 MP stroke
0 -1372 3019 1887 2 MP stroke
0 -1373 3020 1887 2 MP stroke
0 -1374 3020 1887 2 MP stroke
0 -1375 3021 1887 2 MP stroke
0 -1375 3022 1887 2 MP stroke
0 -1376 3023 1887 2 MP stroke
0 -1377 3023 1887 2 MP stroke
0 -1377 3024 1887 2 MP stroke
0 -1378 3025 1887 2 MP stroke
0 -1379 3026 1887 2 MP stroke
0 -1380 3027 1887 2 MP stroke
0 -1380 3027 1887 2 MP stroke
0 -1381 3028 1887 2 MP stroke
0 -1382 3029 1887 2 MP stroke
0 -1382 3030 1887 2 MP stroke
0 -1383 3030 1887 2 MP stroke
0 -1383 3031 1887 2 MP stroke
0 -1384 3032 1887 2 MP stroke
0 -1385 3033 1887 2 MP stroke
0 -1385 3033 1887 2 MP stroke
0 -1386 3034 1887 2 MP stroke
0 -1386 3035 1887 2 MP stroke
0 -1387 3036 1887 2 MP stroke
0 -1388 3037 1887 2 MP stroke
0 -1388 3037 1887 2 MP stroke
0 -1389 3038 1887 2 MP stroke
0 -1389 3039 1887 2 MP stroke
0 -1390 3040 1887 2 MP stroke
0 -1390 3040 1887 2 MP stroke
0 -1391 3041 1887 2 MP stroke
0 -1391 3042 1887 2 MP stroke
0 -1392 3043 1887 2 MP stroke
0 -1392 3043 1887 2 MP stroke
0 -1393 3044 1887 2 MP stroke
0 -1393 3045 1887 2 MP stroke
0 -1394 3046 1887 2 MP stroke
0 -1394 3047 1887 2 MP stroke
0 -1394 3047 1887 2 MP stroke
0 -1395 3048 1887 2 MP stroke
0 -1395 3049 1887 2 MP stroke
0 -1396 3050 1887 2 MP stroke
0 -1396 3050 1887 2 MP stroke
0 -1397 3051 1887 2 MP stroke
0 -1397 3052 1887 2 MP stroke
0 -1397 3053 1887 2 MP stroke
0 -1398 3053 1887 2 MP stroke
0 -1398 3054 1887 2 MP stroke
0 -1398 3055 1887 2 MP stroke
0 -1399 3056 1887 2 MP stroke
0 -1399 3057 1887 2 MP stroke
0 -1399 3057 1887 2 MP stroke
0 -1400 3058 1887 2 MP stroke
0 -1400 3059 1887 2 MP stroke
0 -1400 3060 1887 2 MP stroke
0 -1401 3060 1887 2 MP stroke
0 -1401 3061 1887 2 MP stroke
0 -1401 3062 1887 2 MP stroke
0 -1401 3063 1887 2 MP stroke
0 -1402 3063 1887 2 MP stroke
0 -1402 3064 1887 2 MP stroke
0 -1402 3065 1887 2 MP stroke
0 -1402 3066 1887 2 MP stroke
0 -1402 3067 1887 2 MP stroke
0 -1403 3067 1887 2 MP stroke
0 -1403 3068 1887 2 MP stroke
0 -1403 3069 1887 2 MP stroke
0 -1403 3070 1887 2 MP stroke
0 -1403 3070 1887 2 MP stroke
0 -1403 3071 1887 2 MP stroke
0 -1404 3072 1887 2 MP stroke
0 -1404 3073 1887 2 MP stroke
0 -1404 3073 1887 2 MP stroke
0 -1404 3074 1887 2 MP stroke
0 -1404 3075 1887 2 MP stroke
0 -1404 3076 1887 2 MP stroke
0 -1404 3077 1887 2 MP stroke
0 -1404 3077 1887 2 MP stroke
0 -1404 3078 1887 2 MP stroke
0 -1405 3079 1887 2 MP stroke
0 -1405 3080 1887 2 MP stroke
0 -1405 3080 1887 2 MP stroke
0 -1405 3081 1887 2 MP stroke
0 -1405 3082 1887 2 MP stroke
0 -1405 3083 1887 2 MP stroke
0 -1405 3084 1887 2 MP stroke
0 -1405 3084 1887 2 MP stroke
0 -1405 3085 1887 2 MP stroke
0 -1405 3086 1887 2 MP stroke
0 -1405 3087 1887 2 MP stroke
0 -1405 3087 1887 2 MP stroke
0 -1405 3088 1887 2 MP stroke
0 -1404 3089 1887 2 MP stroke
0 -1404 3090 1887 2 MP stroke
0 -1404 3090 1887 2 MP stroke
0 -1404 3091 1887 2 MP stroke
0 -1404 3092 1887 2 MP stroke
0 -1404 3093 1887 2 MP stroke
0 -1404 3094 1887 2 MP stroke
0 -1404 3094 1887 2 MP stroke
0 -1404 3095 1887 2 MP stroke
0 -1403 3096 1887 2 MP stroke
0 -1403 3097 1887 2 MP stroke
0 -1403 3097 1887 2 MP stroke
0 -1403 3098 1887 2 MP stroke
0 -1403 3099 1887 2 MP stroke
0 -1403 3100 1887 2 MP stroke
0 -1402 3100 1887 2 MP stroke
0 -1402 3101 1887 2 MP stroke
0 -1402 3102 1887 2 MP stroke
0 -1402 3103 1887 2 MP stroke
0 -1402 3104 1887 2 MP stroke
0 -1401 3104 1887 2 MP stroke
0 -1401 3105 1887 2 MP stroke
0 -1401 3106 1887 2 MP stroke
0 -1401 3107 1887 2 MP stroke
0 -1400 3107 1887 2 MP stroke
0 -1400 3108 1887 2 MP stroke
0 -1400 3109 1887 2 MP stroke
0 -1399 3110 1887 2 MP stroke
0 -1399 3110 1887 2 MP stroke
0 -1399 3111 1887 2 MP stroke
0 -1398 3112 1887 2 MP stroke
0 -1398 3113 1887 2 MP stroke
0 -1398 3114 1887 2 MP stroke
0 -1397 3114 1887 2 MP stroke
0 -1397 3115 1887 2 MP stroke
0 -1397 3116 1887 2 MP stroke
0 -1396 3117 1887 2 MP stroke
0 -1396 3117 1887 2 MP stroke
0 -1395 3118 1887 2 MP stroke
0 -1395 3119 1887 2 MP stroke
0 -1394 3120 1887 2 MP stroke
0 -1394 3120 1887 2 MP stroke
0 -1394 3121 1887 2 MP stroke
0 -1393 3122 1887 2 MP stroke
0 -1393 3123 1887 2 MP stroke
0 -1392 3124 1887 2 MP stroke
0 -1392 3124 1887 2 MP stroke
0 -1391 3125 1887 2 MP stroke
0 -1391 3126 1887 2 MP stroke
0 -1390 3127 1887 2 MP stroke
0 -1390 3127 1887 2 MP stroke
0 -1389 3128 1887 2 MP stroke
0 -1389 3129 1887 2 MP stroke
0 -1388 3130 1887 2 MP stroke
0 -1388 3130 1887 2 MP stroke
0 -1387 3131 1887 2 MP stroke
0 -1386 3132 1887 2 MP stroke
0 -1386 3133 1887 2 MP stroke
0 -1385 3134 1887 2 MP stroke
0 -1385 3134 1887 2 MP stroke
0 -1384 3135 1887 2 MP stroke
0 -1383 3136 1887 2 MP stroke
0 -1383 3137 1887 2 MP stroke
0 -1382 3137 1887 2 MP stroke
0 -1382 3138 1887 2 MP stroke
0 -1381 3139 1887 2 MP stroke
0 -1380 3140 1887 2 MP stroke
0 -1380 3140 1887 2 MP stroke
0 -1379 3141 1887 2 MP stroke
0 -1378 3142 1887 2 MP stroke
0 -1377 3143 1887 2 MP stroke
0 -1377 3144 1887 2 MP stroke
0 -1376 3144 1887 2 MP stroke
0 -1375 3145 1887 2 MP stroke
0 -1375 3146 1887 2 MP stroke
0 -1374 3147 1887 2 MP stroke
0 -1373 3147 1887 2 MP stroke
0 -1372 3148 1887 2 MP stroke
0 -1372 3149 1887 2 MP stroke
0 -1371 3150 1887 2 MP stroke
0 -1370 3150 1887 2 MP stroke
0 -1369 3151 1887 2 MP stroke
0 -1368 3152 1887 2 MP stroke
0 -1368 3153 1887 2 MP stroke
0 -1367 3154 1887 2 MP stroke
0 -1366 3154 1887 2 MP stroke
0 -1365 3155 1887 2 MP stroke
0 -1364 3156 1887 2 MP stroke
0 -1363 3157 1887 2 MP stroke
0 -1363 3157 1887 2 MP stroke
0 -1362 3158 1887 2 MP stroke
0 -1361 3159 1887 2 MP stroke
0 -1360 3160 1887 2 MP stroke
0 -1359 3160 1887 2 MP stroke
0 -1358 3161 1887 2 MP stroke
0 -1357 3162 1887 2 MP stroke
0 -1356 3163 1887 2 MP stroke
0 -1355 3164 1887 2 MP stroke
0 -1354 3164 1887 2 MP stroke
0 -1354 3165 1887 2 MP stroke
0 -1353 3166 1887 2 MP stroke
0 -1352 3167 1887 2 MP stroke
0 -1351 3167 1887 2 MP stroke
0 -1350 3168 1887 2 MP stroke
0 -1349 3169 1887 2 MP stroke
0 -1348 3170 1887 2 MP stroke
0 -1347 3170 1887 2 MP stroke
0 -1346 3171 1887 2 MP stroke
0 -1345 3172 1887 2 MP stroke
0 -1344 3173 1887 2 MP stroke
0 -1343 3174 1887 2 MP stroke
0 -1342 3174 1887 2 MP stroke
0 -1340 3175 1887 2 MP stroke
0 -1339 3176 1887 2 MP stroke
0 -1338 3177 1887 2 MP stroke
0 -1337 3177 1887 2 MP stroke
0 -1336 3178 1887 2 MP stroke
0 -1335 3179 1887 2 MP stroke
0 -1334 3180 1887 2 MP stroke
0 -1333 3180 1887 2 MP stroke
0 -1332 3181 1887 2 MP stroke
0 -1331 3182 1887 2 MP stroke
0 -1329 3183 1887 2 MP stroke
0 -1328 3184 1887 2 MP stroke
0 -1327 3184 1887 2 MP stroke
0 -1326 3185 1887 2 MP stroke
0 -1325 3186 1887 2 MP stroke
0 -1324 3187 1887 2 MP stroke
0 -1322 3187 1887 2 MP stroke
0 -1321 3188 1887 2 MP stroke
0 -1320 3189 1887 2 MP stroke
0 -1319 3190 1887 2 MP stroke
0 -1318 3190 1887 2 MP stroke
0 -1316 3191 1887 2 MP stroke
0 -1315 3192 1887 2 MP stroke
0 -1314 3193 1887 2 MP stroke
0 -1313 3194 1887 2 MP stroke
0 -1311 3194 1887 2 MP stroke
0 -1310 3195 1887 2 MP stroke
0 -1309 3196 1887 2 MP stroke
0 -1308 3197 1887 2 MP stroke
0 -1306 3197 1887 2 MP stroke
0 -1305 3198 1887 2 MP stroke
0 -1304 3199 1887 2 MP stroke
0 -1302 3200 1887 2 MP stroke
0 -1301 3200 1887 2 MP stroke
0 -1300 3201 1887 2 MP stroke
0 -1298 3202 1887 2 MP stroke
0 -1297 3203 1887 2 MP stroke
0 -1296 3204 1887 2 MP stroke
0 -1294 3204 1887 2 MP stroke
0 -1293 3205 1887 2 MP stroke
0 -1292 3206 1887 2 MP stroke
0 -1290 3207 1887 2 MP stroke
0 -1289 3207 1887 2 MP stroke
0 -1288 3208 1887 2 MP stroke
0 -1286 3209 1887 2 MP stroke
0 -1285 3210 1887 2 MP stroke
0 -1283 3210 1887 2 MP stroke
0 -1282 3211 1887 2 MP stroke
0 -1280 3212 1887 2 MP stroke
0 -1279 3213 1887 2 MP stroke
0 -1278 3214 1887 2 MP stroke
0 -1276 3214 1887 2 MP stroke
0 -1275 3215 1887 2 MP stroke
0 -1273 3216 1887 2 MP stroke
0 -1272 3217 1887 2 MP stroke
0 -1270 3217 1887 2 MP stroke
0 -1269 3218 1887 2 MP stroke
0 -1267 3219 1887 2 MP stroke
0 -1266 3220 1887 2 MP stroke
0 -1264 3221 1887 2 MP stroke
0 -1263 3221 1887 2 MP stroke
0 -1261 3222 1887 2 MP stroke
0 -1260 3223 1887 2 MP stroke
0 -1258 3224 1887 2 MP stroke
0 -1257 3224 1887 2 MP stroke
0 -1255 3225 1887 2 MP stroke
0 -1254 3226 1887 2 MP stroke
0 -1252 3227 1887 2 MP stroke
0 -1250 3227 1887 2 MP stroke
0 -1249 3228 1887 2 MP stroke
0 -1247 3229 1887 2 MP stroke
0 -1246 3230 1887 2 MP stroke
0 -1244 3231 1887 2 MP stroke
0 -1242 3231 1887 2 MP stroke
0 -1241 3232 1887 2 MP stroke
0 -1239 3233 1887 2 MP stroke
0 -1238 3234 1887 2 MP stroke
0 -1236 3234 1887 2 MP stroke
0 -1234 3235 1887 2 MP stroke
0 -1233 3236 1887 2 MP stroke
0 -1231 3237 1887 2 MP stroke
0 -1229 3237 1887 2 MP stroke
0 -1228 3238 1887 2 MP stroke
0 -1226 3239 1887 2 MP stroke
0 -1224 3240 1887 2 MP stroke
0 -1223 3241 1887 2 MP stroke
0 -1221 3241 1887 2 MP stroke
0 -1219 3242 1887 2 MP stroke
0 -1218 3243 1887 2 MP stroke
0 -1216 3244 1887 2 MP stroke
0 -1214 3244 1887 2 MP stroke
0 -1212 3245 1887 2 MP stroke
0 -1211 3246 1887 2 MP stroke
0 -1209 3247 1887 2 MP stroke
0 -1207 3247 1887 2 MP stroke
0 -1205 3248 1887 2 MP stroke
0 -1204 3249 1887 2 MP stroke
0 -1202 3250 1887 2 MP stroke
0 -1200 3251 1887 2 MP stroke
0 -1198 3251 1887 2 MP stroke
0 -1197 3252 1887 2 MP stroke
0 -1195 3253 1887 2 MP stroke
0 -1193 3254 1887 2 MP stroke
0 -1191 3254 1887 2 MP stroke
0 -1189 3255 1887 2 MP stroke
0 -1188 3256 1887 2 MP stroke
0 -1186 3257 1887 2 MP stroke
0 -1184 3257 1887 2 MP stroke
0 -1182 3258 1887 2 MP stroke
0 -1180 3259 1887 2 MP stroke
0 -1179 3260 1887 2 MP stroke
0 -1177 3261 1887 2 MP stroke
0 -1175 3261 1887 2 MP stroke
0 -1173 3262 1887 2 MP stroke
0 -1171 3263 1887 2 MP stroke
0 -1169 3264 1887 2 MP stroke
0 -1167 3264 1887 2 MP stroke
0 -1166 3265 1887 2 MP stroke
0 -1164 3266 1887 2 MP stroke
0 -1162 3267 1887 2 MP stroke
0 -1160 3267 1887 2 MP stroke
0 -1158 3268 1887 2 MP stroke
0 -1156 3269 1887 2 MP stroke
0 -1154 3270 1887 2 MP stroke
0 -1152 3271 1887 2 MP stroke
0 -1150 3271 1887 2 MP stroke
0 -1148 3272 1887 2 MP stroke
0 -1146 3273 1887 2 MP stroke
0 -1145 3274 1887 2 MP stroke
0 -1143 3274 1887 2 MP stroke
0 -1141 3275 1887 2 MP stroke
0 -1139 3276 1887 2 MP stroke
0 -1137 3277 1887 2 MP stroke
0 -1135 3277 1887 2 MP stroke
0 -1133 3278 1887 2 MP stroke
0 -1131 3279 1887 2 MP stroke
0 -1129 3280 1887 2 MP stroke
0 -1127 3281 1887 2 MP stroke
0 -1125 3281 1887 2 MP stroke
0 -1123 3282 1887 2 MP stroke
0 -1121 3283 1887 2 MP stroke
0 -1119 3284 1887 2 MP stroke
0 -1117 3284 1887 2 MP stroke
0 -1115 3285 1887 2 MP stroke
0 -1113 3286 1887 2 MP stroke
0 -1111 3287 1887 2 MP stroke
0 -1109 3287 1887 2 MP stroke
0 -1107 3288 1887 2 MP stroke
0 -1105 3289 1887 2 MP stroke
0 -1103 3290 1887 2 MP stroke
0 -1101 3291 1887 2 MP stroke
0 -1099 3291 1887 2 MP stroke
0 -1097 3292 1887 2 MP stroke
0 -1094 3293 1887 2 MP stroke
0 -1092 3294 1887 2 MP stroke
0 -1090 3294 1887 2 MP stroke
0 -1088 3295 1887 2 MP stroke
0 -1086 3296 1887 2 MP stroke
0 -1084 3297 1887 2 MP stroke
0 -1082 3297 1887 2 MP stroke
0 -1080 3298 1887 2 MP stroke
0 -1078 3299 1887 2 MP stroke
0 -1076 3300 1887 2 MP stroke
0 -1074 3301 1887 2 MP stroke
0 -1072 3301 1887 2 MP stroke
0 -1069 3302 1887 2 MP stroke
0 -1067 3303 1887 2 MP stroke
0 -1065 3304 1887 2 MP stroke
0 -1063 3304 1887 2 MP stroke
0 -1061 3305 1887 2 MP stroke
0 -1059 3306 1887 2 MP stroke
0 -1057 3307 1887 2 MP stroke
0 -1055 3307 1887 2 MP stroke
0 -1052 3308 1887 2 MP stroke
0 -1050 3309 1887 2 MP stroke
0 -1048 3310 1887 2 MP stroke
0 -1046 3311 1887 2 MP stroke
0 -1044 3311 1887 2 MP stroke
0 -1042 3312 1887 2 MP stroke
0 -1039 3313 1887 2 MP stroke
0 -1037 3314 1887 2 MP stroke
0 -1035 3314 1887 2 MP stroke
0 -1033 3315 1887 2 MP stroke
0 -1031 3316 1887 2 MP stroke
0 -1029 3317 1887 2 MP stroke
0 -1026 3317 1887 2 MP stroke
0 -1024 3318 1887 2 MP stroke
0 -1022 3319 1887 2 MP stroke
0 -1020 3320 1887 2 MP stroke
0 -1018 3321 1887 2 MP stroke
0 -1015 3321 1887 2 MP stroke
0 -1013 3322 1887 2 MP stroke
0 -1011 3323 1887 2 MP stroke
0 -1009 3324 1887 2 MP stroke
0 -1007 3324 1887 2 MP stroke
0 -1004 3325 1887 2 MP stroke
0 -1002 3326 1887 2 MP stroke
0 -1000 3327 1887 2 MP stroke
0 -998 3327 1887 2 MP stroke
0 -995 3328 1887 2 MP stroke
0 -993 3329 1887 2 MP stroke
0 -991 3330 1887 2 MP stroke
0 -989 3331 1887 2 MP stroke
0 -986 3331 1887 2 MP stroke
0 -984 3332 1887 2 MP stroke
0 -982 3333 1887 2 MP stroke
0 -980 3334 1887 2 MP stroke
0 -977 3334 1887 2 MP stroke
0 -975 3335 1887 2 MP stroke
0 -973 3336 1887 2 MP stroke
0 -971 3337 1887 2 MP stroke
0 -968 3337 1887 2 MP stroke
0 -966 3338 1887 2 MP stroke
0 -964 3339 1887 2 MP stroke
0 -962 3340 1887 2 MP stroke
0 -959 3341 1887 2 MP stroke
0 -957 3341 1887 2 MP stroke
0 -955 3342 1887 2 MP stroke
0 -952 3343 1887 2 MP stroke
0 -950 3344 1887 2 MP stroke
0 -948 3344 1887 2 MP stroke
0 -946 3345 1887 2 MP stroke
0 -943 3346 1887 2 MP stroke
0 -941 3347 1887 2 MP stroke
0 -939 3347 1887 2 MP stroke
0 -936 3348 1887 2 MP stroke
0 -934 3349 1887 2 MP stroke
0 -932 3350 1887 2 MP stroke
0 -929 3351 1887 2 MP stroke
0 -927 3351 1887 2 MP stroke
0 -925 3352 1887 2 MP stroke
0 -923 3353 1887 2 MP stroke
0 -920 3354 1887 2 MP stroke
0 -918 3354 1887 2 MP stroke
0 -916 3355 1887 2 MP stroke
0 -913 3356 1887 2 MP stroke
0 -911 3357 1887 2 MP stroke
0 -909 3358 1887 2 MP stroke
0 -906 3358 1887 2 MP stroke
0 -904 3359 1887 2 MP stroke
0 -902 3360 1887 2 MP stroke
0 -899 3361 1887 2 MP stroke
0 -897 3361 1887 2 MP stroke
0 -895 3362 1887 2 MP stroke
0 -892 3363 1887 2 MP stroke
0 -890 3364 1887 2 MP stroke
0 -888 3364 1887 2 MP stroke
0 -885 3365 1887 2 MP stroke
0 -883 3366 1887 2 MP stroke
0 -881 3367 1887 2 MP stroke
0 -878 3368 1887 2 MP stroke
0 -876 3368 1887 2 MP stroke
0 -873 3369 1887 2 MP stroke
0 -871 3370 1887 2 MP stroke
0 -869 3371 1887 2 MP stroke
0 -866 3371 1887 2 MP stroke
0 -864 3372 1887 2 MP stroke
0 -862 3373 1887 2 MP stroke
0 -859 3374 1887 2 MP stroke
0 -857 3374 1887 2 MP stroke
0 -855 3375 1887 2 MP stroke
0 -852 3376 1887 2 MP stroke
0 -850 3377 1887 2 MP stroke
0 -848 3378 1887 2 MP stroke
0 -845 3378 1887 2 MP stroke
0 -843 3379 1887 2 MP stroke
0 -840 3380 1887 2 MP stroke
0 -838 3381 1887 2 MP stroke
0 -836 3381 1887 2 MP stroke
0 -833 3382 1887 2 MP stroke
0 -831 3383 1887 2 MP stroke
0 -829 3384 1887 2 MP stroke
0 -826 3384 1887 2 MP stroke
0 -824 3385 1887 2 MP stroke
0 -821 3386 1887 2 MP stroke
0 -819 3387 1887 2 MP stroke
0 -817 3388 1887 2 MP stroke
0 -814 3388 1887 2 MP stroke
0 -812 3389 1887 2 MP stroke
0 -810 3390 1887 2 MP stroke
0 -807 3391 1887 2 MP stroke
0 -805 3391 1887 2 MP stroke
0 -802 3392 1887 2 MP stroke
0 -800 3393 1887 2 MP stroke
0 -798 3394 1887 2 MP stroke
0 -795 3394 1887 2 MP stroke
0 -793 3395 1887 2 MP stroke
0 -791 3396 1887 2 MP stroke
0 -788 3397 1887 2 MP stroke
0 -786 3398 1887 2 MP stroke
0 -783 3398 1887 2 MP stroke
0 -781 3399 1887 2 MP stroke
0 -779 3400 1887 2 MP stroke
0 -776 3401 1887 2 MP stroke
0 -774 3401 1887 2 MP stroke
0 -771 3402 1887 2 MP stroke
0 -769 3403 1887 2 MP stroke
0 -767 3404 1887 2 MP stroke
0 -764 3404 1887 2 MP stroke
0 -762 3405 1887 2 MP stroke
0 -760 3406 1887 2 MP stroke
0 -757 3407 1887 2 MP stroke
0 -755 3408 1887 2 MP stroke
0 -752 3408 1887 2 MP stroke
0 -750 3409 1887 2 MP stroke
0 -748 3410 1887 2 MP stroke
0 -745 3411 1887 2 MP stroke
0 -743 3411 1887 2 MP stroke
0 -740 3412 1887 2 MP stroke
0 -738 3413 1887 2 MP stroke
0 -736 3414 1887 2 MP stroke
0 -733 3414 1887 2 MP stroke
0 -731 3415 1887 2 MP stroke
0 -729 3416 1887 2 MP stroke
0 -726 3417 1887 2 MP stroke
0 -724 3418 1887 2 MP stroke
0 -721 3418 1887 2 MP stroke
0 -719 3419 1887 2 MP stroke
0 -717 3420 1887 2 MP stroke
0 -714 3421 1887 2 MP stroke
0 -712 3421 1887 2 MP stroke
0 -710 3422 1887 2 MP stroke
0 -707 3423 1887 2 MP stroke
0 -705 3424 1887 2 MP stroke
0 -702 3424 1887 2 MP stroke
0 -700 3425 1887 2 MP stroke
0 -698 3426 1887 2 MP stroke
0 -695 3427 1887 2 MP stroke
0 -693 3428 1887 2 MP stroke
0 -691 3428 1887 2 MP stroke
0 -688 3429 1887 2 MP stroke
0 -686 3430 1887 2 MP stroke
0 -684 3431 1887 2 MP stroke
0 -681 3431 1887 2 MP stroke
0 -679 3432 1887 2 MP stroke
0 -676 3433 1887 2 MP stroke
0 -674 3434 1887 2 MP stroke
0 -672 3434 1887 2 MP stroke
0 -669 3435 1887 2 MP stroke
0 -667 3436 1887 2 MP stroke
0 -665 3437 1887 2 MP stroke
0 -662 3438 1887 2 MP stroke
0 -660 3438 1887 2 MP stroke
0 -658 3439 1887 2 MP stroke
0 -655 3440 1887 2 MP stroke
0 -653 3441 1887 2 MP stroke
0 -651 3441 1887 2 MP stroke
0 -648 3442 1887 2 MP stroke
0 -646 3443 1887 2 MP stroke
0 -644 3444 1887 2 MP stroke
0 -641 3444 1887 2 MP stroke
0 -639 3445 1887 2 MP stroke
0 -637 3446 1887 2 MP stroke
0 -634 3447 1887 2 MP stroke
0 -632 3448 1887 2 MP stroke
0 -630 3448 1887 2 MP stroke
0 -627 3449 1887 2 MP stroke
0 -625 3450 1887 2 MP stroke
0 -623 3451 1887 2 MP stroke
0 -620 3451 1887 2 MP stroke
0 -618 3452 1887 2 MP stroke
0 -616 3453 1887 2 MP stroke
0 -613 3454 1887 2 MP stroke
0 -611 3454 1887 2 MP stroke
0 -609 3455 1887 2 MP stroke
0 -606 3456 1887 2 MP stroke
0 -604 3457 1887 2 MP stroke
0 -602 3458 1887 2 MP stroke
0 -599 3458 1887 2 MP stroke
0 -597 3459 1887 2 MP stroke
0 -595 3460 1887 2 MP stroke
0 -592 3461 1887 2 MP stroke
0 -590 3461 1887 2 MP stroke
0 -588 3462 1887 2 MP stroke
0 -586 3463 1887 2 MP stroke
0 -583 3464 1887 2 MP stroke
0 -581 3464 1887 2 MP stroke
0 -579 3465 1887 2 MP stroke
0 -576 3466 1887 2 MP stroke
0 -574 3467 1887 2 MP stroke
0 -572 3468 1887 2 MP stroke
0 -570 3468 1887 2 MP stroke
0 -567 3469 1887 2 MP stroke
0 -565 3470 1887 2 MP stroke
0 -563 3471 1887 2 MP stroke
0 -561 3471 1887 2 MP stroke
0 -558 3472 1887 2 MP stroke
0 -556 3473 1887 2 MP stroke
0 -554 3474 1887 2 MP stroke
0 -551 3474 1887 2 MP stroke
0 -549 3475 1887 2 MP stroke
0 -547 3476 1887 2 MP stroke
0 -545 3477 1887 2 MP stroke
0 -542 3478 1887 2 MP stroke
0 -540 3478 1887 2 MP stroke
0 -538 3479 1887 2 MP stroke
0 -536 3480 1887 2 MP stroke
0 -533 3481 1887 2 MP stroke
0 -531 3481 1887 2 MP stroke
0 -529 3482 1887 2 MP stroke
0 -527 3483 1887 2 MP stroke
0 -525 3484 1887 2 MP stroke
0 -522 3484 1887 2 MP stroke
0 -520 3485 1887 2 MP stroke
0 -518 3486 1887 2 MP stroke
0 -516 3487 1887 2 MP stroke
0 -514 3488 1887 2 MP stroke
0 -511 3488 1887 2 MP stroke
0 -509 3489 1887 2 MP stroke
0 -507 3490 1887 2 MP stroke
0 -505 3491 1887 2 MP stroke
0 -503 3491 1887 2 MP stroke
0 -500 3492 1887 2 MP stroke
0 -498 3493 1887 2 MP stroke
0 -496 3494 1887 2 MP stroke
0 -494 3495 1887 2 MP stroke
0 -492 3495 1887 2 MP stroke
0 -489 3496 1887 2 MP stroke
0 -487 3497 1887 2 MP stroke
0 -485 3498 1887 2 MP stroke
0 -483 3498 1887 2 MP stroke
0 -481 3499 1887 2 MP stroke
0 -479 3500 1887 2 MP stroke
0 -476 3501 1887 2 MP stroke
0 -474 3501 1887 2 MP stroke
0 -472 3502 1887 2 MP stroke
0 -470 3503 1887 2 MP stroke
0 -468 3504 1887 2 MP stroke
0 -466 3505 1887 2 MP stroke
0 -464 3505 1887 2 MP stroke
0 -461 3506 1887 2 MP stroke
0 -459 3507 1887 2 MP stroke
0 -457 3508 1887 2 MP stroke
0 -455 3508 1887 2 MP stroke
0 -453 3509 1887 2 MP stroke
0 -451 3510 1887 2 MP stroke
0 -449 3511 1887 2 MP stroke
0 -447 3511 1887 2 MP stroke
0 -445 3512 1887 2 MP stroke
0 -442 3513 1887 2 MP stroke
0 -440 3514 1887 2 MP stroke
0 -438 3515 1887 2 MP stroke
0 -436 3515 1887 2 MP stroke
0 -434 3516 1887 2 MP stroke
0 -432 3517 1887 2 MP stroke
0 -430 3518 1887 2 MP stroke
0 -428 3518 1887 2 MP stroke
0 -426 3519 1887 2 MP stroke
0 -424 3520 1887 2 MP stroke
0 -422 3521 1887 2 MP stroke
0 -420 3521 1887 2 MP stroke
0 -418 3522 1887 2 MP stroke
0 -416 3523 1887 2 MP stroke
0 -413 3524 1887 2 MP stroke
0 -411 3525 1887 2 MP stroke
0 -409 3525 1887 2 MP stroke
0 -407 3526 1887 2 MP stroke
0 -405 3527 1887 2 MP stroke
0 -403 3528 1887 2 MP stroke
0 -401 3528 1887 2 MP stroke
0 -399 3529 1887 2 MP stroke
0 -397 3530 1887 2 MP stroke
0 -395 3531 1887 2 MP stroke
0 -393 3531 1887 2 MP stroke
0 -391 3532 1887 2 MP stroke
0 -389 3533 1887 2 MP stroke
0 -387 3534 1887 2 MP stroke
0 -385 3535 1887 2 MP stroke
0 -383 3535 1887 2 MP stroke
0 -381 3536 1887 2 MP stroke
0 -379 3537 1887 2 MP stroke
0 -377 3538 1887 2 MP stroke
0 -375 3538 1887 2 MP stroke
0 -373 3539 1887 2 MP stroke
0 -372 3540 1887 2 MP stroke
0 -370 3541 1887 2 MP stroke
0 -368 3541 1887 2 MP stroke
0 -366 3542 1887 2 MP stroke
0 -364 3543 1887 2 MP stroke
0 -362 3544 1887 2 MP stroke
0 -360 3545 1887 2 MP stroke
0 -358 3545 1887 2 MP stroke
0 -356 3546 1887 2 MP stroke
0 -354 3547 1887 2 MP stroke
0 -352 3548 1887 2 MP stroke
0 -350 3548 1887 2 MP stroke
0 -348 3549 1887 2 MP stroke
0 -347 3550 1887 2 MP stroke
0 -345 3551 1887 2 MP stroke
0 -343 3551 1887 2 MP stroke
0 -341 3552 1887 2 MP stroke
0 -339 3553 1887 2 MP stroke
0 -337 3554 1887 2 MP stroke
0 -335 3555 1887 2 MP stroke
0 -333 3555 1887 2 MP stroke
0 -332 3556 1887 2 MP stroke
0 -330 3557 1887 2 MP stroke
0 -328 3558 1887 2 MP stroke
0 -326 3558 1887 2 MP stroke
0 -324 3559 1887 2 MP stroke
0 -322 3560 1887 2 MP stroke
0 -320 3561 1887 2 MP stroke
0 -319 3561 1887 2 MP stroke
0 -317 3562 1887 2 MP stroke
0 -315 3563 1887 2 MP stroke
0 -313 3564 1887 2 MP stroke
0 -311 3565 1887 2 MP stroke
0 -310 3565 1887 2 MP stroke
0 -308 3566 1887 2 MP stroke
0 -306 3567 1887 2 MP stroke
0 -304 3568 1887 2 MP stroke
0 -302 3568 1887 2 MP stroke
0 -301 3569 1887 2 MP stroke
0 -299 3570 1887 2 MP stroke
0 -297 3571 1887 2 MP stroke
0 -295 3571 1887 2 MP stroke
0 -294 3572 1887 2 MP stroke
0 -292 3573 1887 2 MP stroke
0 -290 3574 1887 2 MP stroke
0 -288 3575 1887 2 MP stroke
0 -287 3575 1887 2 MP stroke
0 -285 3576 1887 2 MP stroke
0 -283 3577 1887 2 MP stroke
0 -281 3578 1887 2 MP stroke
0 -280 3578 1887 2 MP stroke
0 -278 3579 1887 2 MP stroke
0 -276 3580 1887 2 MP stroke
0 -275 3581 1887 2 MP stroke
0 -273 3581 1887 2 MP stroke
0 -271 3582 1887 2 MP stroke
0 -270 3583 1887 2 MP stroke
0 -268 3584 1887 2 MP stroke
0 -266 3585 1887 2 MP stroke
0 -264 3585 1887 2 MP stroke
0 -263 3586 1887 2 MP stroke
0 -261 3587 1887 2 MP stroke
0 -260 3588 1887 2 MP stroke
0 -258 3588 1887 2 MP stroke
0 -256 3589 1887 2 MP stroke
0 -255 3590 1887 2 MP stroke
0 -253 3591 1887 2 MP stroke
0 -251 3591 1887 2 MP stroke
0 -250 3592 1887 2 MP stroke
0 -248 3593 1887 2 MP stroke
0 -246 3594 1887 2 MP stroke
0 -245 3595 1887 2 MP stroke
0 -243 3595 1887 2 MP stroke
0 -242 3596 1887 2 MP stroke
0 -240 3597 1887 2 MP stroke
0 -238 3598 1887 2 MP stroke
0 -237 3598 1887 2 MP stroke
0 -235 3599 1887 2 MP stroke
0 -234 3600 1887 2 MP stroke
0 -232 3601 1887 2 MP stroke
0 -231 3601 1887 2 MP stroke
0 -229 3602 1887 2 MP stroke
0 -228 3603 1887 2 MP stroke
0 -226 3604 1887 2 MP stroke
0 -224 3605 1887 2 MP stroke
0 -223 3605 1887 2 MP stroke
0 -221 3606 1887 2 MP stroke
0 -220 3607 1887 2 MP stroke
0 -218 3608 1887 2 MP stroke
0 -217 3608 1887 2 MP stroke
0 -215 3609 1887 2 MP stroke
0 -214 3610 1887 2 MP stroke
0 -212 3611 1887 2 MP stroke
0 -211 3611 1887 2 MP stroke
0 -209 3612 1887 2 MP stroke
0 -208 3613 1887 2 MP stroke
0 -206 3614 1887 2 MP stroke
0 -205 3615 1887 2 MP stroke
0 -203 3615 1887 2 MP stroke
0 -202 3616 1887 2 MP stroke
0 -201 3617 1887 2 MP stroke
0 -199 3618 1887 2 MP stroke
0 -198 3618 1887 2 MP stroke
0 -196 3619 1887 2 MP stroke
0 -195 3620 1887 2 MP stroke
0 -193 3621 1887 2 MP stroke
0 -192 3621 1887 2 MP stroke
0 -191 3622 1887 2 MP stroke
0 -189 3623 1887 2 MP stroke
0 -188 3624 1887 2 MP stroke
0 -186 3625 1887 2 MP stroke
0 -185 3625 1887 2 MP stroke
0 -184 3626 1887 2 MP stroke
0 -182 3627 1887 2 MP stroke
0 -181 3628 1887 2 MP stroke
0 -179 3628 1887 2 MP stroke
0 -178 3629 1887 2 MP stroke
0 -177 3630 1887 2 MP stroke
0 -175 3631 1887 2 MP stroke
0 -174 3632 1887 2 MP stroke
0 -173 3632 1887 2 MP stroke
0 -171 3633 1887 2 MP stroke
0 -170 3634 1887 2 MP stroke
0 -169 3635 1887 2 MP stroke
0 -167 3635 1887 2 MP stroke
0 -166 3636 1887 2 MP stroke
0 -165 3637 1887 2 MP stroke
0 -163 3638 1887 2 MP stroke
0 -162 3638 1887 2 MP stroke
0 -161 3639 1887 2 MP stroke
0 -160 3640 1887 2 MP stroke
0 -158 3641 1887 2 MP stroke
0 -157 3642 1887 2 MP stroke
0 -156 3642 1887 2 MP stroke
0 -154 3643 1887 2 MP stroke
0 -153 3644 1887 2 MP stroke
0 -152 3645 1887 2 MP stroke
0 -151 3645 1887 2 MP stroke
0 -149 3646 1887 2 MP stroke
0 -148 3647 1887 2 MP stroke
0 -147 3648 1887 2 MP stroke
0 -146 3648 1887 2 MP stroke
0 -145 3649 1887 2 MP stroke
0 -143 3650 1887 2 MP stroke
0 -142 3651 1887 2 MP stroke
0 -141 3652 1887 2 MP stroke
0 -140 3652 1887 2 MP stroke
0 -139 3653 1887 2 MP stroke
0 -137 3654 1887 2 MP stroke
0 -136 3655 1887 2 MP stroke
0 -135 3655 1887 2 MP stroke
0 -134 3656 1887 2 MP stroke
0 -133 3657 1887 2 MP stroke
0 -132 3658 1887 2 MP stroke
0 -130 3658 1887 2 MP stroke
0 -129 3659 1887 2 MP stroke
0 -128 3660 1887 2 MP stroke
0 -127 3661 1887 2 MP stroke
0 -126 3662 1887 2 MP stroke
0 -125 3662 1887 2 MP stroke
0 -124 3663 1887 2 MP stroke
0 -122 3664 1887 2 MP stroke
0 -121 3665 1887 2 MP stroke
0 -120 3665 1887 2 MP stroke
0 -119 3666 1887 2 MP stroke
0 -118 3667 1887 2 MP stroke
0 -117 3668 1887 2 MP stroke
0 -116 3668 1887 2 MP stroke
0 -115 3669 1887 2 MP stroke
0 -114 3670 1887 2 MP stroke
0 -113 3671 1887 2 MP stroke
0 -112 3672 1887 2 MP stroke
0 -111 3672 1887 2 MP stroke
0 -110 3673 1887 2 MP stroke
0 -109 3674 1887 2 MP stroke
0 -107 3675 1887 2 MP stroke
0 -106 3675 1887 2 MP stroke
0 -105 3676 1887 2 MP stroke
0 -104 3677 1887 2 MP stroke
0 -103 3678 1887 2 MP stroke
0 -102 3678 1887 2 MP stroke
0 -101 3679 1887 2 MP stroke
0 -100 3680 1887 2 MP stroke
0 -99 3681 1887 2 MP stroke
0 -98 3682 1887 2 MP stroke
0 -97 3682 1887 2 MP stroke
0 -96 3683 1887 2 MP stroke
0 -96 3684 1887 2 MP stroke
0 -95 3685 1887 2 MP stroke
0 -94 3685 1887 2 MP stroke
0 -93 3686 1887 2 MP stroke
0 -92 3687 1887 2 MP stroke
0 -91 3688 1887 2 MP stroke
0 -90 3688 1887 2 MP stroke
0 -89 3689 1887 2 MP stroke
0 -88 3690 1887 2 MP stroke
0 -87 3691 1887 2 MP stroke
0 -86 3692 1887 2 MP stroke
0 -85 3692 1887 2 MP stroke
0 -84 3693 1887 2 MP stroke
0 -83 3694 1887 2 MP stroke
0 -83 3695 1887 2 MP stroke
0 -82 3695 1887 2 MP stroke
0 -81 3696 1887 2 MP stroke
0 -80 3697 1887 2 MP stroke
0 -79 3698 1887 2 MP stroke
0 -78 3698 1887 2 MP stroke
0 -77 3699 1887 2 MP stroke
0 -76 3700 1887 2 MP stroke
0 -76 3701 1887 2 MP stroke
0 -75 3702 1887 2 MP stroke
0 -74 3702 1887 2 MP stroke
0 -73 3703 1887 2 MP stroke
0 -72 3704 1887 2 MP stroke
0 -71 3705 1887 2 MP stroke
0 -71 3705 1887 2 MP stroke
0 -70 3706 1887 2 MP stroke
0 -69 3707 1887 2 MP stroke
0 -68 3708 1887 2 MP stroke
0 -67 3708 1887 2 MP stroke
0 -67 3709 1887 2 MP stroke
0 -66 3710 1887 2 MP stroke
0 -65 3711 1887 2 MP stroke
0 -64 3712 1887 2 MP stroke
0 -64 3712 1887 2 MP stroke
0 -63 3713 1887 2 MP stroke
0 -62 3714 1887 2 MP stroke
0 -61 3715 1887 2 MP stroke
0 -61 3715 1887 2 MP stroke
0 -60 3716 1887 2 MP stroke
0 -59 3717 1887 2 MP stroke
0 -58 3718 1887 2 MP stroke
0 -58 3718 1887 2 MP stroke
0 -57 3719 1887 2 MP stroke
0 -56 3720 1887 2 MP stroke
0 -55 3721 1887 2 MP stroke
0 -55 3722 1887 2 MP stroke
0 -54 3722 1887 2 MP stroke
0 -53 3723 1887 2 MP stroke
0 -53 3724 1887 2 MP stroke
0 -52 3725 1887 2 MP stroke
0 -51 3725 1887 2 MP stroke
0 -51 3726 1887 2 MP stroke
0 -50 3727 1887 2 MP stroke
0 -49 3728 1887 2 MP stroke
0 -49 3728 1887 2 MP stroke
0 -48 3729 1887 2 MP stroke
0 -47 3730 1887 2 MP stroke
0 -47 3731 1887 2 MP stroke
0 -46 3732 1887 2 MP stroke
0 -45 3732 1887 2 MP stroke
0 -45 3733 1887 2 MP stroke
0 -44 3734 1887 2 MP stroke
0 -44 3735 1887 2 MP stroke
0 -43 3735 1887 2 MP stroke
0 -42 3736 1887 2 MP stroke
0 -42 3737 1887 2 MP stroke
0 -41 3738 1887 2 MP stroke
0 -40 3738 1887 2 MP stroke
0 -40 3739 1887 2 MP stroke
0 -39 3740 1887 2 MP stroke
0 -39 3741 1887 2 MP stroke
0 -38 3742 1887 2 MP stroke
0 -38 3742 1887 2 MP stroke
0 -37 3743 1887 2 MP stroke
0 -36 3744 1887 2 MP stroke
0 -36 3745 1887 2 MP stroke
0 -35 3745 1887 2 MP stroke
0 -35 3746 1887 2 MP stroke
0 -34 3747 1887 2 MP stroke
0 -34 3748 1887 2 MP stroke
0 -33 3748 1887 2 MP stroke
0 -33 3749 1887 2 MP stroke
0 -32 3750 1887 2 MP stroke
0 -32 3751 1887 2 MP stroke
0 -31 3752 1887 2 MP stroke
0 -31 3752 1887 2 MP stroke
0 -30 3753 1887 2 MP stroke
0 -30 3754 1887 2 MP stroke
0 -29 3755 1887 2 MP stroke
0 -29 3755 1887 2 MP stroke
0 -28 3756 1887 2 MP stroke
0 -28 3757 1887 2 MP stroke
0 -27 3758 1887 2 MP stroke
0 -27 3758 1887 2 MP stroke
0 -26 3759 1887 2 MP stroke
0 -26 3760 1887 2 MP stroke
0 -25 3761 1887 2 MP stroke
0 -25 3762 1887 2 MP stroke
0 -25 3762 1887 2 MP stroke
0 -24 3763 1887 2 MP stroke
0 -24 3764 1887 2 MP stroke
0 -23 3765 1887 2 MP stroke
0 -23 3765 1887 2 MP stroke
0 -22 3766 1887 2 MP stroke
0 -22 3767 1887 2 MP stroke
0 -22 3768 1887 2 MP stroke
0 -21 3769 1887 2 MP stroke
0 -21 3769 1887 2 MP stroke
0 -20 3770 1887 2 MP stroke
0 -20 3771 1887 2 MP stroke
0 -20 3772 1887 2 MP stroke
0 -19 3772 1887 2 MP stroke
0 -19 3773 1887 2 MP stroke
0 -18 3774 1887 2 MP stroke
0 -18 3775 1887 2 MP stroke
0 -18 3775 1887 2 MP stroke
0 -17 3776 1887 2 MP stroke
0 -17 3777 1887 2 MP stroke
0 -17 3778 1887 2 MP stroke
0 -16 3779 1887 2 MP stroke
0 -16 3779 1887 2 MP stroke
0 -16 3780 1887 2 MP stroke
0 -15 3781 1887 2 MP stroke
0 -15 3782 1887 2 MP stroke
0 -15 3782 1887 2 MP stroke
0 -14 3783 1887 2 MP stroke
0 -14 3784 1887 2 MP stroke
0 -14 3785 1887 2 MP stroke
0 -13 3785 1887 2 MP stroke
0 -13 3786 1887 2 MP stroke
0 -13 3787 1887 2 MP stroke
0 -12 3788 1887 2 MP stroke
0 -12 3789 1887 2 MP stroke
0 -12 3789 1887 2 MP stroke
0 -11 3790 1887 2 MP stroke
0 -11 3791 1887 2 MP stroke
0 -11 3792 1887 2 MP stroke
0 -11 3792 1887 2 MP stroke
0 -10 3793 1887 2 MP stroke
0 -10 3794 1887 2 MP stroke
0 -10 3795 1887 2 MP stroke
0 -10 3795 1887 2 MP stroke
0 -9 3796 1887 2 MP stroke
0 -9 3797 1887 2 MP stroke
0 -9 3798 1887 2 MP stroke
0 -9 3799 1887 2 MP stroke
0 -8 3799 1887 2 MP stroke
0 -8 3800 1887 2 MP stroke
0 -8 3801 1887 2 MP stroke
0 -8 3802 1887 2 MP stroke
0 -7 3802 1887 2 MP stroke
0 -7 3803 1887 2 MP stroke
0 -7 3804 1887 2 MP stroke
0 -7 3805 1887 2 MP stroke
0 -7 3805 1887 2 MP stroke
0 -6 3806 1887 2 MP stroke
0 -6 3807 1887 2 MP stroke
0 -6 3808 1887 2 MP stroke
0 -6 3809 1887 2 MP stroke
0 -6 3809 1887 2 MP stroke
0 -5 3810 1887 2 MP stroke
0 -5 3811 1887 2 MP stroke
0 -5 3812 1887 2 MP stroke
0 -5 3812 1887 2 MP stroke
0 -5 3813 1887 2 MP stroke
0 -5 3814 1887 2 MP stroke
0 -4 3815 1887 2 MP stroke
0 -4 3815 1887 2 MP stroke
0 -4 3816 1887 2 MP stroke
0 -4 3817 1887 2 MP stroke
0 -4 3818 1887 2 MP stroke
0 -4 3819 1887 2 MP stroke
0 -3 3819 1887 2 MP stroke
0 -3 3820 1887 2 MP stroke
0 -3 3821 1887 2 MP stroke
0 -3 3822 1887 2 MP stroke
0 -3 3822 1887 2 MP stroke
0 -3 3823 1887 2 MP stroke
0 -3 3824 1887 2 MP stroke
0 -3 3825 1887 2 MP stroke
0 -2 3825 1887 2 MP stroke
0 -2 3826 1887 2 MP stroke
0 -2 3827 1887 2 MP stroke
0 -2 3828 1887 2 MP stroke
0 -2 3829 1887 2 MP stroke
0 -2 3829 1887 2 MP stroke
0 -2 3830 1887 2 MP stroke
0 -2 3831 1887 2 MP stroke
0 -2 3832 1887 2 MP stroke
0 -2 3832 1887 2 MP stroke
0 -1 3833 1887 2 MP stroke
0 -1 3834 1887 2 MP stroke
0 -1 3835 1887 2 MP stroke
0 -1 3835 1887 2 MP stroke
0 -1 3836 1887 2 MP stroke
0 -1 3837 1887 2 MP stroke
0 -1 3838 1887 2 MP stroke
0 -1 3839 1887 2 MP stroke
0 -1 3839 1887 2 MP stroke
0 -1 3840 1887 2 MP stroke
0 -1 3841 1887 2 MP stroke
0 -1 3842 1887 2 MP stroke
0 -1 3842 1887 2 MP stroke
0 -1 3843 1887 2 MP stroke
0 -1 3844 1887 2 MP stroke
0 -1 3845 1887 2 MP stroke
0 -1 3845 1887 2 MP stroke
0 -1 3846 1887 2 MP stroke
0 -1 3847 1887 2 MP stroke
0 -1 3848 1887 2 MP stroke
0 -1 3849 1887 2 MP stroke
0 -1 3849 1887 2 MP stroke
0 -1 3850 1887 2 MP stroke
0 -1 3851 1887 2 MP stroke
0 -1 3852 1887 2 MP stroke
0 -1 3852 1887 2 MP stroke
3853 1887 PD
gr

c8

end %%Color Dict

eplot
%%EndObject

epage
end

showpage

%%Trailer
%%EOF
