%!PS-Adobe-3.0 EPSF-3.0
%%Creator: MATLAB, The MathWorks, Inc. Version 8.1.0.604 (R2013a). Operating System: Microsoft Windows 8.
%%Title: ..\..\Images\T2Q3_1.eps
%%CreationDate: 04/23/2015  10:21:59
%%DocumentNeededFonts: Helvetica
%%DocumentProcessColors: Cyan Magenta Yellow Black
%%LanguageLevel: 2
%%Pages: 1
%%BoundingBox:    49   327   545   514
%%EndComments

%%BeginProlog
% MathWorks dictionary
/MathWorks 160 dict begin
% definition operators
/bdef {bind def} bind def
/ldef {load def} bind def
/xdef {exch def} bdef
/xstore {exch store} bdef
% operator abbreviations
/c  /clip ldef
/cc /concat ldef
/cp /closepath ldef
/gr /grestore ldef
/gs /gsave ldef
/mt /moveto ldef
/np /newpath ldef
/cm /currentmatrix ldef
/sm /setmatrix ldef
/rm /rmoveto ldef
/rl /rlineto ldef
/s {show newpath} bdef
/sc {setcmykcolor} bdef
/sr /setrgbcolor ldef
/sg /setgray ldef
/w /setlinewidth ldef
/j /setlinejoin ldef
/cap /setlinecap ldef
/rc {rectclip} bdef
/rf {rectfill} bdef
% page state control
/pgsv () def
/bpage {/pgsv save def} bdef
/epage {pgsv restore} bdef
/bplot /gsave ldef
/eplot {stroke grestore} bdef
% orientation switch
/portraitMode 0 def /landscapeMode 1 def /rotateMode 2 def
% coordinate system mappings
/dpi2point 0 def
% font control
/FontSize 0 def
/FMS {/FontSize xstore findfont [FontSize 0 0 FontSize neg 0 0]
  makefont setfont} bdef
/ISOLatin1Encoding where {pop /WindowsLatin1Encoding 256 array bdef
ISOLatin1Encoding WindowsLatin1Encoding copy pop
/.notdef/.notdef/quotesinglbase/florin/quotedblbase/ellipsis/dagger
/daggerdbl/circumflex/perthousand/Scaron/guilsinglleft/OE/.notdef/.notdef
/.notdef/.notdef/quoteleft/quoteright/quotedblleft/quotedblright/bullet
/endash/emdash/tilde/trademark/scaron/guilsinglright/oe/.notdef/.notdef
/Ydieresis WindowsLatin1Encoding 128 32 getinterval astore pop}
{/WindowsLatin1Encoding StandardEncoding bdef} ifelse
/reencode {exch dup where {pop load} {pop StandardEncoding} ifelse
  exch dup 3 1 roll findfont dup length dict begin
  { 1 index /FID ne {def}{pop pop} ifelse } forall
  /Encoding exch def currentdict end definefont pop} bdef
/isroman {findfont /CharStrings get /Agrave known} bdef
/FMSR {3 1 roll 1 index dup isroman {reencode} {pop pop} ifelse
  exch FMS} bdef
/csm {1 dpi2point div -1 dpi2point div scale neg translate
 dup landscapeMode eq {pop -90 rotate}
  {rotateMode eq {90 rotate} if} ifelse} bdef
% line types: solid, dotted, dashed, dotdash
/SO { [] 0 setdash } bdef
/DO { [.5 dpi2point mul 4 dpi2point mul] 0 setdash } bdef
/DA { [6 dpi2point mul] 0 setdash } bdef
/DD { [.5 dpi2point mul 4 dpi2point mul 6 dpi2point mul 4
  dpi2point mul] 0 setdash } bdef
% macros for lines and objects
/L {lineto stroke} bdef
/MP {3 1 roll moveto 1 sub {rlineto} repeat} bdef
/AP {{rlineto} repeat} bdef
/PDlw -1 def
/W {/PDlw currentlinewidth def setlinewidth} def
/PP {closepath eofill} bdef
/DP {closepath stroke} bdef
/MR {4 -2 roll moveto dup  0 exch rlineto exch 0 rlineto
  neg 0 exch rlineto closepath} bdef
/FR {MR stroke} bdef
/PR {MR fill} bdef
/L1i {{currentfile picstr readhexstring pop} image} bdef
/tMatrix matrix def
/MakeOval {newpath tMatrix currentmatrix pop translate scale
0 0 1 0 360 arc tMatrix setmatrix} bdef
/FO {MakeOval stroke} bdef
/PO {MakeOval fill} bdef
/PD {currentlinewidth 2 div 0 360 arc fill
   PDlw -1 eq not {PDlw w /PDlw -1 def} if} def
/FA {newpath tMatrix currentmatrix pop translate scale
  0 0 1 5 -2 roll arc tMatrix setmatrix stroke} bdef
/PA {newpath tMatrix currentmatrix pop	translate 0 0 moveto scale
  0 0 1 5 -2 roll arc closepath tMatrix setmatrix fill} bdef
/FAn {newpath tMatrix currentmatrix pop translate scale
  0 0 1 5 -2 roll arcn tMatrix setmatrix stroke} bdef
/PAn {newpath tMatrix currentmatrix pop translate 0 0 moveto scale
  0 0 1 5 -2 roll arcn closepath tMatrix setmatrix fill} bdef
/vradius 0 def /hradius 0 def /lry 0 def
/lrx 0 def /uly 0 def /ulx 0 def /rad 0 def
/MRR {/vradius xdef /hradius xdef /lry xdef /lrx xdef /uly xdef
  /ulx xdef newpath tMatrix currentmatrix pop ulx hradius add uly
  vradius add translate hradius vradius scale 0 0 1 180 270 arc 
  tMatrix setmatrix lrx hradius sub uly vradius add translate
  hradius vradius scale 0 0 1 270 360 arc tMatrix setmatrix
  lrx hradius sub lry vradius sub translate hradius vradius scale
  0 0 1 0 90 arc tMatrix setmatrix ulx hradius add lry vradius sub
  translate hradius vradius scale 0 0 1 90 180 arc tMatrix setmatrix
  closepath} bdef
/FRR {MRR stroke } bdef
/PRR {MRR fill } bdef
/MlrRR {/lry xdef /lrx xdef /uly xdef /ulx xdef /rad lry uly sub 2 div def
  newpath tMatrix currentmatrix pop ulx rad add uly rad add translate
  rad rad scale 0 0 1 90 270 arc tMatrix setmatrix lrx rad sub lry rad
  sub translate rad rad scale 0 0 1 270 90 arc tMatrix setmatrix
  closepath} bdef
/FlrRR {MlrRR stroke } bdef
/PlrRR {MlrRR fill } bdef
/MtbRR {/lry xdef /lrx xdef /uly xdef /ulx xdef /rad lrx ulx sub 2 div def
  newpath tMatrix currentmatrix pop ulx rad add uly rad add translate
  rad rad scale 0 0 1 180 360 arc tMatrix setmatrix lrx rad sub lry rad
  sub translate rad rad scale 0 0 1 0 180 arc tMatrix setmatrix
  closepath} bdef
/FtbRR {MtbRR stroke } bdef
/PtbRR {MtbRR fill } bdef
/stri 6 array def /dtri 6 array def
/smat 6 array def /dmat 6 array def
/tmat1 6 array def /tmat2 6 array def /dif 3 array def
/asub {/ind2 exch def /ind1 exch def dup dup
  ind1 get exch ind2 get sub exch } bdef
/tri_to_matrix {
  2 0 asub 3 1 asub 4 0 asub 5 1 asub
  dup 0 get exch 1 get 7 -1 roll astore } bdef
/compute_transform {
  dmat dtri tri_to_matrix tmat1 invertmatrix 
  smat stri tri_to_matrix tmat2 concatmatrix } bdef
/ds {stri astore pop} bdef
/dt {dtri astore pop} bdef
/db {2 copy /cols xdef /rows xdef mul dup 3 mul string
  currentfile 
  3 index 0 eq {/ASCIIHexDecode filter}
  {/ASCII85Decode filter 3 index 2 eq {/RunLengthDecode filter} if }
  ifelse exch readstring pop
  dup 0 3 index getinterval /rbmap xdef
  dup 2 index dup getinterval /gbmap xdef
  1 index dup 2 mul exch getinterval /bbmap xdef pop pop}bdef
/it {gs np dtri aload pop moveto lineto lineto cp c
  cols rows 8 compute_transform 
  rbmap gbmap bbmap true 3 colorimage gr}bdef
/il {newpath moveto lineto stroke}bdef
currentdict end def
%%EndProlog

%%BeginSetup
MathWorks begin

0 cap

end
%%EndSetup

%%Page: 1 1
%%BeginPageSetup
%%PageBoundingBox:    49   327   545   514
MathWorks begin
bpage
%%EndPageSetup

%%BeginObject: obj1
bplot

/dpi2point 12 def
portraitMode 0588 6168 csm

    0     0  5959  2235 rc
85 dict begin %Colortable dictionary
/c0 { 0.000000 0.000000 0.000000 sr} bdef
/c1 { 1.000000 1.000000 1.000000 sr} bdef
/c2 { 0.900000 0.000000 0.000000 sr} bdef
/c3 { 0.000000 0.820000 0.000000 sr} bdef
/c4 { 0.000000 0.000000 0.800000 sr} bdef
/c5 { 0.910000 0.820000 0.320000 sr} bdef
/c6 { 1.000000 0.260000 0.820000 sr} bdef
/c7 { 0.000000 0.820000 0.820000 sr} bdef
c0
1 j
1 sg
   0    0 5960 2236 rf
6 w
0 1685 4618 0 0 -1685 775 1887 4 MP
PP
-4618 0 0 1685 4618 0 0 -1685 775 1887 5 MP stroke
4 w
DO
SO
6 w
0 sg
 775 1887 mt 5393 1887 L
 775 1887 mt  775  202 L
 775 1887 mt  775 1840 L
%%IncludeResource: font Helvetica
/Helvetica /WindowsLatin1Encoding 120 FMSR

 659 2032 mt 
(0.97) s
1544 1887 mt 1544 1840 L
1428 2032 mt 
(0.98) s
2314 1887 mt 2314 1840 L
2198 2032 mt 
(0.99) s
3084 1887 mt 3084 1840 L
3051 2032 mt 
(1) s
3853 1887 mt 3853 1840 L
3737 2032 mt 
(1.01) s
4623 1887 mt 4623 1840 L
4507 2032 mt 
(1.02) s
5393 1887 mt 5393 1840 L
5277 2032 mt 
(1.03) s
5123 2234 mt 
(x 10) s
%%IncludeResource: font Helvetica
/Helvetica /WindowsLatin1Encoding 80 FMSR

5349 2160 mt 
(6) s
 775 1887 mt  821 1887 L
%%IncludeResource: font Helvetica
/Helvetica /WindowsLatin1Encoding 120 FMSR

 674 1931 mt 
(0) s
 775 1606 mt  821 1606 L
 574 1650 mt 
(0.2) s
 775 1325 mt  821 1325 L
 574 1369 mt 
(0.4) s
 775 1044 mt  821 1044 L
 574 1088 mt 
(0.6) s
 775  763 mt  821  763 L
 574  807 mt 
(0.8) s
 775  482 mt  821  482 L
 674  526 mt 
(1) s
 775  202 mt  821  202 L
 574  246 mt 
(1.2) s
 775  148 mt 
(x 10) s
%%IncludeResource: font Helvetica
/Helvetica /WindowsLatin1Encoding 80 FMSR

1001   74 mt 
(-4) s
gs 775 202 4619 1686 rc
1 1 1 0 1 0 1 0 1 0 1 0 1 0 1 0 
1 0 1 0 1 0 1 0 1 0 1 0 1 0 1 0 
1 0 1 0 1 0 1 0 1 0 1 0 1 0 1 0 
1 0 1 0 1 0 1 0 1 0 1 0 1 0 1 0 
1 0 1 0 1 0 1 0 1 0 1 0 1 0 1 0 
1 0 1 0 1 0 1 0 1 0 1 0 1 0 1 0 
1 0 1 0 1 0 1 0 1 0 1 0 1 0 1 0 
1 0 1 0 1 0 1 0 1 0 1 1 1 0 1 0 
1 0 1 0 1 0 1 0 1 0 1 0 1 0 1 0 
1 0 1 0 1 0 1 0 1 0 1 0 1 0 1 0 
1 0 1 0 1 0 1 0 1 0 1 0 1 1 1 0 
1 0 1 0 1 0 1 0 1 0 1 0 1 0 1 0 
1 0 1 0 1 0 1 0 1 0 1 0 1 0 1 0 
1 0 1 0 1 1 1 0 1 0 1 0 1 0 1 0 
1 0 1 0 1 0 1 0 1 0 1 0 1 0 1 0 
1 0 1 0 1 1 1 0 1 0 1 0 1 0 1 0 
1 0 1 0 1 0 1 0 1 0 1 0 1 0 1 0 
1 0 1 1 1 0 1 0 1 0 1 0 1 0 1 0 
1 0 1 0 1 0 1 0 1 0 1 0 1 0 1 1 
1 0 1 0 1 0 1 0 1 0 1 0 1 0 1 0 
1 0 1 0 1 0 1 0 1 1 1 0 1 0 1 0 
1 0 1 0 1 0 1 0 1 0 1 0 1 0 1 0 
1 1 1 0 1 0 1 0 1 0 1 0 1 0 1 0 
1 0 1 0 1 0 1 0 1 1 1 0 1 0 1 0 
1 0 1 0 1 0 1 0 1 0 1 0 1 0 1 0 
1 1 1 0 1 0 1 0 1 0 1 0 1 0 1 0 
1 0 1 0 1 0 1 1 1 0 1 0 1 0 1 0 
1 0 1 0 1 0 1 0 1 0 1 0 1 0 1 1 
1 0 1 0 1 0 1 0 1 0 1 0 1 0 1 0 
1 0 1 0 1 1 1 0 1 0 1 0 1 0 1 0 
1 0 1 0 1 0 1 0 1 0 1 1 1 0 1 0 
1 0 1 0 1 0 1 0 1 0 1 0 1 0 1 0 
1 0 1 1 1 0 1 0 1 0 1 0 1 0 1 0 
1 0 1 0 1 0 1 0 1 0 1 1 1 0 1 0 
1 0 1 0 1 0 1 0 1 0 1 0 1 0 1 0 
1 0 1 1 1 0 1 0 1 0 1 0 1 0 1 0 
1 0 1 0 1 0 1 0 1 0 1 0 1 1 1 0 
1 0 1 0 1 0 5094 1868 300 MP stroke
1 0 1 0 1 0 1 0 1 0 1 0 1 0 1 0 
1 0 1 1 1 0 1 0 1 0 1 0 1 0 1 0 
1 0 1 0 1 0 1 0 1 0 1 0 1 0 1 0 
1 1 1 0 1 0 1 0 1 0 1 0 1 0 1 0 
1 0 1 0 1 0 1 0 1 0 1 0 1 0 1 0 
1 0 1 1 1 0 1 0 1 0 1 0 1 0 1 0 
1 0 1 0 1 0 1 0 1 0 1 0 1 0 1 0 
1 0 1 0 1 0 1 0 1 0 1 0 1 1 1 0 
1 0 1 0 1 0 1 0 1 0 1 0 1 0 1 0 
1 0 1 0 1 0 1 0 1 0 1 0 1 0 1 0 
1 0 1 0 1 0 1 0 1 0 1 0 1 0 1 0 
1 0 1 0 1 0 1 0 1 0 1 0 1 0 1 0 
1 0 1 0 1 0 1 1 1 0 1 0 1 0 1 0 
1 0 1 0 1 0 1 0 1 0 1 0 1 0 1 0 
1 0 1 0 1 0 1 0 1 0 1 0 1 0 1 0 
1 0 1 0 1 0 1 0 1 0 1 0 1 0 1 0 
1 0 1 0 1 0 1 0 1 0 1 0 1 0 1 0 
1 0 1 -1 1 0 1 0 1 0 1 0 1 0 1 0 
1 0 1 0 1 0 1 0 1 0 1 0 1 0 1 0 
1 0 1 0 1 0 1 0 1 0 1 0 1 0 1 0 
1 0 1 0 1 0 1 0 1 0 1 0 1 0 1 0 
1 0 1 0 1 0 1 0 1 -1 1 0 1 0 1 0 
1 0 1 0 1 0 1 0 1 0 1 0 1 0 1 0 
1 0 1 0 1 0 1 0 1 0 1 0 1 0 1 0 
1 0 1 -1 1 0 1 0 1 0 1 0 1 0 1 0 
1 0 1 0 1 0 1 0 1 0 1 0 1 0 1 0 
1 0 1 -1 1 0 1 0 1 0 1 0 1 0 1 0 
1 0 1 0 1 0 1 0 1 0 1 0 1 0 1 -1 
1 0 1 0 1 0 1 0 1 0 1 0 1 0 1 0 
1 0 1 0 1 0 1 -1 1 0 1 0 1 0 1 0 
1 0 1 0 1 0 1 0 1 0 1 0 1 0 1 -1 
1 0 1 0 1 0 1 0 1 0 1 0 1 0 1 0 
1 0 1 0 1 -1 1 0 1 0 1 0 1 0 1 0 
1 0 1 0 1 0 1 0 1 0 1 -1 1 0 1 0 
1 0 1 0 1 0 1 0 1 0 1 0 1 0 1 -1 
1 0 1 0 1 0 1 0 1 0 1 0 1 0 1 0 
1 0 1 -1 1 0 1 0 1 0 1 0 1 0 1 0 
1 0 1 0 1 0 4795 1874 300 MP stroke
1 -1 1 0 1 0 1 0 1 0 1 0 1 0 1 0 
1 0 1 0 1 -1 1 0 1 0 1 0 1 0 1 0 
1 0 1 0 1 0 1 0 1 -1 1 0 1 0 1 0 
1 0 1 0 1 0 1 0 1 0 1 0 1 -1 1 0 
1 0 1 0 1 0 1 0 1 0 1 0 1 0 1 0 
1 -1 1 0 1 0 1 0 1 0 1 0 1 0 1 0 
1 0 1 0 1 -1 1 0 1 0 1 0 1 0 1 0 
1 0 1 0 1 0 1 0 1 -1 1 0 1 0 1 0 
1 0 1 0 1 0 1 0 1 0 1 0 1 0 1 -1 
1 0 1 0 1 0 1 0 1 0 1 0 1 0 1 0 
1 0 1 0 1 0 1 -1 1 0 1 0 1 0 1 0 
1 0 1 0 1 0 1 0 1 0 1 0 1 0 1 0 
1 -1 1 0 1 0 1 0 1 0 1 0 1 0 1 0 
1 0 1 0 1 0 1 0 1 0 1 0 1 0 1 -1 
1 0 1 0 1 0 1 0 1 0 1 0 1 0 1 0 
1 0 1 0 1 0 1 0 1 0 1 0 1 0 1 0 
1 0 1 0 1 -1 1 0 1 0 1 0 1 0 1 0 
1 0 1 0 1 0 1 0 1 0 1 0 1 0 1 0 
1 0 1 0 1 0 1 0 1 0 1 0 1 0 1 0 
1 0 1 0 1 0 1 0 1 0 1 0 1 0 1 0 
1 0 1 0 1 0 1 0 1 0 1 0 1 0 1 0 
1 0 1 0 1 0 1 0 -1 0 2 0 1 0 1 0 
1 0 1 0 1 0 1 0 1 0 1 0 1 0 1 0 
1 0 1 0 1 0 1 0 1 0 1 0 1 0 1 0 
1 0 1 0 1 0 1 0 1 0 1 0 1 0 1 0 
1 0 1 0 1 0 1 0 1 0 1 0 1 0 1 0 
1 0 1 0 1 0 1 0 1 0 1 1 1 0 1 0 
1 0 1 0 1 0 1 0 1 0 1 0 1 0 1 0 
1 0 1 0 1 0 1 0 1 0 1 0 1 1 1 0 
1 0 1 0 1 0 1 0 1 0 1 0 1 0 1 0 
1 0 1 0 1 1 1 0 1 0 1 0 1 0 1 0 
1 0 1 0 1 0 1 0 1 1 1 0 1 0 1 0 
1 0 1 0 1 0 1 0 1 0 1 0 1 1 1 0 
1 0 1 0 1 0 1 0 1 0 1 0 1 1 1 0 
1 0 1 0 1 0 1 0 1 0 1 0 1 1 1 0 
1 0 1 0 1 0 1 0 1 0 1 1 1 0 1 0 
1 0 1 0 1 0 1 1 1 0 1 0 1 0 1 0 
1 0 1 0 1 1 4497 1876 300 MP stroke
1 0 1 0 1 0 1 0 1 0 1 1 1 0 1 0 
1 0 1 0 1 0 1 1 1 0 1 0 1 0 1 0 
1 1 1 0 1 0 1 0 1 0 1 0 1 1 1 0 
1 0 1 0 1 0 1 1 1 0 1 0 1 0 1 0 
1 1 1 0 1 0 1 0 1 0 1 1 1 0 1 0 
1 0 1 0 1 1 1 0 1 0 1 0 1 0 1 1 
1 0 1 0 1 0 1 0 1 1 1 0 1 0 1 0 
1 1 1 0 1 0 1 0 1 0 1 1 1 0 1 0 
1 0 1 0 1 1 1 0 1 0 1 0 1 1 1 0 
1 0 1 0 1 1 1 0 1 0 1 0 1 0 1 1 
1 0 1 0 1 0 1 1 1 0 1 0 1 0 1 1 
1 0 1 0 1 0 1 0 1 1 1 0 1 0 1 0 
1 1 1 0 1 0 1 0 1 1 1 0 1 0 1 0 
1 1 1 0 1 0 1 0 1 1 1 0 1 0 1 0 
1 1 1 0 1 0 1 0 1 0 1 1 1 0 1 0 
1 0 1 1 1 0 1 0 1 0 1 1 1 0 1 0 
1 0 1 1 1 0 1 0 1 0 1 1 1 0 1 0 
1 0 1 1 1 0 1 0 1 0 1 1 1 0 1 0 
1 0 1 0 1 1 1 0 1 0 1 0 1 1 1 0 
1 0 1 0 1 1 1 0 1 0 1 0 1 1 1 0 
1 0 1 0 1 0 1 1 1 0 1 0 1 0 1 1 
1 0 1 0 1 0 1 0 1 1 1 0 1 0 1 0 
1 1 1 0 1 0 1 0 1 0 1 1 1 0 1 0 
1 0 1 1 1 0 1 0 1 0 1 0 1 1 1 0 
1 0 1 0 1 0 1 1 1 0 1 0 1 0 1 0 
1 1 1 0 1 0 1 0 1 0 1 1 1 0 1 0 
1 0 1 0 1 0 1 1 1 0 1 0 1 0 1 0 
1 1 1 0 1 0 1 0 1 0 1 0 1 1 1 0 
1 0 1 0 1 0 1 0 1 1 1 0 1 0 1 0 
1 0 1 0 1 1 1 0 1 0 1 0 1 0 1 0 
1 0 1 1 1 0 1 0 1 0 1 0 1 0 1 0 
1 0 1 1 1 0 1 0 1 0 1 0 1 0 1 0 
1 0 1 1 1 0 1 0 1 0 1 0 1 0 1 0 
1 0 1 0 1 1 1 0 1 0 1 0 1 0 1 0 
1 0 1 0 1 0 1 0 1 0 1 0 1 1 1 0 
1 0 1 0 1 0 1 0 1 0 1 0 1 0 1 0 
1 0 1 0 1 0 1 0 1 0 1 0 1 0 1 0 
1 0 1 1 1 0 4198 1820 300 MP stroke
1 0 1 0 1 0 1 0 1 0 1 0 1 0 1 0 
1 0 1 0 1 0 1 0 1 0 1 0 1 0 1 0 
1 0 1 0 1 0 1 0 1 0 1 0 1 0 1 0 
1 0 1 0 1 0 1 0 1 0 1 -1 1 0 1 0 
1 0 1 0 1 0 1 0 1 0 1 0 1 0 1 0 
1 0 1 0 1 0 1 0 1 0 1 0 1 0 1 -1 
1 0 1 0 1 0 1 0 1 0 1 0 1 0 1 0 
1 0 1 0 1 0 1 -1 1 0 1 0 1 0 1 0 
1 0 1 0 1 0 1 0 1 -1 1 0 1 0 1 0 
1 0 1 0 1 0 1 -1 1 0 1 0 1 0 1 0 
1 0 1 0 1 -1 1 0 1 0 1 0 1 0 1 0 
1 -1 1 0 1 0 1 0 1 0 1 0 1 -1 1 0 
1 0 1 0 1 0 1 0 1 -1 1 0 1 0 1 0 
1 0 1 -1 1 0 1 0 1 0 1 0 1 -1 1 0 
1 0 1 0 1 -1 1 0 1 0 1 0 1 0 1 -1 
1 0 1 0 1 0 1 -1 1 0 1 0 1 0 1 -1 
1 0 1 0 1 0 1 0 1 -1 1 0 1 0 1 0 
1 -1 1 0 1 0 1 -1 1 0 1 0 1 0 1 -1 
1 0 1 0 1 0 1 -1 1 0 1 0 1 0 1 -1 
1 0 1 0 1 -1 1 0 1 0 1 0 1 -1 1 0 
1 0 1 -1 1 0 1 0 1 0 1 -1 1 0 1 0 
1 -1 1 0 1 0 1 0 1 -1 1 0 1 0 1 -1 
1 0 1 0 1 -1 1 0 1 0 1 0 1 -1 1 0 
1 0 1 -1 1 0 1 0 1 -1 1 0 1 0 1 -1 
1 0 1 0 1 0 1 -1 1 0 1 0 1 -1 1 0 
1 0 1 -1 1 0 1 0 1 -1 1 0 1 0 1 -1 
1 0 1 0 1 0 1 -1 1 0 1 0 1 -1 1 0 
1 0 1 -1 1 0 1 0 1 -1 1 0 1 0 1 -1 
1 0 1 0 1 0 1 -1 1 0 1 0 1 -1 1 0 
1 0 1 -1 1 0 1 0 1 0 1 -1 1 0 1 0 
1 -1 1 0 1 0 1 -1 1 0 1 0 1 0 1 -1 
1 0 1 0 1 -1 1 0 1 0 1 0 1 -1 1 0 
1 0 1 -1 1 0 1 0 1 0 1 -1 1 0 1 0 
1 0 1 -1 1 0 1 0 1 0 1 -1 1 0 1 0 
1 0 1 -1 1 0 1 0 1 0 1 -1 1 0 1 0 
1 0 1 -1 1 0 1 0 1 0 1 0 1 -1 1 0 
1 0 1 0 1 -1 1 0 1 0 1 0 1 0 1 0 
1 -1 1 0 1 0 3899 1882 300 MP stroke
1 0 1 0 1 -1 1 0 1 0 1 0 1 0 1 0 
1 -1 1 0 1 0 1 0 1 0 1 0 1 0 1 0 
1 -1 1 0 1 0 1 0 1 0 1 0 1 0 1 0 
1 0 1 -1 1 0 1 0 1 0 1 0 1 0 1 0 
1 0 1 0 1 0 1 0 1 0 1 0 1 0 1 0 
1 0 1 0 1 0 1 0 1 0 1 0 -1 0 2 0 
1 0 1 0 1 0 1 0 1 0 1 0 1 0 1 0 
1 0 1 0 1 0 1 0 1 0 1 0 1 0 1 0 
1 0 1 0 1 0 1 1 1 0 1 0 1 0 1 0 
1 0 1 0 1 0 1 1 1 0 1 0 1 0 1 0 
1 0 1 1 1 0 1 0 1 0 1 0 1 1 1 0 
1 0 1 0 1 1 1 0 1 0 1 0 1 1 1 0 
1 0 1 0 1 1 1 0 1 0 1 1 1 0 1 0 
1 1 1 0 1 0 1 1 1 0 1 0 1 1 1 0 
1 0 1 1 1 0 1 1 1 0 1 0 1 1 1 0 
1 1 1 0 1 1 1 0 1 1 1 0 1 1 1 0 
1 1 1 0 1 1 1 0 1 1 1 0 1 1 1 0 
1 1 1 0 1 1 1 1 1 0 1 1 1 0 1 1 
1 1 1 0 1 1 1 1 1 0 1 1 1 1 1 0 
1 1 1 1 1 0 1 1 1 1 1 0 1 1 1 1 
1 1 1 0 1 1 1 1 1 1 1 1 1 0 1 1 
1 1 1 1 1 1 1 1 1 0 1 1 1 1 1 1 
1 1 1 1 1 1 1 1 1 1 1 1 1 1 1 0 
1 1 1 1 1 1 1 1 1 1 1 1 1 1 1 1 
1 1 0 1 2 2 1 1 1 1 1 1 1 1 1 1 
1 1 1 1 1 1 0 1 2 2 1 1 1 1 1 1 
1 1 0 1 2 2 1 1 1 1 1 1 0 1 2 2 
1 1 0 1 2 2 1 1 1 1 0 1 2 2 1 1 
0 1 2 2 1 1 0 1 2 2 0 1 2 2 1 1 
0 1 2 2 0 1 2 2 1 1 0 1 2 2 0 1 
2 2 0 1 2 2 0 1 2 2 1 1 0 2 2 2 
0 1 2 2 0 1 2 2 1 1 0 2 2 2 0 1 
2 2 1 1 0 2 2 2 0 1 2 2 0 2 2 2 
1 1 0 2 2 2 0 1 2 2 0 2 2 2 0 1 
2 2 0 2 2 2 1 1 0 2 2 2 0 2 2 2 
0 2 2 2 1 1 0 2 2 2 0 2 2 2 0 2 
2 2 0 2 2 2 0 2 2 2 0 1 1 1 0 1 
1 1 0 1 1 1 3604 1662 300 MP stroke
0 1 1 1 0 1 1 1 0 1 1 1 0 1 1 1 
0 2 2 2 0 2 2 2 0 2 2 2 0 2 2 2 
0 2 2 2 0 2 1 1 0 1 1 1 0 2 2 2 
0 2 2 2 0 2 1 1 0 2 2 2 0 2 2 2 
0 2 1 1 0 1 1 1 0 2 2 2 0 2 1 1 
0 1 1 1 0 2 2 2 0 2 1 1 0 2 2 2 
0 2 1 1 0 2 2 2 0 2 1 1 0 2 2 2 
0 2 1 1 0 2 2 2 0 3 2 2 0 2 1 1 
0 2 2 2 0 3 2 2 0 3 2 2 0 2 1 1 
0 1 1 1 0 2 1 1 0 1 1 1 0 2 1 1 
0 1 1 1 0 2 1 1 0 1 1 1 0 2 1 1 
0 1 1 1 0 2 1 1 0 1 1 1 0 3 2 2 
0 3 2 2 0 2 1 1 0 2 1 1 0 1 1 1 
0 3 2 2 0 2 1 1 0 3 2 2 0 2 1 1 
0 2 1 1 0 1 1 1 0 2 1 1 0 2 1 1 
0 1 1 1 0 2 1 1 0 2 1 1 0 1 1 1 
0 2 1 1 0 3 2 2 0 2 1 1 0 2 1 1 
0 2 1 1 0 1 1 1 0 2 1 1 0 2 1 1 
0 2 1 1 0 1 1 1 0 2 1 1 0 2 1 1 
0 2 1 1 0 1 1 1 0 2 1 1 0 2 1 1 
0 2 1 1 0 2 1 1 0 1 1 1 0 2 1 1 
0 2 1 1 0 2 1 1 0 2 1 1 0 2 1 1 
0 2 1 1 0 1 1 1 0 2 1 1 0 2 1 1 
0 2 1 1 0 2 1 1 0 1 1 1 0 2 1 1 
0 2 1 1 0 2 1 1 0 2 1 1 0 2 1 1 
0 2 1 1 0 2 1 1 0 2 1 1 0 2 1 1 
0 2 1 1 0 1 1 1 0 2 1 1 0 2 1 1 
0 2 1 1 0 2 1 1 0 2 1 1 0 2 1 1 
0 2 1 1 0 2 1 1 0 2 1 1 0 2 1 1 
0 2 1 1 0 2 1 1 0 2 1 1 0 2 1 1 
0 2 1 1 0 2 1 1 0 2 1 1 0 2 1 1 
0 2 1 1 0 2 1 1 0 2 1 1 0 2 1 1 
0 2 1 1 0 2 1 1 0 2 1 1 0 2 1 1 
0 2 1 1 0 2 1 1 0 2 1 1 0 2 1 1 
0 2 1 1 0 2 1 1 0 2 1 1 0 2 1 1 
0 2 1 1 0 2 1 1 0 3 1 1 0 2 1 1 
0 2 1 1 0 2 1 1 0 2 1 1 0 2 1 1 
0 2 1 1 0 2 3431 1204 300 MP stroke
1 1 0 2 1 1 0 2 1 1 0 2 1 1 0 2 
1 1 0 2 1 1 0 2 1 1 0 3 1 1 0 2 
1 1 0 2 1 1 0 2 1 1 0 2 1 1 0 2 
1 1 0 2 1 1 0 2 1 1 0 2 1 1 0 2 
1 1 0 2 1 1 0 3 1 1 0 2 1 1 0 2 
1 1 0 2 1 1 0 2 1 1 0 2 1 1 0 2 
1 1 0 2 1 1 0 2 1 1 0 2 1 1 0 2 
1 1 0 3 1 1 0 2 1 1 0 2 1 1 0 2 
1 1 0 2 1 1 0 2 1 1 0 2 1 1 0 2 
1 1 0 2 1 1 0 2 1 1 0 3 1 1 0 2 
1 1 0 2 1 1 0 2 1 1 0 2 1 1 0 2 
1 1 0 2 1 1 0 2 1 1 0 2 1 1 0 2 
1 1 0 2 1 1 0 3 1 1 0 2 1 1 0 2 
1 1 0 2 1 1 0 2 1 1 0 2 1 1 0 2 
1 1 0 2 1 1 0 2 1 1 0 2 1 1 0 2 
1 1 0 2 1 1 0 2 1 1 0 2 1 1 0 2 
1 1 0 3 1 1 0 2 1 1 0 2 1 1 0 2 
1 1 0 2 1 1 0 2 1 1 0 2 1 1 0 2 
1 1 0 2 1 1 0 2 1 1 0 2 1 1 0 2 
1 1 0 2 1 1 0 2 1 1 0 2 1 1 0 2 
1 1 0 2 1 1 0 2 1 1 0 2 1 1 0 2 
1 1 0 2 1 1 0 2 1 1 0 2 1 1 0 2 
1 1 0 2 1 1 0 2 1 1 0 2 1 1 0 1 
1 1 0 2 1 1 0 2 1 1 0 2 1 1 0 2 
1 1 0 2 1 1 0 2 1 1 0 2 1 1 0 2 
1 1 0 2 1 1 0 2 1 1 0 2 1 1 0 2 
1 1 0 1 1 1 0 2 1 1 0 2 1 1 0 2 
1 1 0 2 1 1 0 2 1 1 0 2 1 1 0 2 
1 1 0 1 1 1 0 2 1 1 0 2 1 1 0 2 
1 1 0 2 1 1 0 2 1 1 0 1 1 1 0 2 
1 1 0 2 1 1 0 2 1 1 0 2 1 1 0 1 
1 1 0 2 1 1 0 2 1 1 0 2 1 1 0 1 
1 1 0 2 1 1 0 2 1 1 0 2 1 1 0 1 
1 1 0 2 1 1 0 3 2 2 0 2 1 1 0 2 
1 1 0 2 1 1 0 1 1 1 0 2 1 1 0 2 
1 1 0 1 1 1 0 3 2 2 0 2 1 1 0 2 
1 1 0 1 1 1 0 3 2 2 0 2 1 1 0 2 
1 1 0 1 1 1 3278 755 300 MP stroke
0 3 2 2 0 3 2 2 0 3 2 2 0 3 2 2 
0 3 2 2 0 3 2 2 0 3 2 2 0 2 1 1 
0 2 2 2 0 3 2 2 0 2 1 1 0 2 2 2 
0 2 1 1 0 2 2 2 0 2 1 1 0 2 2 2 
0 2 1 1 0 1 1 1 0 2 2 2 0 3 2 2 
0 2 2 2 0 2 1 1 0 1 1 1 0 2 2 2 
0 2 2 2 0 2 1 1 0 1 1 1 0 2 2 2 
0 2 2 2 0 2 2 2 0 2 2 2 0 2 2 2 
0 2 2 2 0 2 2 2 0 2 2 2 0 2 2 2 
0 2 2 2 0 2 2 2 0 1 2 2 0 2 2 2 
0 2 2 2 0 1 2 2 0 2 2 2 0 1 2 2 
0 2 2 2 1 1 0 2 2 2 0 1 2 2 1 1 
0 2 2 2 0 1 2 2 0 1 2 2 0 1 2 2 
0 1 2 2 0 1 2 2 0 1 2 2 0 1 2 2 
1 1 0 1 2 2 1 1 0 1 2 2 1 1 0 1 
2 2 1 1 1 1 0 1 2 2 1 1 1 1 1 1 
1 1 0 1 2 2 1 1 1 1 1 1 1 1 1 1 
1 1 1 1 1 1 1 1 1 1 1 1 1 1 1 1 
1 1 1 1 1 1 1 1 1 0 1 1 1 1 1 1 
1 1 1 1 1 0 1 1 1 1 1 1 1 0 1 1 
1 1 1 0 1 1 1 1 1 0 1 1 1 0 1 1 
1 1 1 0 1 1 1 0 1 1 1 0 1 1 1 0 
1 1 1 0 1 0 1 1 1 0 1 1 1 0 1 0 
1 1 1 0 1 0 1 0 1 1 1 0 1 0 1 0 
1 1 1 0 1 0 1 0 1 0 1 0 1 0 1 0 
1 1 1 0 1 0 1 0 1 0 1 0 1 0 1 0 
1 0 1 -1 1 0 1 0 1 0 1 0 1 0 1 0 
1 0 1 -1 1 0 1 0 1 0 1 -1 1 0 1 0 
1 0 1 -1 1 0 1 0 1 -1 1 0 1 -1 1 0 
1 0 1 -1 1 0 1 -1 1 0 1 -1 1 0 1 -1 
1 0 1 -1 1 -1 1 0 1 -1 1 0 1 -1 1 -1 
1 0 1 -1 1 -1 1 0 1 -1 1 -1 1 -1 1 -1 
1 0 1 -1 1 -1 1 -1 1 -1 1 -1 1 0 1 -1 
1 -1 1 -1 1 -1 1 -1 1 -1 1 -1 1 -1 1 -1 
1 -1 1 -1 1 -1 1 -1 1 -1 0 -1 2 -2 1 -1 
1 -1 1 -1 1 -1 0 -1 2 -2 1 -1 1 -1 0 -1 
2 -2 1 -1 1 -1 0 -1 2 -2 1 -1 0 -1 2 -2 
0 -1 2 -2 1 -1 2989 550 300 MP stroke
0 -1 2 -2 0 -1 2 -2 0 -1 2 -2 0 -1 2 -2 
0 -1 2 -2 0 -1 2 -2 1 -1 0 -2 2 -2 1 -1 
0 -2 2 -2 1 -1 0 -2 2 -2 1 -1 0 -2 2 -2 
1 -1 0 -2 2 -2 0 -2 2 -2 0 -1 2 -2 0 -2 
2 -2 0 -2 2 -2 0 -1 2 -2 0 -2 2 -2 0 -2 
2 -2 0 -2 2 -2 0 -2 2 -2 0 -2 2 -2 0 -2 
2 -2 0 -2 2 -2 0 -2 2 -2 0 -2 2 -2 0 -2 
2 -2 0 -2 1 -1 0 -1 1 -1 0 -2 2 -2 0 -2 
2 -2 0 -2 1 -1 0 -2 2 -2 0 -2 2 -2 0 -2 
1 -1 0 -2 2 -2 0 -2 1 -1 0 -1 1 -1 0 -2 
2 -2 0 -2 1 -1 0 -2 2 -2 0 -3 2 -2 0 -2 
1 -1 0 -2 2 -2 0 -3 2 -2 0 -2 1 -1 0 -2 
2 -2 0 -3 2 -2 0 -3 2 -2 0 -3 2 -2 0 -3 
2 -2 0 -3 2 -2 0 -3 2 -2 0 -2 1 -1 0 -2 
1 -1 0 -1 1 -1 0 -3 2 -2 0 -2 1 -1 0 -2 
1 -1 0 -1 1 -1 0 -3 2 -2 0 -2 1 -1 0 -2 
1 -1 0 -1 1 -1 0 -2 1 -1 0 -2 1 -1 0 -1 
1 -1 0 -2 1 -1 0 -3 2 -2 0 -2 1 -1 0 -2 
1 -1 0 -2 1 -1 0 -1 1 -1 0 -2 1 -1 0 -2 
1 -1 0 -2 1 -1 0 -1 1 -1 0 -2 1 -1 0 -2 
1 -1 0 -2 1 -1 0 -1 1 -1 0 -2 1 -1 0 -2 
1 -1 0 -2 1 -1 0 -2 1 -1 0 -1 1 -1 0 -2 
1 -1 0 -2 1 -1 0 -2 1 -1 0 -2 1 -1 0 -2 
1 -1 0 -2 1 -1 0 -1 1 -1 0 -2 1 -1 0 -2 
1 -1 0 -2 1 -1 0 -2 1 -1 0 -2 1 -1 0 -2 
1 -1 0 -2 1 -1 0 -1 1 -1 0 -2 1 -1 0 -2 
1 -1 0 -2 1 -1 0 -2 1 -1 0 -2 1 -1 0 -2 
1 -1 0 -2 1 -1 0 -2 1 -1 0 -2 1 -1 0 -2 
1 -1 0 -2 1 -1 0 -2 1 -1 0 -2 1 -1 0 -2 
1 -1 0 -2 1 -1 0 -2 1 -1 0 -2 1 -1 0 -2 
1 -1 0 -2 1 -1 0 -2 1 -1 0 -2 1 -1 0 -2 
1 -1 0 -2 1 -1 0 -2 1 -1 0 -2 1 -1 0 -2 
1 -1 0 -1 1 -1 0 -2 1 -1 0 -2 1 -1 0 -2 
1 -1 0 -2 1 -1 0 -3 1 -1 0 -2 1 -1 0 -2 
1 -1 0 -2 1 -1 0 -2 1 -1 0 -2 1 -1 0 -2 
1 -1 0 -2 1 -1 0 -2 1 -1 0 -2 1 -1 0 -2 
1 -1 0 -2 1 -1 0 -2 1 -1 0 -2 1 -1 0 -2 
1 -1 0 -2 1 -1 2791 1033 300 MP stroke
0 -2 1 -1 0 -2 1 -1 0 -3 1 -1 0 -2 1 -1 
0 -2 1 -1 0 -2 1 -1 0 -2 1 -1 0 -2 1 -1 
0 -2 1 -1 0 -2 1 -1 0 -2 1 -1 0 -2 1 -1 
0 -2 1 -1 0 -3 1 -1 0 -2 1 -1 0 -2 1 -1 
0 -2 1 -1 0 -2 1 -1 0 -2 1 -1 0 -2 1 -1 
0 -2 1 -1 0 -2 1 -1 0 -2 1 -1 0 -2 1 -1 
0 -3 1 -1 0 -2 1 -1 0 -2 1 -1 0 -2 1 -1 
0 -2 1 -1 0 -2 1 -1 0 -2 1 -1 0 -2 1 -1 
0 -2 1 -1 0 -2 1 -1 0 -3 1 -1 0 -2 1 -1 
0 -2 1 -1 0 -2 1 -1 0 -2 1 -1 0 -2 1 -1 
0 -2 1 -1 0 -2 1 -1 0 -2 1 -1 0 -2 1 -1 
0 -2 1 -1 0 -3 1 -1 0 -2 1 -1 0 -2 1 -1 
0 -2 1 -1 0 -2 1 -1 0 -2 1 -1 0 -2 1 -1 
0 -2 1 -1 0 -2 1 -1 0 -2 1 -1 0 -2 1 -1 
0 -2 1 -1 0 -2 1 -1 0 -3 1 -1 0 -2 1 -1 
0 -2 1 -1 0 -2 1 -1 0 -2 1 -1 0 -2 1 -1 
0 -2 1 -1 0 -2 1 -1 0 -2 1 -1 0 -2 1 -1 
0 -2 1 -1 0 -2 1 -1 0 -2 1 -1 0 -2 1 -1 
0 -2 1 -1 0 -2 1 -1 0 -2 1 -1 0 -2 1 -1 
0 -2 1 -1 0 -2 1 -1 0 -2 1 -1 0 -2 1 -1 
0 -2 1 -1 0 -2 1 -1 0 -2 1 -1 0 -2 1 -1 
0 -2 1 -1 0 -2 1 -1 0 -2 1 -1 0 -2 1 -1 
0 -2 1 -1 0 -2 1 -1 0 -2 1 -1 0 -2 1 -1 
0 -2 1 -1 0 -2 1 -1 0 -2 1 -1 0 -2 1 -1 
0 -2 1 -1 0 -2 1 -1 0 -2 1 -1 0 -2 1 -1 
0 -2 1 -1 0 -2 1 -1 0 -1 1 -1 0 -2 1 -1 
0 -2 1 -1 0 -2 1 -1 0 -2 1 -1 0 -2 1 -1 
0 -2 1 -1 0 -2 1 -1 0 -2 1 -1 0 -1 1 -1 
0 -2 1 -1 0 -2 1 -1 0 -2 1 -1 0 -2 1 -1 
0 -2 1 -1 0 -1 1 -1 0 -2 1 -1 0 -2 1 -1 
0 -2 1 -1 0 -2 1 -1 0 -2 1 -1 0 -1 1 -1 
0 -2 1 -1 0 -2 1 -1 0 -2 1 -1 0 -2 1 -1 
0 -1 1 -1 0 -2 1 -1 0 -2 1 -1 0 -2 1 -1 
0 -1 1 -1 0 -2 1 -1 0 -2 1 -1 0 -2 1 -1 
0 -1 1 -1 0 -2 1 -1 0 -3 2 -2 0 -2 1 -1 
0 -2 1 -1 0 -2 1 -1 0 -1 1 -1 0 -2 1 -1 
0 -2 1 -1 0 -1 1 -1 0 -2 1 -1 0 -2 1 -1 
0 -1 1 -1 0 -3 2641 1481 300 MP stroke
2 -2 0 -2 1 -1 0 -3 2 -2 0 -2 1 -1 0 -2 
1 -1 0 -1 1 -1 0 -3 2 -2 0 -3 2 -2 0 -2 
1 -1 0 -2 1 -1 0 -1 1 -1 0 -2 1 -1 0 -1 
1 -1 0 -2 1 -1 0 -1 1 -1 0 -2 1 -1 0 -1 
1 -1 0 -2 1 -1 0 -1 1 -1 0 -2 1 -1 0 -2 
2 -2 0 -3 2 -2 0 -3 2 -2 0 -2 1 -1 0 -2 
2 -2 0 -3 2 -2 0 -2 1 -1 0 -2 2 -2 0 -2 
1 -1 0 -2 2 -2 0 -2 1 -1 0 -2 2 -2 0 -2 
1 -1 0 -1 1 -1 0 -2 2 -2 0 -2 1 -1 0 -1 
1 -1 0 -2 2 -2 0 -2 1 -1 0 -2 2 -2 0 -2 
2 -2 0 -2 1 -1 0 -1 1 -1 0 -2 2 -2 0 -2 
2 -2 0 -2 1 -1 0 -2 2 -2 0 -2 2 -2 0 -2 
2 -2 0 -2 2 -2 0 -2 2 -2 0 -2 1 -1 0 -1 
1 -1 0 -1 1 -1 0 -1 1 -1 0 -1 1 -1 0 -1 
1 -1 0 -1 1 -1 0 -1 1 -1 1 -1 0 -2 2 -2 
0 -2 2 -2 0 -2 2 -2 0 -2 2 -2 0 -2 2 -2 
0 -1 2 -2 0 -2 2 -2 0 -2 2 -2 0 -1 2 -2 
0 -2 2 -2 0 -1 2 -2 0 -2 2 -2 0 -1 2 -2 
0 -2 2 -2 1 -1 0 -2 2 -2 1 -1 0 -2 2 -2 
1 -1 0 -2 2 -2 0 -1 2 -2 0 -1 2 -2 1 -1 
0 -2 2 -2 0 -1 2 -2 0 -1 2 -2 0 -1 2 -2 
0 -1 2 -2 0 -1 2 -2 0 -1 2 -2 1 -1 0 -1 
2 -2 0 -1 2 -2 1 -1 0 -1 2 -2 1 -1 0 -1 
2 -2 1 -1 0 -1 2 -2 1 -1 0 -1 2 -2 1 -1 
1 -1 0 -1 2 -2 1 -1 1 -1 1 -1 0 -1 2 -2 
1 -1 1 -1 1 -1 0 -1 2 -2 1 -1 1 -1 1 -1 
1 -1 1 -1 1 -1 1 -1 1 -1 0 -1 2 -2 1 -1 
1 -1 1 -1 1 -1 1 -1 1 -1 1 -1 1 -1 1 -1 
1 -1 1 -1 1 -1 1 -1 1 0 1 -1 1 -1 1 -1 
1 -1 1 -1 1 -1 1 -1 1 -1 1 0 1 -1 1 -1 
1 -1 1 -1 1 -1 1 0 1 -1 1 -1 1 -1 1 -1 
1 0 1 -1 1 -1 1 -1 1 0 1 -1 1 -1 1 0 
1 -1 1 -1 1 -1 1 0 1 -1 1 -1 1 0 1 -1 
1 0 1 -1 1 -1 1 0 1 -1 1 0 1 -1 1 -1 
1 0 1 -1 1 0 1 -1 1 0 1 -1 1 0 1 -1 
1 0 1 -1 1 0 1 -1 1 0 1 -1 1 0 1 -1 
1 0 1 -1 1 0 1 -1 1 0 1 0 1 -1 1 0 
1 -1 1 0 1 0 2377 1875 300 MP stroke
1 -1 1 0 1 0 1 -1 1 0 1 0 1 -1 1 0 
1 0 1 -1 1 0 1 0 1 -1 1 0 1 0 1 0 
1 -1 1 0 1 0 1 0 1 -1 1 0 1 0 1 0 
1 -1 1 0 1 0 1 0 1 0 1 -1 1 0 1 0 
1 0 1 0 1 0 1 -1 1 0 1 0 1 0 1 0 
1 0 1 0 1 0 1 -1 1 0 1 0 1 0 1 0 
1 0 1 0 1 0 1 0 1 0 1 0 1 0 1 0 
1 0 1 0 1 0 1 0 1 0 1 0 1 0 -1 0 
2 0 1 0 1 0 1 0 1 0 1 0 1 0 1 0 
1 0 1 0 1 0 1 0 1 0 1 0 1 0 1 0 
1 0 1 0 1 0 1 0 1 0 1 1 1 0 1 0 
1 0 1 0 1 0 1 0 1 0 1 0 1 1 1 0 
1 0 1 0 1 0 1 0 1 0 1 0 1 1 1 0 
1 0 1 0 1 0 1 0 1 1 1 0 1 0 1 0 
1 0 1 1 1 0 1 0 1 0 1 0 1 1 1 0 
1 0 1 0 1 0 1 1 1 0 1 0 1 0 1 0 
1 1 1 0 1 0 1 0 1 1 1 0 1 0 1 0 
1 1 1 0 1 0 1 0 1 1 1 0 1 0 1 0 
1 1 1 0 1 0 1 0 1 1 1 0 1 0 1 0 
1 1 1 0 1 0 1 1 1 0 1 0 1 0 1 1 
1 0 1 0 1 1 1 0 1 0 1 0 1 1 1 0 
1 0 1 1 1 0 1 0 1 1 1 0 1 0 1 0 
1 1 1 0 1 0 1 1 1 0 1 0 1 1 1 0 
1 0 1 0 1 1 1 0 1 0 1 1 1 0 1 0 
1 1 1 0 1 0 1 1 1 0 1 0 1 1 1 0 
1 0 1 0 1 1 1 0 1 0 1 1 1 0 1 0 
1 1 1 0 1 0 1 1 1 0 1 0 1 1 1 0 
1 0 1 0 1 1 1 0 1 0 1 1 1 0 1 0 
1 1 1 0 1 0 1 1 1 0 1 0 1 0 1 1 
1 0 1 0 1 1 1 0 1 0 1 1 1 0 1 0 
1 0 1 1 1 0 1 0 1 1 1 0 1 0 1 0 
1 1 1 0 1 0 1 1 1 0 1 0 1 0 1 1 
1 0 1 0 1 1 1 0 1 0 1 0 1 1 1 0 
1 0 1 0 1 1 1 0 1 0 1 0 1 1 1 0 
1 0 1 1 1 0 1 0 1 0 1 1 1 0 1 0 
1 0 1 1 1 0 1 0 1 0 1 0 1 1 1 0 
1 0 1 0 1 1 1 0 1 0 1 0 1 0 1 1 
1 0 1 0 1 0 2079 1831 300 MP stroke
1 1 1 0 1 0 1 0 1 0 1 1 1 0 1 0 
1 0 1 0 1 1 1 0 1 0 1 0 1 0 1 0 
1 1 1 0 1 0 1 0 1 0 1 0 1 1 1 0 
1 0 1 0 1 0 1 0 1 1 1 0 1 0 1 0 
1 0 1 0 1 0 1 1 1 0 1 0 1 0 1 0 
1 0 1 0 1 1 1 0 1 0 1 0 1 0 1 0 
1 0 1 0 1 0 1 1 1 0 1 0 1 0 1 0 
1 0 1 0 1 0 1 0 1 0 1 0 1 0 1 1 
1 0 1 0 1 0 1 0 1 0 1 0 1 0 1 0 
1 0 1 0 1 0 1 0 1 0 1 0 1 0 1 0 
1 0 1 1 1 0 1 0 1 0 1 0 1 0 1 0 
1 0 1 0 1 0 1 0 1 0 1 0 1 0 1 0 
1 0 1 0 1 0 1 0 1 0 1 0 1 0 1 0 
1 0 1 0 1 0 1 0 1 0 1 0 1 0 1 0 
1 -1 1 0 1 0 1 0 1 0 1 0 1 0 1 0 
1 0 1 0 1 0 1 0 1 0 1 0 1 0 1 0 
1 0 1 0 1 0 1 -1 1 0 1 0 1 0 1 0 
1 0 1 0 1 0 1 0 1 0 1 0 1 -1 1 0 
1 0 1 0 1 0 1 0 1 0 1 0 1 0 1 0 
1 -1 1 0 1 0 1 0 1 0 1 0 1 0 1 0 
1 -1 1 0 1 0 1 0 1 0 1 0 1 0 1 0 
1 -1 1 0 1 0 1 0 1 0 1 0 1 0 1 -1 
1 0 1 0 1 0 1 0 1 0 1 -1 1 0 1 0 
1 0 1 0 1 0 1 -1 1 0 1 0 1 0 1 0 
1 0 1 -1 1 0 1 0 1 0 1 0 1 -1 1 0 
1 0 1 0 1 0 1 0 1 -1 1 0 1 0 1 0 
1 0 1 -1 1 0 1 0 1 0 1 0 1 -1 1 0 
1 0 1 0 1 0 1 -1 1 0 1 0 1 0 1 0 
1 -1 1 0 1 0 1 0 1 -1 1 0 1 0 1 0 
1 0 1 -1 1 0 1 0 1 0 1 -1 1 0 1 0 
1 0 1 0 1 -1 1 0 1 0 1 0 1 -1 1 0 
1 0 1 0 1 -1 1 0 1 0 1 0 1 0 1 -1 
1 0 1 0 1 0 1 -1 1 0 1 0 1 0 1 -1 
1 0 1 0 1 0 1 -1 1 0 1 0 1 0 1 0 
1 -1 1 0 1 0 1 0 1 -1 1 0 1 0 1 0 
1 -1 1 0 1 0 1 0 1 -1 1 0 1 0 1 0 
1 -1 1 0 1 0 1 0 1 -1 1 0 1 0 1 0 
1 0 1 -1 1 0 1780 1853 300 MP stroke
1 0 1 0 1 -1 1 0 1 0 1 0 1 -1 1 0 
1 0 1 0 1 -1 1 0 1 0 1 0 1 -1 1 0 
1 0 1 0 1 -1 1 0 1 0 1 0 1 0 1 -1 
1 0 1 0 1 0 1 -1 1 0 1 0 1 0 1 -1 
1 0 1 0 1 0 1 0 1 -1 1 0 1 0 1 0 
1 -1 1 0 1 0 1 0 1 -1 1 0 1 0 1 0 
1 0 1 -1 1 0 1 0 1 0 1 -1 1 0 1 0 
1 0 1 0 1 -1 1 0 1 0 1 0 1 0 1 -1 
1 0 1 0 1 0 1 0 1 -1 1 0 1 0 1 0 
1 0 1 -1 1 0 1 0 1 0 1 0 1 -1 1 0 
1 0 1 0 1 0 1 -1 1 0 1 0 1 0 1 0 
1 -1 1 0 1 0 1 0 1 0 1 0 1 -1 1 0 
1 0 1 0 1 0 1 -1 1 0 1 0 1 0 1 0 
1 0 1 -1 1 0 1 0 1 0 1 0 1 0 1 -1 
1 0 1 0 1 0 1 0 1 0 1 -1 1 0 1 0 
1 0 1 0 1 0 1 0 1 -1 1 0 1 0 1 0 
1 0 1 0 1 0 1 -1 1 0 1 0 1 0 1 0 
1 0 1 0 1 0 1 -1 1 0 1 0 1 0 1 0 
1 0 1 0 1 0 1 -1 1 0 1 0 1 0 1 0 
1 0 1 0 1 0 1 0 1 -1 1 0 1 0 1 0 
1 0 1 0 1 0 1 0 1 0 1 0 1 0 1 -1 
1 0 1 0 1 0 1 0 1 0 1 0 1 0 1 0 
1 0 1 0 1 0 1 -1 1 0 1 0 1 0 1 0 
1 0 1 0 1 0 1 0 1 0 1 0 1 0 1 0 
1 0 1 0 1 0 1 0 1 -1 1 0 1 0 1 0 
1 0 1 0 1 0 1 0 1 0 1 0 1 0 1 0 
1 0 1 0 1 0 1 0 1 0 1 0 1 0 1 0 
1 0 1 0 1 0 1 0 1 0 1 0 1 0 1 0 
1 0 1 0 1 0 1 0 1 0 1 0 1 0 1 0 
1 0 1 0 1 0 1 0 -1 0 2 0 1 0 1 0 
1 0 1 0 1 0 1 0 1 0 1 0 1 0 1 0 
1 0 1 0 1 0 1 0 1 0 1 0 1 0 1 0 
1 0 1 0 1 0 1 0 1 0 1 0 1 0 1 0 
1 0 1 0 1 0 1 0 1 0 1 0 1 0 1 0 
1 0 1 0 1 0 1 0 1 0 1 0 1 0 1 1 
1 0 1 0 1 0 1 0 1 0 1 0 1 0 1 0 
1 0 1 0 1 0 1 0 1 0 1 0 1 0 1 0 
1 0 1 0 1 1 1482 1884 300 MP stroke
1 0 1 0 1 0 1 0 1 0 1 0 1 0 1 0 
1 0 1 0 1 0 1 0 1 0 1 0 1 1 1 0 
1 0 1 0 1 0 1 0 1 0 1 0 1 0 1 0 
1 0 1 0 1 0 1 1 1 0 1 0 1 0 1 0 
1 0 1 0 1 0 1 0 1 0 1 0 1 0 1 1 
1 0 1 0 1 0 1 0 1 0 1 0 1 0 1 0 
1 0 1 0 1 1 1 0 1 0 1 0 1 0 1 0 
1 0 1 0 1 0 1 0 1 1 1 0 1 0 1 0 
1 0 1 0 1 0 1 0 1 0 1 0 1 1 1 0 
1 0 1 0 1 0 1 0 1 0 1 0 1 0 1 0 
1 1 1 0 1 0 1 0 1 0 1 0 1 0 1 0 
1 0 1 0 1 1 1 0 1 0 1 0 1 0 1 0 
1 0 1 0 1 0 1 0 1 1 1 0 1 0 1 0 
1 0 1 0 1 0 1 0 1 0 1 0 1 1 1 0 
1 0 1 0 1 0 1 0 1 0 1 0 1 0 1 0 
1 1 1 0 1 0 1 0 1 0 1 0 1 0 1 0 
1 0 1 0 1 1 1 0 1 0 1 0 1 0 1 0 
1 0 1 0 1 0 1 0 1 1 1 0 1 0 1 0 
1 0 1 0 1 0 1 0 1 0 1 0 1 0 1 1 
1 0 1 0 1 0 1 0 1 0 1 0 1 0 1 0 
1 0 1 0 1 1 1 0 1 0 1 0 1 0 1 0 
1 0 1 0 1 0 1 0 1 0 1 1 1 0 1 0 
1 0 1 0 1 0 1 0 1 0 1 0 1 0 1 0 
1 0 1 0 1 1 1 0 1 0 1 0 1 0 1 0 
1 0 1 0 1 0 1 0 1 0 1 0 1 0 1 0 
1 1 1 0 1 0 1 0 1 0 1 0 1 0 1 0 
1 0 1 0 1 0 1 0 1 0 1 0 1 0 1 0 
1 1 1 0 1 0 1 0 1 0 1 0 1 0 1 0 
1 0 1 0 1 0 1 0 1 0 1 0 1 0 1 0 
1 0 1 0 1 0 1 0 1 0 1 1 1 0 1 0 
1 0 1 0 1 0 1 0 1 0 1 0 1 0 1 0 
1 0 1 0 1 0 1 0 1 0 1 0 1 0 1 0 
1 0 1 0 1 0 1 0 1 0 1 0 1 0 1 0 
1 0 1 0 1 0 1 0 1 0 1 0 1 0 1 0 
1 1 1 0 1 0 1 0 1 0 1 0 1 0 1 0 
1 0 1 0 1 0 1 0 1 0 1 0 1 0 1 0 
1 0 1 0 1 0 1 0 1 0 1 0 1 0 1 0 
1 0 1 0 1 0 1183 1863 300 MP stroke
1 0 1 0 1 0 1 0 1 0 1 0 1 0 1 0 
1 0 1 0 1 0 1 -1 1 0 1 0 1 0 1 0 
1 0 1 0 1 0 1 0 1 0 1 0 1 0 1 0 
1 0 1 0 1 0 1 0 1 0 1 0 1 0 1 0 
1 0 1 0 1 0 1 0 1 0 1 0 1 0 1 0 
1 0 1 0 1 0 1 0 1 0 1 0 1 0 1 -1 
1 0 1 0 1 0 1 0 1 0 1 0 1 0 1 0 
1 0 1 0 1 0 1 0 1 0 1 0 1 0 1 0 
1 0 1 0 1 0 1 0 1 0 1 -1 1 0 1 0 
1 0 1 0 1 0 1 0 1 0 1 0 1 0 1 0 
1 0 1 0 1 0 1 0 1 0 1 0 1 -1 1 0 
1 0 1 0 1 0 1 0 1 0 1 0 1 0 1 0 
1 0 1 0 1 0 1 0 1 0 1 -1 1 0 1 0 
1 0 1 0 1 0 1 0 1 0 1 0 1 0 1 0 
1 0 1 0 1 0 1 -1 1 0 1 0 1 0 1 0 
1 0 1 0 1 0 1 0 1 0 1 0 1 0 1 0 
1 -1 1 0 1 0 1 0 1 0 1 0 1 0 1 0 
1 0 1 0 1 0 1 0 1 -1 1 0 1 0 1 0 
1 0 1 0 1 0 1 0 1 0 1 0 1 0 1 0 
1 -1 1 0 1 0 1 0 1 0 1 0 1 0 1 0 
1 0 1 0 1 0 1 0 1 -1 1 0 1 0 1 0 
1 0 1 0 1 0 1 0 1 0 1 0 1 0 1 -1 
1 0 1 0 1 0 1 0 1 0 1 0 1 0 1 0 
1 0 1 0 1 -1 1 0 1 0 1 0 1 0 1 0 
1 0 1 0 1 0 1 0 1 0 1 0 1 -1 1 0 
1 0 1 0 1 0 1 0 1 0 1 0 1 0 1 0 
1 0 1 -1 1 0 1 0 1 0 1 0 1 0 1 0 
1 0 1 0 1 0 1 0 1 0 1 -1 1 0 1 0 
1 0 1 0 1 0 1 0 1 0 1 0 1 0 1 0 
1 0 1 -1 1 0 1 0 1 0 1 0 1 0 1 0 
1 0 1 0 1 0 1 0 1 0 1 -1 1 0 1 0 
1 0 1 0 1 0 1 0 1 0 1 0 1 0 1 0 
1 0 1 0 1 -1 1 0 1 0 1 0 1 0 1 0 
1 0 1 0 1 0 1 0 1 0 1 0 1 0 1 0 
1 -1 1 0 1 0 1 0 1 0 1 0 1 0 1 0 
1 0 1 0 1 0 1 0 1 0 1 0 1 0 1 -1 
1 0 1 0 1 0 1 0 1 0 1 0 1 0 1 0 
1 0 1 0 1 0 884 1883 300 MP stroke
1 0 1 0 1 0 1 0 1 -1 1 0 1 0 1 0 
1 0 1 0 1 0 1 0 1 0 1 0 1 0 1 0 
1 0 1 0 1 0 1 0 1 0 1 0 1 0 1 0 
1 -1 1 0 1 0 1 0 1 0 1 0 1 0 1 0 
1 0 1 0 1 0 1 0 1 0 1 0 1 0 1 0 
1 0 1 0 1 0 1 0 1 0 1 0 1 0 1 0 
1 0 1 -1 1 0 1 0 1 0 1 0 1 0 1 0 
1 0 1 0 1 0 1 0 1 0 1 0 1 0 1 0 
1 0 1 0 1 0 1 0 1 0 1 0 1 0 1 0 
1 0 1 0 1 0 1 0 1 0 1 0 1 0 1 0 
1 0 1 0 1 0 1 0 1 0 1 0 1 0 1 0 
1 0 1 0 1 0 1 0 1 0 1 0 1 0 1 0 
1 0 1 0 1 0 1 0 1 0 1 0 1 0 1 0 
1 0 1 0 1 0 1 0 1 0 -1 0 776 1886 111 MP stroke
gr

%%IncludeResource: font Helvetica
/Helvetica /WindowsLatin1Encoding 120 FMSR

3066 2175 mt 
(f) s
 438 1171 mt  -90 rotate
(G) s
90 rotate
%%IncludeResource: font Helvetica
/Helvetica /WindowsLatin1Encoding 96 FMSR

 498 1078 mt  -90 rotate
(x) s
90 rotate
%%IncludeResource: font Helvetica
/Helvetica /WindowsLatin1Encoding 120 FMSR

 438 1030 mt  -90 rotate
(\(f\)) s
90 rotate

end %%Color Dict

eplot
%%EndObject

epage
end

showpage

%%Trailer
%%EOF
